<?xml version="1.0" encoding="utf-8"?>
<Document xmlns="http://www.opengis.net/kml/2.2">
  <name>guessing-road-condition</name>
  <Style id="icon-1739-DB4436-nodesc">
    <IconStyle>
      <color>ff3644db</color>
      <colorMode>normal</colorMode>
      <scale>1</scale>
      <Icon>
        <href>https://www.gstatic.com/mapspro/images/stock/503-wht-blank_maps.png</href>
      </Icon>
    </IconStyle>
  </Style>
  <Style id="0e049319-8fcc-4eec-8896-77967139a5be">
    <LineStyle>
      <color>ff2bb4af</color>
      <colorMode>normal</colorMode>
      <width>4</width>
    </LineStyle>
  </Style>
  <Style id="b164de0d-b1f0-466a-9d97-62ef63452a5b">
    <LineStyle>
      <color>ff000000</color>
      <colorMode>normal</colorMode>
      <width>1</width>
    </LineStyle>
  </Style>
  <Placemark>
    <name>988562612</name>
    <description>;;None</description>
    <styleUrl>#icon-1739-DB4436-nodesc</styleUrl>
    <Point>
      <coordinates>18.4959551,53.034593299999997,36.142857142857139</coordinates>
    </Point>
  </Placemark>
  <Placemark>
    <name>5456818687</name>
    <description>;;None</description>
    <styleUrl>#icon-1739-DB4436-nodesc</styleUrl>
    <Point>
      <coordinates>18.495490199999995,53.034804200000004,35.714285714285722</coordinates>
    </Point>
  </Placemark>
  <Placemark>
    <name>988562972</name>
    <description>;;None</description>
    <styleUrl>#icon-1739-DB4436-nodesc</styleUrl>
    <Point>
      <coordinates>18.494925400000003,53.035069099999994,35.285714285714278</coordinates>
    </Point>
  </Placemark>
  <Placemark>
    <name>4577736870</name>
    <description>;;None</description>
    <styleUrl>#icon-1739-DB4436-nodesc</styleUrl>
    <Point>
      <coordinates>18.494226299999998,53.035368300000002,35.714285714285722</coordinates>
    </Point>
  </Placemark>
  <Placemark>
    <name>10278592507</name>
    <description>;;None</description>
    <styleUrl>#icon-1739-DB4436-nodesc</styleUrl>
    <Point>
      <coordinates>18.492271299999999,53.036223499999998,35</coordinates>
    </Point>
  </Placemark>
  <Placemark>
    <name>4577736869</name>
    <description>;;None</description>
    <styleUrl>#icon-1739-DB4436-nodesc</styleUrl>
    <Point>
      <coordinates>18.493897499999999,53.035131,37</coordinates>
    </Point>
  </Placemark>
  <Placemark>
    <name>988562765</name>
    <description>;;None</description>
    <styleUrl>#icon-1739-DB4436-nodesc</styleUrl>
    <Point>
      <coordinates>18.495494000000001,53.034581299999999,36</coordinates>
    </Point>
  </Placemark>
  <Placemark>
    <name>4577736868</name>
    <description>;;None</description>
    <styleUrl>#icon-1739-DB4436-nodesc</styleUrl>
    <Point>
      <coordinates>18.4948497,53.034843899999998,36.428571428571416</coordinates>
    </Point>
  </Placemark>
  <Placemark>
    <name>4577736871</name>
    <description>;;None</description>
    <styleUrl>#icon-1739-DB4436-nodesc</styleUrl>
    <Point>
      <coordinates>18.493322900000003,53.034748800000003,37.857142857142861</coordinates>
    </Point>
  </Placemark>
  <Placemark>
    <name>4577736872</name>
    <description>;;None</description>
    <styleUrl>#icon-1739-DB4436-nodesc</styleUrl>
    <Point>
      <coordinates>18.493241399999995,53.034640799999998,37.714285714285722</coordinates>
    </Point>
  </Placemark>
  <Placemark>
    <name>8489564286</name>
    <description>;;None</description>
    <styleUrl>#icon-1739-DB4436-nodesc</styleUrl>
    <Point>
      <coordinates>18.492297400000002,53.036259800000003,35</coordinates>
    </Point>
  </Placemark>
  <Placemark>
    <name>7146378712</name>
    <description>;;None</description>
    <styleUrl>#icon-1739-DB4436-nodesc</styleUrl>
    <Point>
      <coordinates>18.493027000000001,53.035937400000002,35</coordinates>
    </Point>
  </Placemark>
  <Placemark>
    <name>8489564285</name>
    <description>;;None</description>
    <styleUrl>#icon-1739-DB4436-nodesc</styleUrl>
    <Point>
      <coordinates>18.494015799999996,53.035498500000003,35.142857142857139</coordinates>
    </Point>
  </Placemark>
  <Placemark>
    <name>7184532963</name>
    <description>;;None</description>
    <styleUrl>#icon-1739-DB4436-nodesc</styleUrl>
    <Point>
      <coordinates>18.494122999999995,53.035452499999998,35.428571428571416</coordinates>
    </Point>
  </Placemark>
  <Placemark>
    <name>7490296024</name>
    <description>;;None</description>
    <styleUrl>#icon-1739-DB4436-nodesc</styleUrl>
    <Point>
      <coordinates>18.494960599999999,53.035100200000002,35.142857142857139</coordinates>
    </Point>
  </Placemark>
  <Placemark>
    <name>7490296023</name>
    <description>;;None</description>
    <styleUrl>#icon-1739-DB4436-nodesc</styleUrl>
    <Point>
      <coordinates>18.495547699999999,53.034851600000003,35.571428571428584</coordinates>
    </Point>
  </Placemark>
  <Placemark>
    <name>8489564284</name>
    <description>;;None</description>
    <styleUrl>#icon-1739-DB4436-nodesc</styleUrl>
    <Point>
      <coordinates>18.495961000000005,53.0346628,36.142857142857139</coordinates>
    </Point>
  </Placemark>
  <Placemark>
    <name>8489564283</name>
    <description>;;None</description>
    <styleUrl>#icon-1739-DB4436-nodesc</styleUrl>
    <Point>
      <coordinates>18.496042200000002,53.034652699999995,36.142857142857139</coordinates>
    </Point>
  </Placemark>
  <Placemark>
    <name>7242485215</name>
    <description>;;None</description>
    <styleUrl>#icon-1739-DB4436-nodesc</styleUrl>
    <Point>
      <coordinates>18.496096000000001,53.034630900000003,36.285714285714278</coordinates>
    </Point>
  </Placemark>
  <Placemark>
    <name>8489564282</name>
    <description>;;None</description>
    <styleUrl>#icon-1739-DB4436-nodesc</styleUrl>
    <Point>
      <coordinates>18.496161500000003,53.034603000000004,36.428571428571416</coordinates>
    </Point>
  </Placemark>
  <Placemark>
    <name>8489564281</name>
    <description>;;None</description>
    <styleUrl>#icon-1739-DB4436-nodesc</styleUrl>
    <Point>
      <coordinates>18.496309100000001,53.034512700000001,36.714285714285722</coordinates>
    </Point>
  </Placemark>
  <Placemark>
    <name>7490296022</name>
    <description>;;None</description>
    <styleUrl>#icon-1739-DB4436-nodesc</styleUrl>
    <Point>
      <coordinates>18.496867600000002,53.034263799999998,37.714285714285722</coordinates>
    </Point>
  </Placemark>
  <Placemark>
    <name>7590104075</name>
    <description>;;None</description>
    <styleUrl>#icon-1739-DB4436-nodesc</styleUrl>
    <Point>
      <coordinates>18.496920000000003,53.034213999999999,37.857142857142861</coordinates>
    </Point>
  </Placemark>
  <Placemark>
    <name>8489564279</name>
    <description>;;None</description>
    <styleUrl>#icon-1739-DB4436-nodesc</styleUrl>
    <Point>
      <coordinates>18.497364600000001,53.034016999999999,36.285714285714278</coordinates>
    </Point>
  </Placemark>
  <Placemark>
    <name>7146371981</name>
    <description>;;None</description>
    <styleUrl>#icon-1739-DB4436-nodesc</styleUrl>
    <Point>
      <coordinates>18.4975603,53.033938499999998,36</coordinates>
    </Point>
  </Placemark>
  <Placemark>
    <name>7146371982</name>
    <description>;;None</description>
    <styleUrl>#icon-1739-DB4436-nodesc</styleUrl>
    <Point>
      <coordinates>18.498268899999999,53.033631300000003,36</coordinates>
    </Point>
  </Placemark>
  <Placemark>
    <name>988563036</name>
    <description>;;None</description>
    <styleUrl>#icon-1739-DB4436-nodesc</styleUrl>
    <Point>
      <coordinates>18.497677000000003,53.035894900000002,37</coordinates>
    </Point>
  </Placemark>
  <Placemark>
    <name>988562842</name>
    <description>;;None</description>
    <styleUrl>#icon-1739-DB4436-nodesc</styleUrl>
    <Point>
      <coordinates>18.496930299999999,53.035279899999999,35</coordinates>
    </Point>
  </Placemark>
  <Placemark>
    <name>988562823</name>
    <description>;;None</description>
    <styleUrl>#icon-1739-DB4436-nodesc</styleUrl>
    <Point>
      <coordinates>18.4967711,53.035148399999997,35.428571428571416</coordinates>
    </Point>
  </Placemark>
  <Placemark>
    <name>988562718</name>
    <description>;;None</description>
    <styleUrl>#icon-1739-DB4436-nodesc</styleUrl>
    <Point>
      <coordinates>18.496595500000002,53.035019599999998,35.714285714285722</coordinates>
    </Point>
  </Placemark>
  <Placemark>
    <name>3980855450</name>
    <description>;;None</description>
    <styleUrl>#icon-1739-DB4436-nodesc</styleUrl>
    <Point>
      <coordinates>18.496133800000003,53.034654000000003,36.285714285714278</coordinates>
    </Point>
  </Placemark>
  <Placemark>
    <name>8489564280</name>
    <description>;;None</description>
    <styleUrl>#icon-1739-DB4436-nodesc</styleUrl>
    <Point>
      <coordinates>18.496025499999998,53.034607000000008,36.285714285714278</coordinates>
    </Point>
  </Placemark>
  <Placemark>
    <name>988563145</name>
    <description>;;None</description>
    <styleUrl>#icon-1739-DB4436-nodesc</styleUrl>
    <Point>
      <coordinates>18.497173400000005,53.034071099999991,36.857142857142861</coordinates>
    </Point>
  </Placemark>
  <Placemark>
    <name>988563103</name>
    <description>;;None</description>
    <styleUrl>#icon-1739-DB4436-nodesc</styleUrl>
    <Point>
      <coordinates>18.498978099999999,53.033262399999998,37.285714285714278</coordinates>
    </Point>
  </Placemark>
  <Placemark>
    <name>988563111</name>
    <description>;;None</description>
    <styleUrl>#icon-1739-DB4436-nodesc</styleUrl>
    <Point>
      <coordinates>18.4960661,53.035996400000009,36</coordinates>
    </Point>
  </Placemark>
  <Placemark>
    <name>988562699</name>
    <description>;;None</description>
    <styleUrl>#icon-1739-DB4436-nodesc</styleUrl>
    <Point>
      <coordinates>18.496911099999998,53.035004200000003,36</coordinates>
    </Point>
  </Placemark>
  <Placemark>
    <name>988562572</name>
    <description>;;None</description>
    <styleUrl>#icon-1739-DB4436-nodesc</styleUrl>
    <Point>
      <coordinates>18.4971177,53.034999499999998,36.571428571428584</coordinates>
    </Point>
  </Placemark>
  <Placemark>
    <name>988562445</name>
    <description>;;None</description>
    <styleUrl>#icon-1739-DB4436-nodesc</styleUrl>
    <Point>
      <coordinates>18.497173700000001,53.035014599999997,36.714285714285722</coordinates>
    </Point>
  </Placemark>
  <Placemark>
    <name>988563168</name>
    <description>;;None</description>
    <styleUrl>#icon-1739-DB4436-nodesc</styleUrl>
    <Point>
      <coordinates>18.4972143,53.0350495,36.857142857142861</coordinates>
    </Point>
  </Placemark>
  <Placemark>
    <name>988562377</name>
    <description>;;None</description>
    <styleUrl>#icon-1739-DB4436-nodesc</styleUrl>
    <Point>
      <coordinates>18.497223999999999,53.035084300000008,36.714285714285722</coordinates>
    </Point>
  </Placemark>
  <Placemark>
    <name>988563087</name>
    <description>;;None</description>
    <styleUrl>#icon-1739-DB4436-nodesc</styleUrl>
    <Point>
      <coordinates>18.4972104,53.035128399999998,36.428571428571416</coordinates>
    </Point>
  </Placemark>
  <Placemark>
    <name>1195341016</name>
    <description>;;None</description>
    <styleUrl>#icon-1739-DB4436-nodesc</styleUrl>
    <Point>
      <coordinates>18.495406000000003,53.034519799999998,36</coordinates>
    </Point>
  </Placemark>
  <Placemark>
    <name>1195341026</name>
    <description>;;None</description>
    <styleUrl>#icon-1739-DB4436-nodesc</styleUrl>
    <Point>
      <coordinates>18.494582999999999,53.033843799999993,36.142857142857139</coordinates>
    </Point>
  </Placemark>
  <Placemark>
    <name>1195340991</name>
    <description>;;None</description>
    <styleUrl>#icon-1739-DB4436-nodesc</styleUrl>
    <Point>
      <coordinates>18.495854400000002,53.033971999999999,37</coordinates>
    </Point>
  </Placemark>
  <Placemark>
    <name>1195340985</name>
    <description>;;None</description>
    <styleUrl>#icon-1739-DB4436-nodesc</styleUrl>
    <Point>
      <coordinates>18.495775699999999,53.033979700000003,37</coordinates>
    </Point>
  </Placemark>
  <Placemark>
    <name>1195340987</name>
    <description>;;None</description>
    <styleUrl>#icon-1739-DB4436-nodesc</styleUrl>
    <Point>
      <coordinates>18.4954088,53.033662499999998,36.857142857142861</coordinates>
    </Point>
  </Placemark>
  <Placemark>
    <name>1195340997</name>
    <description>;;None</description>
    <styleUrl>#icon-1739-DB4436-nodesc</styleUrl>
    <Point>
      <coordinates>18.497670500000002,53.033244799999999,36.285714285714278</coordinates>
    </Point>
  </Placemark>
  <Placemark>
    <name>85248518</name>
    <description>0; Unclassified; Unknown; Intermediate; HasAccess; Jaśminowa; Grade3; ?; 1</description>
    <styleUrl>#0e049319-8fcc-4eec-8896-77967139a5be</styleUrl>
    <LineString>
      <coordinates>18.4959551,53.034593299999997,0
18.495490199999995,53.034804200000004,0
18.494925400000003,53.035069099999994,0
18.494226299999998,53.035368300000002,0
18.492271299999999,53.036223499999998,0</coordinates>
    </LineString>
  </Placemark>
  <Placemark>
    <name>949433921</name>
    <description>0; Unclassified; Unpaved; Intermediate; HasAccess; Rzemieślnicza; Grade3; ?; 1</description>
    <styleUrl>#0e049319-8fcc-4eec-8896-77967139a5be</styleUrl>
    <LineString>
      <coordinates>18.493897499999999,53.035131,0
18.494226299999998,53.035368300000002,0</coordinates>
    </LineString>
  </Placemark>
  <Placemark>
    <name>462371980</name>
    <description>0; Auxiliary; Unpaved; Intermediate; HasAccess; ; Grade3; ?; 1</description>
    <styleUrl>#0e049319-8fcc-4eec-8896-77967139a5be</styleUrl>
    <LineString>
      <coordinates>18.495494000000001,53.034581299999999,0
18.4948497,53.034843899999998,0
18.493897499999999,53.035131,0</coordinates>
    </LineString>
  </Placemark>
  <Placemark>
    <name>949433922</name>
    <description>0; Unclassified; Unpaved; Intermediate; HasAccess; Rzemieślnicza; Grade3; ?; 1</description>
    <styleUrl>#0e049319-8fcc-4eec-8896-77967139a5be</styleUrl>
    <LineString>
      <coordinates>18.493897499999999,53.035131,0
18.493322900000003,53.034748800000003,0</coordinates>
    </LineString>
  </Placemark>
  <Placemark>
    <name>462371981</name>
    <description>0; Auxiliary; Unpaved; Intermediate; HasAccess; ; Grade3; ?; 1</description>
    <styleUrl>#0e049319-8fcc-4eec-8896-77967139a5be</styleUrl>
    <LineString>
      <coordinates>18.493322900000003,53.034748800000003,0
18.493241399999995,53.034640799999998,0</coordinates>
    </LineString>
  </Placemark>
  <Placemark>
    <name>769676010</name>
    <description>0; Cycleway; AsphaltLike; Excellent; HasAccess; ; Grade1; ?; 1</description>
    <styleUrl>#b164de0d-b1f0-466a-9d97-62ef63452a5b</styleUrl>
    <LineString>
      <coordinates>18.492297400000002,53.036259800000003,0
18.493027000000001,53.035937400000002,0
18.494015799999996,53.035498500000003,0
18.494122999999995,53.035452499999998,0
18.494960599999999,53.035100200000002,0
18.495547699999999,53.034851600000003,0
18.495961000000005,53.0346628,0
18.496042200000002,53.034652699999995,0
18.496096000000001,53.034630900000003,0
18.496161500000003,53.034603000000004,0
18.496309100000001,53.034512700000001,0
18.496867600000002,53.034263799999998,0
18.496920000000003,53.034213999999999,0
18.497364600000001,53.034016999999999,0
18.4975603,53.033938499999998,0
18.498268899999999,53.033631300000003,0</coordinates>
    </LineString>
  </Placemark>
  <Placemark>
    <name>85248541</name>
    <description>0; Unclassified; Unknown; Intermediate; HasAccess; Osiedlowa; Grade3; ?; 1</description>
    <styleUrl>#0e049319-8fcc-4eec-8896-77967139a5be</styleUrl>
    <LineString>
      <coordinates>18.497677000000003,53.035894900000002,0
18.496930299999999,53.035279899999999,0
18.4967711,53.035148399999997,0
18.496595500000002,53.035019599999998,0
18.496133800000003,53.034654000000003,0
18.496096000000001,53.034630900000003,0
18.496025499999998,53.034607000000008,0
18.4959551,53.034593299999997,0
18.495494000000001,53.034581299999999,0</coordinates>
    </LineString>
  </Placemark>
  <Placemark>
    <name>85248558</name>
    <description>0; Unclassified; Unknown; Intermediate; HasAccess; Jaśminowa; Grade3; ?; 1</description>
    <styleUrl>#0e049319-8fcc-4eec-8896-77967139a5be</styleUrl>
    <LineString>
      <coordinates>18.4959551,53.034593299999997,0
18.497173400000005,53.034071099999991,0
18.498978099999999,53.033262399999998,0</coordinates>
    </LineString>
  </Placemark>
  <Placemark>
    <name>566714837</name>
    <description>0; Unclassified; AsphaltLike; Intermediate; HasAccess; ; Grade1; ?; 1</description>
    <styleUrl>#b164de0d-b1f0-466a-9d97-62ef63452a5b</styleUrl>
    <LineString>
      <coordinates>18.495494000000001,53.034581299999999,0
18.495490199999995,53.034804200000004,0</coordinates>
    </LineString>
  </Placemark>
  <Placemark>
    <name>913903681</name>
    <description>0; Cycleway; Unknown; Intermediate; HasAccess; ; Grade3; ?; 1</description>
    <styleUrl>#0e049319-8fcc-4eec-8896-77967139a5be</styleUrl>
    <LineString>
      <coordinates>18.495547699999999,53.034851600000003,0
18.495490199999995,53.034804200000004,0</coordinates>
    </LineString>
  </Placemark>
  <Placemark>
    <name>449773198</name>
    <description>0; Unclassified; Unknown; Intermediate; HasAccess; Narcyzowa; Grade3; ?; 1</description>
    <styleUrl>#0e049319-8fcc-4eec-8896-77967139a5be</styleUrl>
    <LineString>
      <coordinates>18.4960661,53.035996400000009,0
18.494960599999999,53.035100200000002,0
18.494925400000003,53.035069099999994,0</coordinates>
    </LineString>
  </Placemark>
  <Placemark>
    <name>85248552</name>
    <description>0; Auxiliary; Unknown; Intermediate; HasAccess; ; Grade3; ?; 1</description>
    <styleUrl>#0e049319-8fcc-4eec-8896-77967139a5be</styleUrl>
    <LineString>
      <coordinates>18.496595500000002,53.035019599999998,0
18.496911099999998,53.035004200000003,0
18.4971177,53.034999499999998,0
18.497173700000001,53.035014599999997,0
18.4972143,53.0350495,0
18.497223999999999,53.035084300000008,0
18.4972104,53.035128399999998,0
18.496930299999999,53.035279899999999,0</coordinates>
    </LineString>
  </Placemark>
  <Placemark>
    <name>395183266</name>
    <description>0; Unclassified; Unknown; Intermediate; HasAccess; Księdza Jerzego Popiełuszki; Grade3; ?; 1</description>
    <styleUrl>#0e049319-8fcc-4eec-8896-77967139a5be</styleUrl>
    <LineString>
      <coordinates>18.495494000000001,53.034581299999999,0
18.495406000000003,53.034519799999998,0
18.494582999999999,53.033843799999993,0</coordinates>
    </LineString>
  </Placemark>
  <Placemark>
    <name>136393879</name>
    <description>0; Unclassified; Unknown; Intermediate; HasAccess; ; Grade3; ?; 1</description>
    <styleUrl>#0e049319-8fcc-4eec-8896-77967139a5be</styleUrl>
    <LineString>
      <coordinates>18.495854400000002,53.033971999999999,0
18.495775699999999,53.033979700000003,0
18.4954088,53.033662499999998,0</coordinates>
    </LineString>
  </Placemark>
  <Placemark>
    <name>449773202</name>
    <description>0; Unclassified; Unknown; Intermediate; HasAccess; Żurawia; Grade3; ?; 1</description>
    <styleUrl>#0e049319-8fcc-4eec-8896-77967139a5be</styleUrl>
    <LineString>
      <coordinates>18.497670500000002,53.033244799999999,0
18.495854400000002,53.033971999999999,0</coordinates>
    </LineString>
  </Placemark>
  <Placemark>
    <name>1123948096</name>
    <description>0; Auxiliary; Unknown; Intermediate; HasAccess; ; Grade3; ?; 1</description>
    <styleUrl>#0e049319-8fcc-4eec-8896-77967139a5be</styleUrl>
    <LineString>
      <coordinates>18.492271299999999,53.036223499999998,0
18.492297400000002,53.036259800000003,0</coordinates>
    </LineString>
  </Placemark>
  <Placemark>
    <name>85248531</name>
    <description>0; Unclassified; Unknown; Intermediate; HasAccess; Różana; Grade3; ?; 1</description>
    <styleUrl>#0e049319-8fcc-4eec-8896-77967139a5be</styleUrl>
    <LineString>
      <coordinates>18.497677000000003,53.035894900000002,0</coordinates>
    </LineString>
  </Placemark>
  <Placemark>
    <name>103528046</name>
    <description>0; Unclassified; Unknown; Intermediate; HasAccess; ; Grade3; ?; 1</description>
    <styleUrl>#0e049319-8fcc-4eec-8896-77967139a5be</styleUrl>
    <LineString>
      <coordinates>18.497670500000002,53.033244799999999,0</coordinates>
    </LineString>
  </Placemark>
  <Placemark>
    <name>103528047</name>
    <description>0; Unclassified; Unknown; Intermediate; HasAccess; Kanarkowa; Grade3; ?; 1</description>
    <styleUrl>#0e049319-8fcc-4eec-8896-77967139a5be</styleUrl>
    <LineString>
      <coordinates>18.4954088,53.033662499999998,0</coordinates>
    </LineString>
  </Placemark>
  <Placemark>
    <name>85248513</name>
    <description>0; Unclassified; Unknown; Intermediate; HasAccess; Tulipanowa; Grade3; ?; 1</description>
    <styleUrl>#0e049319-8fcc-4eec-8896-77967139a5be</styleUrl>
    <LineString>
      <coordinates>18.4960661,53.035996400000009,0</coordinates>
    </LineString>
  </Placemark>
</Document>