<?xml version="1.0" encoding="utf-8"?>
<Document xmlns="http://www.opengis.net/kml/2.2">
  <name>x</name>
  <Style id="icon-1739-DB4436-nodesc">
    <IconStyle>
      <color>ff3644db</color>
      <colorMode>normal</colorMode>
      <scale>1</scale>
      <Icon>
        <href>https://www.gstatic.com/mapspro/images/stock/503-wht-blank_maps.png</href>
      </Icon>
    </IconStyle>
  </Style>
  <Style id="42cb85ba-9b19-4c59-9ca5-a170ad17d7b1">
    <LineStyle>
      <color>ff2bb4af</color>
      <colorMode>normal</colorMode>
      <width>4</width>
    </LineStyle>
  </Style>
  <Style id="b168ab1c-18ae-484e-9f62-05665abb4ee5">
    <LineStyle>
      <color>ffd18802</color>
      <colorMode>normal</colorMode>
      <width>6</width>
    </LineStyle>
  </Style>
  <Placemark>
    <name>1589890650</name>
    <description>;;None</description>
    <styleUrl>#icon-1739-DB4436-nodesc</styleUrl>
    <Point>
      <coordinates>17.998284900000002,53.1083766,67.857142857142861</coordinates>
    </Point>
  </Placemark>
  <Placemark>
    <name>1589890558</name>
    <description>;;None</description>
    <styleUrl>#icon-1739-DB4436-nodesc</styleUrl>
    <Point>
      <coordinates>17.998081000000003,53.108382400000004,66.714285714285722</coordinates>
    </Point>
  </Placemark>
  <Placemark>
    <name>1589890894</name>
    <description>;;None</description>
    <styleUrl>#icon-1739-DB4436-nodesc</styleUrl>
    <Point>
      <coordinates>17.997745999999999,53.108398999999999,66</coordinates>
    </Point>
  </Placemark>
  <Placemark>
    <name>1589890824</name>
    <description>;;None</description>
    <styleUrl>#icon-1739-DB4436-nodesc</styleUrl>
    <Point>
      <coordinates>17.997751000000001,53.1084277,66.428571428571416</coordinates>
    </Point>
  </Placemark>
  <Placemark>
    <name>1589891021</name>
    <description>;;None</description>
    <styleUrl>#icon-1739-DB4436-nodesc</styleUrl>
    <Point>
      <coordinates>17.997783900000002,53.1085536,68.142857142857139</coordinates>
    </Point>
  </Placemark>
  <Placemark>
    <name>1589890778</name>
    <description>;;None</description>
    <styleUrl>#icon-1739-DB4436-nodesc</styleUrl>
    <Point>
      <coordinates>17.997824199999997,53.108624300000002,69.142857142857139</coordinates>
    </Point>
  </Placemark>
  <Placemark>
    <name>1589890855</name>
    <description>;;None</description>
    <styleUrl>#icon-1739-DB4436-nodesc</styleUrl>
    <Point>
      <coordinates>17.997917600000001,53.108729899999993,69.571428571428584</coordinates>
    </Point>
  </Placemark>
  <Placemark>
    <name>1589890578</name>
    <description>;;None</description>
    <styleUrl>#icon-1739-DB4436-nodesc</styleUrl>
    <Point>
      <coordinates>17.997972600000001,53.1087943,69.857142857142861</coordinates>
    </Point>
  </Placemark>
  <Placemark>
    <name>1589890874</name>
    <description>;;None</description>
    <styleUrl>#icon-1739-DB4436-nodesc</styleUrl>
    <Point>
      <coordinates>17.998056500000004,53.108883900000009,70</coordinates>
    </Point>
  </Placemark>
  <Placemark>
    <name>1589890826</name>
    <description>;;None</description>
    <styleUrl>#icon-1739-DB4436-nodesc</styleUrl>
    <Point>
      <coordinates>17.9980978,53.108989600000001,69.857142857142861</coordinates>
    </Point>
  </Placemark>
  <Placemark>
    <name>1589890880</name>
    <description>;;None</description>
    <styleUrl>#icon-1739-DB4436-nodesc</styleUrl>
    <Point>
      <coordinates>17.998094800000001,53.109101199999991,69.714285714285722</coordinates>
    </Point>
  </Placemark>
  <Placemark>
    <name>1589890489</name>
    <description>;;None</description>
    <styleUrl>#icon-1739-DB4436-nodesc</styleUrl>
    <Point>
      <coordinates>17.997579500000001,53.1084453,67.285714285714278</coordinates>
    </Point>
  </Placemark>
  <Placemark>
    <name>1589890973</name>
    <description>;;None</description>
    <styleUrl>#icon-1739-DB4436-nodesc</styleUrl>
    <Point>
      <coordinates>17.9974226,53.108555600000003,69.142857142857139</coordinates>
    </Point>
  </Placemark>
  <Placemark>
    <name>1589890737</name>
    <description>;;None</description>
    <styleUrl>#icon-1739-DB4436-nodesc</styleUrl>
    <Point>
      <coordinates>17.997184399999998,53.1086709,70.428571428571416</coordinates>
    </Point>
  </Placemark>
  <Placemark>
    <name>1589890475</name>
    <description>;;None</description>
    <styleUrl>#icon-1739-DB4436-nodesc</styleUrl>
    <Point>
      <coordinates>17.9969872,53.108757400000002,70.571428571428584</coordinates>
    </Point>
  </Placemark>
  <Placemark>
    <name>2993407547</name>
    <description>;;None</description>
    <styleUrl>#icon-1739-DB4436-nodesc</styleUrl>
    <Point>
      <coordinates>17.997742899999999,53.108297,65</coordinates>
    </Point>
  </Placemark>
  <Placemark>
    <name>1589890659</name>
    <description>;;None</description>
    <styleUrl>#icon-1739-DB4436-nodesc</styleUrl>
    <Point>
      <coordinates>17.997895499999998,53.108547000000002,68.142857142857139</coordinates>
    </Point>
  </Placemark>
  <Placemark>
    <name>1589890772</name>
    <description>;;None</description>
    <styleUrl>#icon-1739-DB4436-nodesc</styleUrl>
    <Point>
      <coordinates>17.998270900000001,53.108518799999999,68.571428571428584</coordinates>
    </Point>
  </Placemark>
  <Placemark>
    <name>1589890972</name>
    <description>;;None</description>
    <styleUrl>#icon-1739-DB4436-nodesc</styleUrl>
    <Point>
      <coordinates>17.998014299999998,53.108684599999997,69.285714285714278</coordinates>
    </Point>
  </Placemark>
  <Placemark>
    <name>1589890817</name>
    <description>;;None</description>
    <styleUrl>#icon-1739-DB4436-nodesc</styleUrl>
    <Point>
      <coordinates>17.9982018,53.108674299999997,69.142857142857139</coordinates>
    </Point>
  </Placemark>
  <Placemark>
    <name>2993407779</name>
    <description>;;None</description>
    <styleUrl>#icon-1739-DB4436-nodesc</styleUrl>
    <Point>
      <coordinates>17.998025200000001,53.108992499999999,70.142857142857139</coordinates>
    </Point>
  </Placemark>
  <Placemark>
    <name>1589890633</name>
    <description>;;None</description>
    <styleUrl>#icon-1739-DB4436-nodesc</styleUrl>
    <Point>
      <coordinates>17.997846799999998,53.1089895,70.714285714285722</coordinates>
    </Point>
  </Placemark>
  <Placemark>
    <name>1589890682</name>
    <description>;;None</description>
    <styleUrl>#icon-1739-DB4436-nodesc</styleUrl>
    <Point>
      <coordinates>17.997701299999999,53.108993100000006,71.285714285714278</coordinates>
    </Point>
  </Placemark>
  <Placemark>
    <name>2993407786</name>
    <description>;;None</description>
    <styleUrl>#icon-1739-DB4436-nodesc</styleUrl>
    <Point>
      <coordinates>17.997615100000001,53.108997100000011,71.571428571428584</coordinates>
    </Point>
  </Placemark>
  <Placemark>
    <name>1589890565</name>
    <description>;;None</description>
    <styleUrl>#icon-1739-DB4436-nodesc</styleUrl>
    <Point>
      <coordinates>17.997414800000001,53.109015200000002,72</coordinates>
    </Point>
  </Placemark>
  <Placemark>
    <name>2993407904</name>
    <description>;;None</description>
    <styleUrl>#icon-1739-DB4436-nodesc</styleUrl>
    <Point>
      <coordinates>17.998020100000005,53.1091944,70</coordinates>
    </Point>
  </Placemark>
  <Placemark>
    <name>2993407815</name>
    <description>;;None</description>
    <styleUrl>#icon-1739-DB4436-nodesc</styleUrl>
    <Point>
      <coordinates>17.997694900000003,53.109025699999997,71.285714285714278</coordinates>
    </Point>
  </Placemark>
  <Placemark>
    <name>2993407909</name>
    <description>;;None</description>
    <styleUrl>#icon-1739-DB4436-nodesc</styleUrl>
    <Point>
      <coordinates>17.997686399999999,53.109239500000001,71</coordinates>
    </Point>
  </Placemark>
  <Placemark>
    <name>2973927956</name>
    <description>;;None</description>
    <styleUrl>#icon-1739-DB4436-nodesc</styleUrl>
    <Point>
      <coordinates>17.997654499999996,53.108300399999997,65.285714285714278</coordinates>
    </Point>
  </Placemark>
  <Placemark>
    <name>2973927965</name>
    <description>;;None</description>
    <styleUrl>#icon-1739-DB4436-nodesc</styleUrl>
    <Point>
      <coordinates>17.9974469,53.108368499999997,66.571428571428584</coordinates>
    </Point>
  </Placemark>
  <Placemark>
    <name>2973927966</name>
    <description>;;None</description>
    <styleUrl>#icon-1739-DB4436-nodesc</styleUrl>
    <Point>
      <coordinates>17.997319900000004,53.1083876,66.714285714285722</coordinates>
    </Point>
  </Placemark>
  <Placemark>
    <name>2973927971</name>
    <description>;;None</description>
    <styleUrl>#icon-1739-DB4436-nodesc</styleUrl>
    <Point>
      <coordinates>17.997139499999999,53.108399599999998,67.428571428571416</coordinates>
    </Point>
  </Placemark>
  <Placemark>
    <name>2973927987</name>
    <description>;;None</description>
    <styleUrl>#icon-1739-DB4436-nodesc</styleUrl>
    <Point>
      <coordinates>17.996917199999995,53.108422700000006,68.714285714285722</coordinates>
    </Point>
  </Placemark>
  <Placemark>
    <name>2973927984</name>
    <description>;;None</description>
    <styleUrl>#icon-1739-DB4436-nodesc</styleUrl>
    <Point>
      <coordinates>17.996713399999997,53.108420700000003,69.714285714285722</coordinates>
    </Point>
  </Placemark>
  <Placemark>
    <name>2993407772</name>
    <description>;;None</description>
    <styleUrl>#icon-1739-DB4436-nodesc</styleUrl>
    <Point>
      <coordinates>17.998280900000001,53.108982500000003,68.857142857142861</coordinates>
    </Point>
  </Placemark>
  <Placemark>
    <name>2993407758</name>
    <description>;;None</description>
    <styleUrl>#icon-1739-DB4436-nodesc</styleUrl>
    <Point>
      <coordinates>17.998308399999999,53.108957200000006,68.857142857142861</coordinates>
    </Point>
  </Placemark>
  <Placemark>
    <name>2993407727</name>
    <description>;;None</description>
    <styleUrl>#icon-1739-DB4436-nodesc</styleUrl>
    <Point>
      <coordinates>17.998326500000001,53.108912199999999,69</coordinates>
    </Point>
  </Placemark>
  <Placemark>
    <name>2993407663</name>
    <description>;;None</description>
    <styleUrl>#icon-1739-DB4436-nodesc</styleUrl>
    <Point>
      <coordinates>17.998321399999998,53.108827499999997,69</coordinates>
    </Point>
  </Placemark>
  <Placemark>
    <name>2993407640</name>
    <description>;;None</description>
    <styleUrl>#icon-1739-DB4436-nodesc</styleUrl>
    <Point>
      <coordinates>17.998330800000002,53.108781499999999,69</coordinates>
    </Point>
  </Placemark>
  <Placemark>
    <name>2993407630</name>
    <description>;;None</description>
    <styleUrl>#icon-1739-DB4436-nodesc</styleUrl>
    <Point>
      <coordinates>17.998356699999999,53.108729799999999,69</coordinates>
    </Point>
  </Placemark>
  <Placemark>
    <name>2993407622</name>
    <description>;;None</description>
    <styleUrl>#icon-1739-DB4436-nodesc</styleUrl>
    <Point>
      <coordinates>17.998375599999999,53.108689499999997,69</coordinates>
    </Point>
  </Placemark>
  <Placemark>
    <name>2993407611</name>
    <description>;;None</description>
    <styleUrl>#icon-1739-DB4436-nodesc</styleUrl>
    <Point>
      <coordinates>17.998420400000001,53.108631599999995,69</coordinates>
    </Point>
  </Placemark>
  <Placemark>
    <name>2993407601</name>
    <description>;;None</description>
    <styleUrl>#icon-1739-DB4436-nodesc</styleUrl>
    <Point>
      <coordinates>17.9984669,53.108534900000002,68.714285714285722</coordinates>
    </Point>
  </Placemark>
  <Placemark>
    <name>2993407596</name>
    <description>;;None</description>
    <styleUrl>#icon-1739-DB4436-nodesc</styleUrl>
    <Point>
      <coordinates>17.998465100000001,53.10848270000001,68.571428571428584</coordinates>
    </Point>
  </Placemark>
  <Placemark>
    <name>2993407572</name>
    <description>;;None</description>
    <styleUrl>#icon-1739-DB4436-nodesc</styleUrl>
    <Point>
      <coordinates>17.998652799999999,53.108371099999999,68.285714285714278</coordinates>
    </Point>
  </Placemark>
  <Placemark>
    <name>2993407563</name>
    <description>;;None</description>
    <styleUrl>#icon-1739-DB4436-nodesc</styleUrl>
    <Point>
      <coordinates>17.998563300000004,53.108348399999997,68</coordinates>
    </Point>
  </Placemark>
  <Placemark>
    <name>2993407555</name>
    <description>;;None</description>
    <styleUrl>#icon-1739-DB4436-nodesc</styleUrl>
    <Point>
      <coordinates>17.998490099999998,53.108327699999997,68</coordinates>
    </Point>
  </Placemark>
  <Placemark>
    <name>2993407550</name>
    <description>;;None</description>
    <styleUrl>#icon-1739-DB4436-nodesc</styleUrl>
    <Point>
      <coordinates>17.998420400000001,53.108305999999999,67.857142857142861</coordinates>
    </Point>
  </Placemark>
  <Placemark>
    <name>2993407542</name>
    <description>;;None</description>
    <styleUrl>#icon-1739-DB4436-nodesc</styleUrl>
    <Point>
      <coordinates>17.998381600000002,53.108295100000007,67.714285714285722</coordinates>
    </Point>
  </Placemark>
  <Placemark>
    <name>2993570649</name>
    <description>;;None</description>
    <styleUrl>#icon-1739-DB4436-nodesc</styleUrl>
    <Point>
      <coordinates>17.998350500000001,53.108279600000003,67.571428571428584</coordinates>
    </Point>
  </Placemark>
  <Placemark>
    <name>2993570648</name>
    <description>;;None</description>
    <styleUrl>#icon-1739-DB4436-nodesc</styleUrl>
    <Point>
      <coordinates>17.9983322,53.108278900000002,67.571428571428584</coordinates>
    </Point>
  </Placemark>
  <Placemark>
    <name>2993407540</name>
    <description>;;None</description>
    <styleUrl>#icon-1739-DB4436-nodesc</styleUrl>
    <Point>
      <coordinates>17.998298299999998,53.108279199999998,67.428571428571416</coordinates>
    </Point>
  </Placemark>
  <Placemark>
    <name>2993407541</name>
    <description>;;None</description>
    <styleUrl>#icon-1739-DB4436-nodesc</styleUrl>
    <Point>
      <coordinates>17.9982112,53.108279099999997,66.857142857142861</coordinates>
    </Point>
  </Placemark>
  <Placemark>
    <name>2993407574</name>
    <description>;;None</description>
    <styleUrl>#icon-1739-DB4436-nodesc</styleUrl>
    <Point>
      <coordinates>17.998701700000002,53.108377400000002,68.428571428571416</coordinates>
    </Point>
  </Placemark>
  <Placemark>
    <name>2993407575</name>
    <description>;;None</description>
    <styleUrl>#icon-1739-DB4436-nodesc</styleUrl>
    <Point>
      <coordinates>17.998746100000002,53.108377699999998,68.571428571428584</coordinates>
    </Point>
  </Placemark>
  <Placemark>
    <name>2993407573</name>
    <description>;;None</description>
    <styleUrl>#icon-1739-DB4436-nodesc</styleUrl>
    <Point>
      <coordinates>17.998806399999999,53.1083772,68.714285714285722</coordinates>
    </Point>
  </Placemark>
  <Placemark>
    <name>2993407570</name>
    <description>;;None</description>
    <styleUrl>#icon-1739-DB4436-nodesc</styleUrl>
    <Point>
      <coordinates>17.9991345,53.1083693,69</coordinates>
    </Point>
  </Placemark>
  <Placemark>
    <name>2993407571</name>
    <description>;;None</description>
    <styleUrl>#icon-1739-DB4436-nodesc</styleUrl>
    <Point>
      <coordinates>17.999200900000002,53.108370400000005,68.857142857142861</coordinates>
    </Point>
  </Placemark>
  <Placemark>
    <name>2993407577</name>
    <description>;;None</description>
    <styleUrl>#icon-1739-DB4436-nodesc</styleUrl>
    <Point>
      <coordinates>17.999239800000002,53.108384000000001,68.714285714285722</coordinates>
    </Point>
  </Placemark>
  <Placemark>
    <name>2993407579</name>
    <description>;;None</description>
    <styleUrl>#icon-1739-DB4436-nodesc</styleUrl>
    <Point>
      <coordinates>17.999284899999999,53.1083894,68.714285714285722</coordinates>
    </Point>
  </Placemark>
  <Placemark>
    <name>2993407581</name>
    <description>;;None</description>
    <styleUrl>#icon-1739-DB4436-nodesc</styleUrl>
    <Point>
      <coordinates>17.999396900000001,53.108391599999997,68.285714285714278</coordinates>
    </Point>
  </Placemark>
  <Placemark>
    <name>2993407580</name>
    <description>;;None</description>
    <styleUrl>#icon-1739-DB4436-nodesc</styleUrl>
    <Point>
      <coordinates>17.999545999999999,53.1083894,68.142857142857139</coordinates>
    </Point>
  </Placemark>
  <Placemark>
    <name>2993570691</name>
    <description>;;None</description>
    <styleUrl>#icon-1739-DB4436-nodesc</styleUrl>
    <Point>
      <coordinates>17.999641199999999,53.108387200000003,68.142857142857139</coordinates>
    </Point>
  </Placemark>
  <Placemark>
    <name>2999098084</name>
    <description>;;None</description>
    <styleUrl>#icon-1739-DB4436-nodesc</styleUrl>
    <Point>
      <coordinates>17.999673900000001,53.108384000000001,68.142857142857139</coordinates>
    </Point>
  </Placemark>
  <Placemark>
    <name>2993407578</name>
    <description>;;None</description>
    <styleUrl>#icon-1739-DB4436-nodesc</styleUrl>
    <Point>
      <coordinates>17.999688200000001,53.108382599999999,68.142857142857139</coordinates>
    </Point>
  </Placemark>
  <Placemark>
    <name>2993407537</name>
    <description>;;None</description>
    <styleUrl>#icon-1739-DB4436-nodesc</styleUrl>
    <Point>
      <coordinates>17.999642799999997,53.108265199999998,67.571428571428584</coordinates>
    </Point>
  </Placemark>
  <Placemark>
    <name>2993406729</name>
    <description>;;None</description>
    <styleUrl>#icon-1739-DB4436-nodesc</styleUrl>
    <Point>
      <coordinates>17.999620900000004,53.108202000000006,67</coordinates>
    </Point>
  </Placemark>
  <Placemark>
    <name>2993406724</name>
    <description>;;None</description>
    <styleUrl>#icon-1739-DB4436-nodesc</styleUrl>
    <Point>
      <coordinates>17.999609899999999,53.108163200000007,66.714285714285722</coordinates>
    </Point>
  </Placemark>
  <Placemark>
    <name>2993406719</name>
    <description>;;None</description>
    <styleUrl>#icon-1739-DB4436-nodesc</styleUrl>
    <Point>
      <coordinates>17.999599,53.108132900000001,66.571428571428584</coordinates>
    </Point>
  </Placemark>
  <Placemark>
    <name>2993406716</name>
    <description>;;None</description>
    <styleUrl>#icon-1739-DB4436-nodesc</styleUrl>
    <Point>
      <coordinates>17.9993181,53.108130500000001,67</coordinates>
    </Point>
  </Placemark>
  <Placemark>
    <name>2993406715</name>
    <description>;;None</description>
    <styleUrl>#icon-1739-DB4436-nodesc</styleUrl>
    <Point>
      <coordinates>17.999057100000002,53.108128299999997,67.571428571428584</coordinates>
    </Point>
  </Placemark>
  <Placemark>
    <name>2993406713</name>
    <description>;;None</description>
    <styleUrl>#icon-1739-DB4436-nodesc</styleUrl>
    <Point>
      <coordinates>17.998914200000002,53.10812099999999,67.428571428571416</coordinates>
    </Point>
  </Placemark>
  <Placemark>
    <name>2993406714</name>
    <description>;;None</description>
    <styleUrl>#icon-1739-DB4436-nodesc</styleUrl>
    <Point>
      <coordinates>17.998729999999998,53.108126200000001,67</coordinates>
    </Point>
  </Placemark>
  <Placemark>
    <name>2993406721</name>
    <description>;;None</description>
    <styleUrl>#icon-1739-DB4436-nodesc</styleUrl>
    <Point>
      <coordinates>17.998382200000005,53.108147899999999,66.714285714285722</coordinates>
    </Point>
  </Placemark>
  <Placemark>
    <name>2993406725</name>
    <description>;;None</description>
    <styleUrl>#icon-1739-DB4436-nodesc</styleUrl>
    <Point>
      <coordinates>17.998179,53.108169599999997,66</coordinates>
    </Point>
  </Placemark>
  <Placemark>
    <name>2993406728</name>
    <description>;;None</description>
    <styleUrl>#icon-1739-DB4436-nodesc</styleUrl>
    <Point>
      <coordinates>17.998013700000001,53.108200600000004,65.428571428571416</coordinates>
    </Point>
  </Placemark>
  <Placemark>
    <name>2993407534</name>
    <description>;;None</description>
    <styleUrl>#icon-1739-DB4436-nodesc</styleUrl>
    <Point>
      <coordinates>17.997814000000002,53.108252300000004,64.857142857142861</coordinates>
    </Point>
  </Placemark>
  <Placemark>
    <name>44969085</name>
    <description>0; Unclassified; Unknown; Intermediate; HasAccess; Seweryna Goszczyńskiego; Grade3; ?; 1</description>
    <styleUrl>#42cb85ba-9b19-4c59-9ca5-a170ad17d7b1</styleUrl>
    <LineString>
      <coordinates>17.998284900000002,53.1083766,0
17.998081000000003,53.108382400000004,0
17.997745999999999,53.108398999999999,0
17.997751000000001,53.1084277,0
17.997783900000002,53.1085536,0
17.997824199999997,53.108624300000002,0
17.997917600000001,53.108729899999993,0
17.997972600000001,53.1087943,0
17.998056500000004,53.108883900000009,0
17.9980978,53.108989600000001,0
17.998094800000001,53.109101199999991,0</coordinates>
    </LineString>
  </Placemark>
  <Placemark>
    <name>145603123</name>
    <description>0; Path; Unknown; Intermediate; HasAccess; ; Grade3; ?; 1</description>
    <styleUrl>#42cb85ba-9b19-4c59-9ca5-a170ad17d7b1</styleUrl>
    <LineString>
      <coordinates>17.997745999999999,53.108398999999999,0
17.997579500000001,53.1084453,0
17.9974226,53.108555600000003,0
17.997184399999998,53.1086709,0
17.9969872,53.108757400000002,0</coordinates>
    </LineString>
  </Placemark>
  <Placemark>
    <name>295600643</name>
    <description>0; Footway; Unknown; Intermediate; UrbanSidewalk, HasAccess; ; Grade3; ?; 1</description>
    <styleUrl>#b168ab1c-18ae-484e-9f62-05665abb4ee5</styleUrl>
    <LineString>
      <coordinates>17.997742899999999,53.108297,0
17.997745999999999,53.108398999999999,0</coordinates>
    </LineString>
  </Placemark>
  <Placemark>
    <name>145603145</name>
    <description>0; Auxiliary; Unknown; Intermediate; HasAccess; ; Grade3; ?; 1</description>
    <styleUrl>#42cb85ba-9b19-4c59-9ca5-a170ad17d7b1</styleUrl>
    <LineString>
      <coordinates>17.997783900000002,53.1085536,0
17.997895499999998,53.108547000000002,0
17.998270900000001,53.108518799999999,0</coordinates>
    </LineString>
  </Placemark>
  <Placemark>
    <name>145603147</name>
    <description>0; Auxiliary; Unknown; Intermediate; HasAccess; ; Grade3; ?; 1</description>
    <styleUrl>#42cb85ba-9b19-4c59-9ca5-a170ad17d7b1</styleUrl>
    <LineString>
      <coordinates>17.997917600000001,53.108729899999993,0
17.998014299999998,53.108684599999997,0
17.9982018,53.108674299999997,0</coordinates>
    </LineString>
  </Placemark>
  <Placemark>
    <name>145603156</name>
    <description>0; Path; Unknown; Intermediate; HasAccess; ; Grade3; ?; 1</description>
    <styleUrl>#42cb85ba-9b19-4c59-9ca5-a170ad17d7b1</styleUrl>
    <LineString>
      <coordinates>17.9980978,53.108989600000001,0
17.998025200000001,53.108992499999999,0
17.997846799999998,53.1089895,0
17.997701299999999,53.108993100000006,0
17.997615100000001,53.108997100000011,0
17.997414800000001,53.109015200000002,0</coordinates>
    </LineString>
  </Placemark>
  <Placemark>
    <name>295600635</name>
    <description>0; Footway; Unknown; Intermediate; UrbanSidewalk, HasAccess; ; Grade3; ?; 1</description>
    <styleUrl>#b168ab1c-18ae-484e-9f62-05665abb4ee5</styleUrl>
    <LineString>
      <coordinates>17.998020100000005,53.1091944,0
17.998025200000001,53.108992499999999,0</coordinates>
    </LineString>
  </Placemark>
  <Placemark>
    <name>295600651</name>
    <description>0; Footway; Unknown; Intermediate; HasAccess; ; Grade3; ?; 1</description>
    <styleUrl>#42cb85ba-9b19-4c59-9ca5-a170ad17d7b1</styleUrl>
    <LineString>
      <coordinates>17.997701299999999,53.108993100000006,0
17.997694900000003,53.109025699999997,0
17.997686399999999,53.109239500000001,0</coordinates>
    </LineString>
  </Placemark>
  <Placemark>
    <name>293808274</name>
    <description>0; Path; Unknown; Intermediate; HasAccess; ; Grade3; ?; 1</description>
    <styleUrl>#42cb85ba-9b19-4c59-9ca5-a170ad17d7b1</styleUrl>
    <LineString>
      <coordinates>17.997654499999996,53.108300399999997,0
17.9974469,53.108368499999997,0
17.997319900000004,53.1083876,0
17.997139499999999,53.108399599999998,0
17.996917199999995,53.108422700000006,0
17.996713399999997,53.108420700000003,0</coordinates>
    </LineString>
  </Placemark>
  <Placemark>
    <name>295600646</name>
    <description>0; Footway; Unknown; Intermediate; HasAccess; ; Grade3; ?; 1</description>
    <styleUrl>#42cb85ba-9b19-4c59-9ca5-a170ad17d7b1</styleUrl>
    <LineString>
      <coordinates>17.998280900000001,53.108982500000003,0
17.998308399999999,53.108957200000006,0
17.998326500000001,53.108912199999999,0
17.998321399999998,53.108827499999997,0
17.998330800000002,53.108781499999999,0
17.998356699999999,53.108729799999999,0
17.998375599999999,53.108689499999997,0
17.998420400000001,53.108631599999995,0
17.9984669,53.108534900000002,0
17.998465100000001,53.10848270000001,0
17.998652799999999,53.108371099999999,0
17.998563300000004,53.108348399999997,0
17.998490099999998,53.108327699999997,0
17.998420400000001,53.108305999999999,0
17.998381600000002,53.108295100000007,0
17.998350500000001,53.108279600000003,0
17.9983322,53.108278900000002,0
17.998298299999998,53.108279199999998,0
17.9982112,53.108279099999997,0
17.997742899999999,53.108297,0
17.997654499999996,53.108300399999997,0</coordinates>
    </LineString>
  </Placemark>
  <Placemark>
    <name>295600647</name>
    <description>0; Path; Unknown; Intermediate; HasAccess; ; Grade3; ?; 1</description>
    <styleUrl>#42cb85ba-9b19-4c59-9ca5-a170ad17d7b1</styleUrl>
    <LineString>
      <coordinates>17.998652799999999,53.108371099999999,0
17.998701700000002,53.108377400000002,0
17.998746100000002,53.108377699999998,0
17.998806399999999,53.1083772,0
17.9991345,53.1083693,0
17.999200900000002,53.108370400000005,0
17.999239800000002,53.108384000000001,0
17.999284899999999,53.1083894,0
17.999396900000001,53.108391599999997,0
17.999545999999999,53.1083894,0
17.999641199999999,53.108387200000003,0
17.999673900000001,53.108384000000001,0
17.999688200000001,53.108382599999999,0
17.999642799999997,53.108265199999998,0
17.999620900000004,53.108202000000006,0
17.999609899999999,53.108163200000007,0
17.999599,53.108132900000001,0
17.9993181,53.108130500000001,0
17.999057100000002,53.108128299999997,0
17.998914200000002,53.10812099999999,0
17.998729999999998,53.108126200000001,0
17.998382200000005,53.108147899999999,0
17.998179,53.108169599999997,0
17.998013700000001,53.108200600000004,0
17.997814000000002,53.108252300000004,0
17.997742899999999,53.108297,0</coordinates>
    </LineString>
  </Placemark>
  <Placemark>
    <name>295600634</name>
    <description>0; Footway; Unknown; Intermediate; UrbanSidewalk, HasAccess; ; Grade3; ?; 1</description>
    <styleUrl>#b168ab1c-18ae-484e-9f62-05665abb4ee5</styleUrl>
    <LineString>
      <coordinates>17.998020100000005,53.1091944,0</coordinates>
    </LineString>
  </Placemark>
</Document>