<?xml version="1.0" encoding="utf-8"?>
<Document xmlns="http://www.opengis.net/kml/2.2">
  <name>x</name>
  <Style id="icon-1739-DB4436-nodesc">
    <IconStyle>
      <color>ff3644db</color>
      <colorMode>normal</colorMode>
      <scale>1</scale>
      <Icon>
        <href>https://www.gstatic.com/mapspro/images/stock/503-wht-blank_maps.png</href>
      </Icon>
    </IconStyle>
  </Style>
  <Style id="5fd16657-8103-4fe0-b114-73a96a521e0c">
    <LineStyle>
      <color>ff000000</color>
      <colorMode>normal</colorMode>
      <width>1</width>
    </LineStyle>
  </Style>
  <Style id="e402908f-7c3e-4551-bddc-452b1f8c9e50">
    <LineStyle>
      <color>ff2bb4af</color>
      <colorMode>normal</colorMode>
      <width>4</width>
    </LineStyle>
  </Style>
  <Placemark>
    <name>587568268</name>
    <description>;;None</description>
    <styleUrl>#icon-1739-DB4436-nodesc</styleUrl>
    <Point>
      <coordinates>18.613114799999998,53.1991364,92.857142857142861</coordinates>
    </Point>
  </Placemark>
  <Placemark>
    <name>7862158421</name>
    <description>;;None</description>
    <styleUrl>#icon-1739-DB4436-nodesc</styleUrl>
    <Point>
      <coordinates>18.613022600000004,53.198895100000001,92</coordinates>
    </Point>
  </Placemark>
  <Placemark>
    <name>7862158422</name>
    <description>;;None</description>
    <styleUrl>#icon-1739-DB4436-nodesc</styleUrl>
    <Point>
      <coordinates>18.612878299999998,53.198491300000001,90.714285714285722</coordinates>
    </Point>
  </Placemark>
  <Placemark>
    <name>7862158423</name>
    <description>;;None</description>
    <styleUrl>#icon-1739-DB4436-nodesc</styleUrl>
    <Point>
      <coordinates>18.612745199999996,53.198106099999997,89.857142857142861</coordinates>
    </Point>
  </Placemark>
  <Placemark>
    <name>7862158424</name>
    <description>;;None</description>
    <styleUrl>#icon-1739-DB4436-nodesc</styleUrl>
    <Point>
      <coordinates>18.612652499999999,53.197765799999999,89.428571428571416</coordinates>
    </Point>
  </Placemark>
  <Placemark>
    <name>1405937802</name>
    <description>;;None</description>
    <styleUrl>#icon-1739-DB4436-nodesc</styleUrl>
    <Point>
      <coordinates>18.612595899999999,53.197489099999999,88</coordinates>
    </Point>
  </Placemark>
  <Placemark>
    <name>7862158425</name>
    <description>;;None</description>
    <styleUrl>#icon-1739-DB4436-nodesc</styleUrl>
    <Point>
      <coordinates>18.612553999999999,53.197286800000001,87.142857142857139</coordinates>
    </Point>
  </Placemark>
  <Placemark>
    <name>7862158427</name>
    <description>;;None</description>
    <styleUrl>#icon-1739-DB4436-nodesc</styleUrl>
    <Point>
      <coordinates>18.612591999999999,53.196984200000003,85.857142857142861</coordinates>
    </Point>
  </Placemark>
  <Placemark>
    <name>7862158426</name>
    <description>;;None</description>
    <styleUrl>#icon-1739-DB4436-nodesc</styleUrl>
    <Point>
      <coordinates>18.612678200000001,53.197570500000005,88.428571428571416</coordinates>
    </Point>
  </Placemark>
  <Placemark>
    <name>7862158420</name>
    <description>;;None</description>
    <styleUrl>#icon-1739-DB4436-nodesc</styleUrl>
    <Point>
      <coordinates>18.6127608,53.1979009,90</coordinates>
    </Point>
  </Placemark>
  <Placemark>
    <name>7862158419</name>
    <description>;;None</description>
    <styleUrl>#icon-1739-DB4436-nodesc</styleUrl>
    <Point>
      <coordinates>18.612849900000004,53.198181699999999,90.142857142857139</coordinates>
    </Point>
  </Placemark>
  <Placemark>
    <name>7862158418</name>
    <description>;;None</description>
    <styleUrl>#icon-1739-DB4436-nodesc</styleUrl>
    <Point>
      <coordinates>18.612971699999999,53.198556699999997,91</coordinates>
    </Point>
  </Placemark>
  <Placemark>
    <name>7862158417</name>
    <description>;;None</description>
    <styleUrl>#icon-1739-DB4436-nodesc</styleUrl>
    <Point>
      <coordinates>18.6131663,53.199046099999997,92.714285714285722</coordinates>
    </Point>
  </Placemark>
  <Placemark>
    <name>7862158416</name>
    <description>;;None</description>
    <styleUrl>#icon-1739-DB4436-nodesc</styleUrl>
    <Point>
      <coordinates>18.6132293,53.199086100000002,92.857142857142861</coordinates>
    </Point>
  </Placemark>
  <Placemark>
    <name>7862158415</name>
    <description>;;None</description>
    <styleUrl>#icon-1739-DB4436-nodesc</styleUrl>
    <Point>
      <coordinates>18.613340300000001,53.199115999999989,93</coordinates>
    </Point>
  </Placemark>
  <Placemark>
    <name>7862158414</name>
    <description>;;None</description>
    <styleUrl>#icon-1739-DB4436-nodesc</styleUrl>
    <Point>
      <coordinates>18.613319300000001,53.19915300000001,93</coordinates>
    </Point>
  </Placemark>
  <Placemark>
    <name>7862158413</name>
    <description>;;None</description>
    <styleUrl>#icon-1739-DB4436-nodesc</styleUrl>
    <Point>
      <coordinates>18.6133016,53.199183599999998,93</coordinates>
    </Point>
  </Placemark>
  <Placemark>
    <name>7862158412</name>
    <description>;;None</description>
    <styleUrl>#icon-1739-DB4436-nodesc</styleUrl>
    <Point>
      <coordinates>18.613238299999999,53.199179100000002,93</coordinates>
    </Point>
  </Placemark>
  <Placemark>
    <name>7862158411</name>
    <description>;;None</description>
    <styleUrl>#icon-1739-DB4436-nodesc</styleUrl>
    <Point>
      <coordinates>18.613212900000001,53.199188300000003,93</coordinates>
    </Point>
  </Placemark>
  <Placemark>
    <name>7862158410</name>
    <description>;;None</description>
    <styleUrl>#icon-1739-DB4436-nodesc</styleUrl>
    <Point>
      <coordinates>18.613209900000001,53.199204399999999,93</coordinates>
    </Point>
  </Placemark>
  <Placemark>
    <name>7862158409</name>
    <description>;;None</description>
    <styleUrl>#icon-1739-DB4436-nodesc</styleUrl>
    <Point>
      <coordinates>18.613494500000002,53.200187100000001,92</coordinates>
    </Point>
  </Placemark>
  <Placemark>
    <name>1584346839</name>
    <description>;;None</description>
    <styleUrl>#icon-1739-DB4436-nodesc</styleUrl>
    <Point>
      <coordinates>18.613039199999999,53.199146599999999,92.857142857142861</coordinates>
    </Point>
  </Placemark>
  <Placemark>
    <name>3637838896</name>
    <description>;;None</description>
    <styleUrl>#icon-1739-DB4436-nodesc</styleUrl>
    <Point>
      <coordinates>18.612713599999999,53.1992805,92.857142857142861</coordinates>
    </Point>
  </Placemark>
  <Placemark>
    <name>3656400540</name>
    <description>;;None</description>
    <styleUrl>#icon-1739-DB4436-nodesc</styleUrl>
    <Point>
      <coordinates>18.613859999999999,53.199278299999996,92.142857142857139</coordinates>
    </Point>
  </Placemark>
  <Placemark>
    <name>3656400539</name>
    <description>;;None</description>
    <styleUrl>#icon-1739-DB4436-nodesc</styleUrl>
    <Point>
      <coordinates>18.613242100000001,53.199135099999999,93</coordinates>
    </Point>
  </Placemark>
  <Placemark>
    <name>9264318985</name>
    <description>;;None</description>
    <styleUrl>#icon-1739-DB4436-nodesc</styleUrl>
    <Point>
      <coordinates>18.613445200000001,53.2002983,92</coordinates>
    </Point>
  </Placemark>
  <Placemark>
    <name>126905699</name>
    <description>0; Tertiary; AsphaltLike; Good; HasAccess, SpeedLimit50; Trakt; Grade1; 50; 1</description>
    <styleUrl>#5fd16657-8103-4fe0-b114-73a96a521e0c</styleUrl>
    <LineString>
      <coordinates>18.613114799999998,53.1991364,0
18.613022600000004,53.198895100000001,0
18.612878299999998,53.198491300000001,0
18.612745199999996,53.198106099999997,0
18.612652499999999,53.197765799999999,0
18.612595899999999,53.197489099999999,0
18.612553999999999,53.197286800000001,0</coordinates>
    </LineString>
  </Placemark>
  <Placemark>
    <name>842774447</name>
    <description>0; Footway; AsphaltLike; Intermediate; BikeLine, UrbanSidewalk, HasAccess; ; Grade1; ?; 1</description>
    <styleUrl>#5fd16657-8103-4fe0-b114-73a96a521e0c</styleUrl>
    <LineString>
      <coordinates>18.612591999999999,53.196984200000003,0
18.612678200000001,53.197570500000005,0
18.6127608,53.1979009,0
18.612849900000004,53.198181699999999,0
18.612971699999999,53.198556699999997,0
18.6131663,53.199046099999997,0
18.6132293,53.199086100000002,0
18.613340300000001,53.199115999999989,0
18.613319300000001,53.19915300000001,0
18.6133016,53.199183599999998,0
18.613238299999999,53.199179100000002,0
18.613212900000001,53.199188300000003,0
18.613209900000001,53.199204399999999,0
18.613494500000002,53.200187100000001,0</coordinates>
    </LineString>
  </Placemark>
  <Placemark>
    <name>144958628</name>
    <description>0; Unclassified; Unpaved; Intermediate; HasAccess; Lipowa; Grade3; ?; 1</description>
    <styleUrl>#e402908f-7c3e-4551-bddc-452b1f8c9e50</styleUrl>
    <LineString>
      <coordinates>18.613114799999998,53.1991364,0
18.613039199999999,53.199146599999999,0
18.612713599999999,53.1992805,0</coordinates>
    </LineString>
  </Placemark>
  <Placemark>
    <name>361120808</name>
    <description>0; Tertiary; AsphaltLike; Good; HasAccess, SpeedLimit50; ; Grade1; 50; 1</description>
    <styleUrl>#5fd16657-8103-4fe0-b114-73a96a521e0c</styleUrl>
    <LineString>
      <coordinates>18.613859999999999,53.199278299999996,0
18.613319300000001,53.19915300000001,0
18.613242100000001,53.199135099999999,0
18.613114799999998,53.1991364,0</coordinates>
    </LineString>
  </Placemark>
  <Placemark>
    <name>361946899</name>
    <description>0; Tertiary; AsphaltLike; Intermediate; HasAccess, SpeedLimit50; Trakt; Grade1; 50; 1</description>
    <styleUrl>#5fd16657-8103-4fe0-b114-73a96a521e0c</styleUrl>
    <LineString>
      <coordinates>18.613445200000001,53.2002983,0
18.613114799999998,53.1991364,0</coordinates>
    </LineString>
  </Placemark>
  <Placemark>
    <name>126905709</name>
    <description>0; Tertiary; AsphaltLike; Good; HasAccess; ; Grade1; 90; 1</description>
    <styleUrl>#5fd16657-8103-4fe0-b114-73a96a521e0c</styleUrl>
    <LineString>
      <coordinates>18.613859999999999,53.199278299999996,0</coordinates>
    </LineString>
  </Placemark>
</Document>