<?xml version="1.0" encoding="utf-8"?>
<Document xmlns="http://www.opengis.net/kml/2.2">
  <name>x</name>
  <Style id="icon-1739-DB4436-nodesc">
    <IconStyle>
      <color>ff3644db</color>
      <colorMode>normal</colorMode>
      <scale>1</scale>
      <Icon>
        <href>https://www.gstatic.com/mapspro/images/stock/503-wht-blank_maps.png</href>
      </Icon>
    </IconStyle>
  </Style>
  <Style id="25c01d4b-0bb1-40e3-afd5-858c8e33c4cb">
    <LineStyle>
      <color>ff2bb4af</color>
      <colorMode>normal</colorMode>
      <width>4</width>
    </LineStyle>
  </Style>
  <Style id="fb5943bc-8faa-4be2-b945-94a8fbae0e1f">
    <LineStyle>
      <color>ff000000</color>
      <colorMode>normal</colorMode>
      <width>1</width>
    </LineStyle>
  </Style>
  <Style id="265ace72-2ef1-4780-bcb6-2677c5764b81">
    <LineStyle>
      <color>ffa4aabc</color>
      <colorMode>normal</colorMode>
      <width>7</width>
    </LineStyle>
  </Style>
  <Placemark>
    <name>2701870421</name>
    <description>;;None</description>
    <styleUrl>#icon-1739-DB4436-nodesc</styleUrl>
    <Point>
      <coordinates>18.6427999,53.291703499999997,97.857142857142861</coordinates>
    </Point>
  </Placemark>
  <Placemark>
    <name>9917600446</name>
    <description>;;None</description>
    <styleUrl>#icon-1739-DB4436-nodesc</styleUrl>
    <Point>
      <coordinates>18.642642100000003,53.291509599999991,97.428571428571416</coordinates>
    </Point>
  </Placemark>
  <Placemark>
    <name>9917600447</name>
    <description>;;None</description>
    <styleUrl>#icon-1739-DB4436-nodesc</styleUrl>
    <Point>
      <coordinates>18.642363899999999,53.29114400000001,96.571428571428584</coordinates>
    </Point>
  </Placemark>
  <Placemark>
    <name>9917600448</name>
    <description>;;None</description>
    <styleUrl>#icon-1739-DB4436-nodesc</styleUrl>
    <Point>
      <coordinates>18.641780700000002,53.290315700000001,95.285714285714278</coordinates>
    </Point>
  </Placemark>
  <Placemark>
    <name>2701870422</name>
    <description>;;None</description>
    <styleUrl>#icon-1739-DB4436-nodesc</styleUrl>
    <Point>
      <coordinates>18.641189399999995,53.2894887,95.142857142857139</coordinates>
    </Point>
  </Placemark>
  <Placemark>
    <name>587577009</name>
    <description>;;None</description>
    <styleUrl>#icon-1739-DB4436-nodesc</styleUrl>
    <Point>
      <coordinates>18.6446255,53.291614699999997,97</coordinates>
    </Point>
  </Placemark>
  <Placemark>
    <name>2463374172</name>
    <description>;;None</description>
    <styleUrl>#icon-1739-DB4436-nodesc</styleUrl>
    <Point>
      <coordinates>18.644390300000005,53.291177400000002,95.857142857142861</coordinates>
    </Point>
  </Placemark>
  <Placemark>
    <name>2463374173</name>
    <description>;;None</description>
    <styleUrl>#icon-1739-DB4436-nodesc</styleUrl>
    <Point>
      <coordinates>18.6441312,53.290395500000002,95.571428571428584</coordinates>
    </Point>
  </Placemark>
  <Placemark>
    <name>2463374174</name>
    <description>;;None</description>
    <styleUrl>#icon-1739-DB4436-nodesc</styleUrl>
    <Point>
      <coordinates>18.6438843,53.289454899999996,94</coordinates>
    </Point>
  </Placemark>
  <Placemark>
    <name>3664897475</name>
    <description>;;None</description>
    <styleUrl>#icon-1739-DB4436-nodesc</styleUrl>
    <Point>
      <coordinates>18.636879400000002,53.293486000000001,97</coordinates>
    </Point>
  </Placemark>
  <Placemark>
    <name>1850675871</name>
    <description>;;None</description>
    <styleUrl>#icon-1739-DB4436-nodesc</styleUrl>
    <Point>
      <coordinates>18.636713499999999,53.293222200000002,97</coordinates>
    </Point>
  </Placemark>
  <Placemark>
    <name>3664897471</name>
    <description>;;None</description>
    <styleUrl>#icon-1739-DB4436-nodesc</styleUrl>
    <Point>
      <coordinates>18.635972299999999,53.292119200000002,94.857142857142861</coordinates>
    </Point>
  </Placemark>
  <Placemark>
    <name>1850675866</name>
    <description>;;None</description>
    <styleUrl>#icon-1739-DB4436-nodesc</styleUrl>
    <Point>
      <coordinates>18.635946700000002,53.292041900000001,95</coordinates>
    </Point>
  </Placemark>
  <Placemark>
    <name>1850675865</name>
    <description>;;None</description>
    <styleUrl>#icon-1739-DB4436-nodesc</styleUrl>
    <Point>
      <coordinates>18.644404099999999,53.291625399999994,96.857142857142861</coordinates>
    </Point>
  </Placemark>
  <Placemark>
    <name>2795873057</name>
    <description>;;None</description>
    <styleUrl>#icon-1739-DB4436-nodesc</styleUrl>
    <Point>
      <coordinates>18.644338900000001,53.291628899999999,96.857142857142861</coordinates>
    </Point>
  </Placemark>
  <Placemark>
    <name>10067231484</name>
    <description>;;None</description>
    <styleUrl>#icon-1739-DB4436-nodesc</styleUrl>
    <Point>
      <coordinates>18.644193099999999,53.291635900000003,96.857142857142861</coordinates>
    </Point>
  </Placemark>
  <Placemark>
    <name>587577003</name>
    <description>;;None</description>
    <styleUrl>#icon-1739-DB4436-nodesc</styleUrl>
    <Point>
      <coordinates>18.6437411,53.291657499999999,97.428571428571416</coordinates>
    </Point>
  </Placemark>
  <Placemark>
    <name>3664897468</name>
    <description>;;None</description>
    <styleUrl>#icon-1739-DB4436-nodesc</styleUrl>
    <Point>
      <coordinates>18.6397184,53.291854699999995,96.285714285714278</coordinates>
    </Point>
  </Placemark>
  <Placemark>
    <name>587577002</name>
    <description>;;None</description>
    <styleUrl>#icon-1739-DB4436-nodesc</styleUrl>
    <Point>
      <coordinates>18.6389037,53.291885499999999,94</coordinates>
    </Point>
  </Placemark>
  <Placemark>
    <name>587577005</name>
    <description>;;None</description>
    <styleUrl>#icon-1739-DB4436-nodesc</styleUrl>
    <Point>
      <coordinates>18.636528299999998,53.292005000000003,94.571428571428584</coordinates>
    </Point>
  </Placemark>
  <Placemark>
    <name>3350426670</name>
    <description>;;None</description>
    <styleUrl>#icon-1739-DB4436-nodesc</styleUrl>
    <Point>
      <coordinates>18.634537400000003,53.292161999999998,91.428571428571416</coordinates>
    </Point>
  </Placemark>
  <Placemark>
    <name>2480925104</name>
    <description>;;None</description>
    <styleUrl>#icon-1739-DB4436-nodesc</styleUrl>
    <Point>
      <coordinates>18.6446991,53.291668799999989,97</coordinates>
    </Point>
  </Placemark>
  <Placemark>
    <name>2480925103</name>
    <description>;;None</description>
    <styleUrl>#icon-1739-DB4436-nodesc</styleUrl>
    <Point>
      <coordinates>18.6448401,53.291661499999996,97.428571428571416</coordinates>
    </Point>
  </Placemark>
  <Placemark>
    <name>3664897464</name>
    <description>;;None</description>
    <styleUrl>#icon-1739-DB4436-nodesc</styleUrl>
    <Point>
      <coordinates>18.6452393,53.291695599999997,98.714285714285722</coordinates>
    </Point>
  </Placemark>
  <Placemark>
    <name>587577010</name>
    <description>;;None</description>
    <styleUrl>#icon-1739-DB4436-nodesc</styleUrl>
    <Point>
      <coordinates>18.644993400000001,53.292325300000002,99.285714285714278</coordinates>
    </Point>
  </Placemark>
  <Placemark>
    <name>2480925105</name>
    <description>;;None</description>
    <styleUrl>#icon-1739-DB4436-nodesc</styleUrl>
    <Point>
      <coordinates>18.644787099999999,53.2918491,97.714285714285722</coordinates>
    </Point>
  </Placemark>
  <Placemark>
    <name>10067231485</name>
    <description>;;None</description>
    <styleUrl>#icon-1739-DB4436-nodesc</styleUrl>
    <Point>
      <coordinates>18.644478100000004,53.292834399999997,98.142857142857139</coordinates>
    </Point>
  </Placemark>
  <Placemark>
    <name>10067231486</name>
    <description>;;None</description>
    <styleUrl>#icon-1739-DB4436-nodesc</styleUrl>
    <Point>
      <coordinates>18.644548199999996,53.292911199999999,98.428571428571416</coordinates>
    </Point>
  </Placemark>
  <Placemark>
    <name>10067231487</name>
    <description>;;None</description>
    <styleUrl>#icon-1739-DB4436-nodesc</styleUrl>
    <Point>
      <coordinates>18.6446346,53.29293349999999,98.714285714285722</coordinates>
    </Point>
  </Placemark>
  <Placemark>
    <name>264520662</name>
    <description>0; Path; Unknown; Intermediate; HasAccess; ; Grade3; ?; 1</description>
    <styleUrl>#25c01d4b-0bb1-40e3-afd5-858c8e33c4cb</styleUrl>
    <LineString>
      <coordinates>18.6427999,53.291703499999997,0
18.642642100000003,53.291509599999991,0
18.642363899999999,53.29114400000001,0
18.641780700000002,53.290315700000001,0
18.641189399999995,53.2894887,0</coordinates>
    </LineString>
  </Placemark>
  <Placemark>
    <name>238507012</name>
    <description>0; Path; Unknown; Intermediate; HasAccess; ; Grade3; ?; 1</description>
    <styleUrl>#25c01d4b-0bb1-40e3-afd5-858c8e33c4cb</styleUrl>
    <LineString>
      <coordinates>18.6446255,53.291614699999997,0
18.644390300000005,53.291177400000002,0
18.6441312,53.290395500000002,0
18.6438843,53.289454899999996,0</coordinates>
    </LineString>
  </Placemark>
  <Placemark>
    <name>240299899</name>
    <description>0; Unclassified; AsphaltLike; Intermediate; HasAccess; ; Grade1; ?; 1</description>
    <styleUrl>#fb5943bc-8faa-4be2-b945-94a8fbae0e1f</styleUrl>
    <LineString>
      <coordinates>18.636879400000002,53.293486000000001,0
18.636713499999999,53.293222200000002,0
18.635972299999999,53.292119200000002,0
18.635946700000002,53.292041900000001,0</coordinates>
    </LineString>
  </Placemark>
  <Placemark>
    <name>362117870</name>
    <description>0; Tertiary; AsphaltLike; Intermediate; HasAccess; ; Grade1; 90; 1</description>
    <styleUrl>#fb5943bc-8faa-4be2-b945-94a8fbae0e1f</styleUrl>
    <LineString>
      <coordinates>18.6446255,53.291614699999997,0
18.644404099999999,53.291625399999994,0
18.644338900000001,53.291628899999999,0
18.644193099999999,53.291635900000003,0
18.6437411,53.291657499999999,0
18.6427999,53.291703499999997,0
18.6397184,53.291854699999995,0
18.6389037,53.291885499999999,0
18.636528299999998,53.292005000000003,0
18.635946700000002,53.292041900000001,0
18.634537400000003,53.292161999999998,0</coordinates>
    </LineString>
  </Placemark>
  <Placemark>
    <name>238103034</name>
    <description>0; Path; DirtLike; Intermediate; HasAccess; ; Grade1; ?; 1</description>
    <styleUrl>#265ace72-2ef1-4780-bcb6-2677c5764b81</styleUrl>
    <LineString>
      <coordinates>18.6446991,53.291668799999989,0
18.6448401,53.291661499999996,0
18.6452393,53.291695599999997,0</coordinates>
    </LineString>
  </Placemark>
  <Placemark>
    <name>362117871</name>
    <description>0; Tertiary; AsphaltLike; Intermediate; HasAccess, SpeedLimit50; ; Grade1; 50; 1</description>
    <styleUrl>#fb5943bc-8faa-4be2-b945-94a8fbae0e1f</styleUrl>
    <LineString>
      <coordinates>18.644993400000001,53.292325300000002,0
18.644787099999999,53.2918491,0
18.6446991,53.291668799999989,0
18.6446255,53.291614699999997,0</coordinates>
    </LineString>
  </Placemark>
  <Placemark>
    <name>1099697386</name>
    <description>0; Auxiliary; Unknown; Intermediate; HasAccess; ; Grade3; ?; 1</description>
    <styleUrl>#25c01d4b-0bb1-40e3-afd5-858c8e33c4cb</styleUrl>
    <LineString>
      <coordinates>18.644193099999999,53.291635900000003,0
18.644478100000004,53.292834399999997,0
18.644548199999996,53.292911199999999,0
18.6446346,53.29293349999999,0</coordinates>
    </LineString>
  </Placemark>
</Document>