<?xml version="1.0" encoding="utf-8"?>
<Document xmlns="http://www.opengis.net/kml/2.2">
  <name>torun-gagarina-creating-connection</name>
  <Style id="icon-1739-DB4436-nodesc">
    <IconStyle>
      <color>ff3644db</color>
      <colorMode>normal</colorMode>
      <scale>1</scale>
      <Icon>
        <href>https://www.gstatic.com/mapspro/images/stock/503-wht-blank_maps.png</href>
      </Icon>
    </IconStyle>
  </Style>
  <Style id="7fa91d06-67ac-43e4-81d3-b46877068273">
    <LineStyle>
      <color>ff80dafa</color>
      <colorMode>normal</colorMode>
      <width>16</width>
    </LineStyle>
  </Style>
  <Style id="c391a6c8-edaa-48eb-beec-bb73e626f0d8">
    <LineStyle>
      <color>ff2bb4af</color>
      <colorMode>normal</colorMode>
      <width>7</width>
    </LineStyle>
  </Style>
  <Style id="7421f691-547c-4123-ab8f-303939dbfed3">
    <LineStyle>
      <color>ff000000</color>
      <colorMode>normal</colorMode>
      <width>1</width>
    </LineStyle>
  </Style>
  <Placemark>
    <name>1361035156</name>
    <description />
    <styleUrl>#icon-1739-DB4436-nodesc</styleUrl>
    <Point>
      <coordinates>18.578627699999995,53.019296500000003,53</coordinates>
    </Point>
  </Placemark>
  <Placemark>
    <name>9281316453</name>
    <description />
    <styleUrl>#icon-1739-DB4436-nodesc</styleUrl>
    <Point>
      <coordinates>18.578651399999995,53.018939400000001,53.142857142857139</coordinates>
    </Point>
  </Placemark>
  <Placemark>
    <name>1361035134</name>
    <description />
    <styleUrl>#icon-1739-DB4436-nodesc</styleUrl>
    <Point>
      <coordinates>18.578652799999997,53.018917600000002,53.142857142857139</coordinates>
    </Point>
  </Placemark>
  <Placemark>
    <name>9281316455</name>
    <description />
    <styleUrl>#icon-1739-DB4436-nodesc</styleUrl>
    <Point>
      <coordinates>18.578347999999998,53.019063100000004,52.428571428571416</coordinates>
    </Point>
  </Placemark>
  <Placemark>
    <name>8228213357</name>
    <description />
    <styleUrl>#icon-1739-DB4436-nodesc</styleUrl>
    <Point>
      <coordinates>18.577984000000001,53.019236900000003,52.285714285714278</coordinates>
    </Point>
  </Placemark>
  <Placemark>
    <name>1360340567</name>
    <description />
    <styleUrl>#icon-1739-DB4436-nodesc</styleUrl>
    <Point>
      <coordinates>18.577927500000001,53.019280799999997,52.428571428571416</coordinates>
    </Point>
  </Placemark>
  <Placemark>
    <name>9281316457</name>
    <description />
    <styleUrl>#icon-1739-DB4436-nodesc</styleUrl>
    <Point>
      <coordinates>18.578321999999996,53.0192896,52.428571428571416</coordinates>
    </Point>
  </Placemark>
  <Placemark>
    <name>10128836815</name>
    <description />
    <styleUrl>#icon-1739-DB4436-nodesc</styleUrl>
    <Point>
      <coordinates>18.578692799999999,53.019297999999999,53.285714285714278</coordinates>
    </Point>
  </Placemark>
  <Placemark>
    <name>8194667935</name>
    <description />
    <styleUrl>#icon-1739-DB4436-nodesc</styleUrl>
    <Point>
      <coordinates>18.578983000000001,53.019304799999993,54.142857142857139</coordinates>
    </Point>
  </Placemark>
  <Placemark>
    <name>9281316445</name>
    <description />
    <styleUrl>#icon-1739-DB4436-nodesc</styleUrl>
    <Point>
      <coordinates>18.578756600000002,53.018940999999991,53.571428571428584</coordinates>
    </Point>
  </Placemark>
  <Placemark>
    <name>10128836818</name>
    <description />
    <styleUrl>#icon-1739-DB4436-nodesc</styleUrl>
    <Point>
      <coordinates>18.578653900000003,53.018907200000001,53.142857142857139</coordinates>
    </Point>
  </Placemark>
  <Placemark>
    <name>10128836817</name>
    <description />
    <styleUrl>#icon-1739-DB4436-nodesc</styleUrl>
    <Point>
      <coordinates>18.578657799999998,53.018872399999999,53.142857142857139</coordinates>
    </Point>
  </Placemark>
  <Placemark>
    <name>1361035080</name>
    <description />
    <styleUrl>#icon-1739-DB4436-nodesc</styleUrl>
    <Point>
      <coordinates>18.578384299999996,53.018365799999998,53</coordinates>
    </Point>
  </Placemark>
  <Placemark>
    <name>10128836819</name>
    <description />
    <styleUrl>#icon-1739-DB4436-nodesc</styleUrl>
    <Point>
      <coordinates>18.578356400000001,53.018901399999997,53</coordinates>
    </Point>
  </Placemark>
  <Placemark>
    <name>10128836828</name>
    <description />
    <styleUrl>#icon-1739-DB4436-nodesc</styleUrl>
    <Point>
      <coordinates>18.5779897,53.019213200000003,52.142857142857139</coordinates>
    </Point>
  </Placemark>
  <Placemark>
    <name>10128836826</name>
    <description />
    <styleUrl>#icon-1739-DB4436-nodesc</styleUrl>
    <Point>
      <coordinates>18.578014700000001,53.019108199999998,52.142857142857139</coordinates>
    </Point>
  </Placemark>
  <Placemark>
    <name>10128836824</name>
    <description />
    <styleUrl>#icon-1739-DB4436-nodesc</styleUrl>
    <Point>
      <coordinates>18.578030500000001,53.019042200000001,52.428571428571416</coordinates>
    </Point>
  </Placemark>
  <Placemark>
    <name>10128836822</name>
    <description />
    <styleUrl>#icon-1739-DB4436-nodesc</styleUrl>
    <Point>
      <coordinates>18.578053400000002,53.018946200000002,52.857142857142861</coordinates>
    </Point>
  </Placemark>
  <Placemark>
    <name>10128836825</name>
    <description />
    <styleUrl>#icon-1739-DB4436-nodesc</styleUrl>
    <Point>
      <coordinates>18.5780672,53.018892099999995,53</coordinates>
    </Point>
  </Placemark>
  <Placemark>
    <name>10128836821</name>
    <description />
    <styleUrl>#icon-1739-DB4436-nodesc</styleUrl>
    <Point>
      <coordinates>18.578088100000002,53.018810299999998,53.285714285714278</coordinates>
    </Point>
  </Placemark>
  <Placemark>
    <name>1360340576</name>
    <description />
    <styleUrl>#icon-1739-DB4436-nodesc</styleUrl>
    <Point>
      <coordinates>18.577865599999999,53.019334299999997,52.571428571428584</coordinates>
    </Point>
  </Placemark>
  <Placemark>
    <name>1361035090</name>
    <description />
    <styleUrl>#icon-1739-DB4436-nodesc</styleUrl>
    <Point>
      <coordinates>18.5778167,53.018485099999999,53.571428571428584</coordinates>
    </Point>
  </Placemark>
  <Placemark>
    <name>1361035086</name>
    <description />
    <styleUrl>#icon-1739-DB4436-nodesc</styleUrl>
    <Point>
      <coordinates>18.578016000000002,53.018418799999999,53.285714285714278</coordinates>
    </Point>
  </Placemark>
  <Placemark>
    <name>1361035084</name>
    <description />
    <styleUrl>#icon-1739-DB4436-nodesc</styleUrl>
    <Point>
      <coordinates>18.578118199999999,53.0183848,53.142857142857139</coordinates>
    </Point>
  </Placemark>
  <Placemark>
    <name>1361035082</name>
    <description />
    <styleUrl>#icon-1739-DB4436-nodesc</styleUrl>
    <Point>
      <coordinates>18.5787142,53.018367699999992,52.714285714285722</coordinates>
    </Point>
  </Placemark>
  <Placemark>
    <name>6426643989</name>
    <description />
    <styleUrl>#icon-1739-DB4436-nodesc</styleUrl>
    <Point>
      <coordinates>18.578902100000001,53.0183751,52.142857142857139</coordinates>
    </Point>
  </Placemark>
  <Placemark>
    <name>4930768627</name>
    <description />
    <styleUrl>#icon-1739-DB4436-nodesc</styleUrl>
    <Point>
      <coordinates>18.578957000000003,53.018396299999999,52.285714285714278</coordinates>
    </Point>
  </Placemark>
  <Placemark>
    <name>4382385238</name>
    <description />
    <styleUrl>#icon-1739-DB4436-nodesc</styleUrl>
    <Point>
      <coordinates>18.579047299999999,53.018433600000002,52.428571428571416</coordinates>
    </Point>
  </Placemark>
  <Placemark>
    <name>1361035087</name>
    <description />
    <styleUrl>#icon-1739-DB4436-nodesc</styleUrl>
    <Point>
      <coordinates>18.577827299999996,53.01843379999999,53.428571428571416</coordinates>
    </Point>
  </Placemark>
  <Placemark>
    <name>8568727562</name>
    <description />
    <styleUrl>#icon-1739-DB4436-nodesc</styleUrl>
    <Point>
      <coordinates>18.578924099999998,53.018353299999994,52.142857142857139</coordinates>
    </Point>
  </Placemark>
  <Placemark>
    <name>4930768626</name>
    <description />
    <styleUrl>#icon-1739-DB4436-nodesc</styleUrl>
    <Point>
      <coordinates>18.578998900000002,53.018495199999997,52.571428571428584</coordinates>
    </Point>
  </Placemark>
  <Placemark>
    <name>6426620358</name>
    <description />
    <styleUrl>#icon-1739-DB4436-nodesc</styleUrl>
    <Point>
      <coordinates>18.578936500000001,53.018477500000003,52.571428571428584</coordinates>
    </Point>
  </Placemark>
  <Placemark>
    <name>6426620357</name>
    <description />
    <styleUrl>#icon-1739-DB4436-nodesc</styleUrl>
    <Point>
      <coordinates>18.578920400000001,53.018451900000002,52.428571428571416</coordinates>
    </Point>
  </Placemark>
  <Placemark>
    <name>4930768628</name>
    <description />
    <styleUrl>#icon-1739-DB4436-nodesc</styleUrl>
    <Point>
      <coordinates>18.578977900000002,53.018374600000001,52.142857142857139</coordinates>
    </Point>
  </Placemark>
  <Placemark>
    <name>4930768629</name>
    <description />
    <styleUrl>#icon-1739-DB4436-nodesc</styleUrl>
    <Point>
      <coordinates>18.579007099999998,53.018344200000001,52</coordinates>
    </Point>
  </Placemark>
  <Placemark>
    <name>8568727564</name>
    <description />
    <styleUrl>#icon-1739-DB4436-nodesc</styleUrl>
    <Point>
      <coordinates>18.579067599999998,53.018410299999999,52.285714285714278</coordinates>
    </Point>
  </Placemark>
  <Placemark>
    <name>2483373192</name>
    <description />
    <styleUrl>#icon-1739-DB4436-nodesc</styleUrl>
    <Point>
      <coordinates>18.5789598,53.018549999999998,52.714285714285722</coordinates>
    </Point>
  </Placemark>
  <Placemark>
    <name>4780746014</name>
    <description />
    <styleUrl>#icon-1739-DB4436-nodesc</styleUrl>
    <Point>
      <coordinates>18.578950299999999,53.0187849,53.571428571428584</coordinates>
    </Point>
  </Placemark>
  <Placemark>
    <name>4780746013</name>
    <description />
    <styleUrl>#icon-1739-DB4436-nodesc</styleUrl>
    <Point>
      <coordinates>18.578948,53.018836700000001,53.857142857142861</coordinates>
    </Point>
  </Placemark>
  <Placemark>
    <name>10128836816</name>
    <description />
    <styleUrl>#icon-1739-DB4436-nodesc</styleUrl>
    <Point>
      <coordinates>18.578284099999998,53.019523499999991,53.285714285714278</coordinates>
    </Point>
  </Placemark>
  <Placemark>
    <name>9281316442</name>
    <description />
    <styleUrl>#icon-1739-DB4436-nodesc</styleUrl>
    <Point>
      <coordinates>18.578944199999999,53.018943899999989,54</coordinates>
    </Point>
  </Placemark>
  <Placemark>
    <name>9281316443</name>
    <description />
    <styleUrl>#icon-1739-DB4436-nodesc</styleUrl>
    <Point>
      <coordinates>18.5789969,53.018944700000006,54</coordinates>
    </Point>
  </Placemark>
  <Placemark>
    <name>9281316448</name>
    <description />
    <styleUrl>#icon-1739-DB4436-nodesc</styleUrl>
    <Point>
      <coordinates>18.5789939,53.019084099999993,54</coordinates>
    </Point>
  </Placemark>
  <Placemark>
    <name>9281316456</name>
    <description />
    <styleUrl>#icon-1739-DB4436-nodesc</styleUrl>
    <Point>
      <coordinates>18.578990000000005,53.0192367,54.142857142857139</coordinates>
    </Point>
  </Placemark>
  <Placemark>
    <name>9281298834</name>
    <description />
    <styleUrl>#icon-1739-DB4436-nodesc</styleUrl>
    <Point>
      <coordinates>18.578971599999996,53.019506999999997,54.428571428571416</coordinates>
    </Point>
  </Placemark>
  <Placemark>
    <name>9281316446</name>
    <description />
    <styleUrl>#icon-1739-DB4436-nodesc</styleUrl>
    <Point>
      <coordinates>18.5787096,53.019079599999998,53.285714285714278</coordinates>
    </Point>
  </Placemark>
  <Placemark>
    <name>10128836827</name>
    <description />
    <styleUrl>#icon-1739-DB4436-nodesc</styleUrl>
    <Point>
      <coordinates>18.5778727,53.019168499999999,52</coordinates>
    </Point>
  </Placemark>
  <Placemark>
    <name>10128836823</name>
    <description />
    <styleUrl>#icon-1739-DB4436-nodesc</styleUrl>
    <Point>
      <coordinates>18.577853000000001,53.01894870000001,52.714285714285722</coordinates>
    </Point>
  </Placemark>
  <Placemark>
    <name>121536068</name>
    <description>0; Footway; SandLike; Intermediate; BikeLine, HasAccess; -1</description>
    <styleUrl>#7fa91d06-67ac-43e4-81d3-b46877068273</styleUrl>
    <LineString>
      <coordinates>18.578627699999995,53.019296500000003,0
18.578651399999995,53.018939400000001,0
18.578652799999997,53.018917600000002,0
18.578347999999998,53.019063100000004,0
18.577984000000001,53.019236900000003,0
18.577927500000001,53.019280799999997,0</coordinates>
    </LineString>
  </Placemark>
  <Placemark>
    <name>294020333</name>
    <description>0; Unclassified; Unknown; Intermediate; HasAccess, SpeedLimit50; 1872</description>
    <styleUrl>#c391a6c8-edaa-48eb-beec-bb73e626f0d8</styleUrl>
    <LineString>
      <coordinates>18.577927500000001,53.019280799999997,0
18.578321999999996,53.0192896,0
18.578627699999995,53.019296500000003,0
18.578692799999999,53.019297999999999,0
18.578983000000001,53.019304799999993,0</coordinates>
    </LineString>
  </Placemark>
  <Placemark>
    <name>1005948816</name>
    <description>0; Footway; Unknown; Intermediate; HasAccess; -1</description>
    <styleUrl>#c391a6c8-edaa-48eb-beec-bb73e626f0d8</styleUrl>
    <LineString>
      <coordinates>18.578756600000002,53.018940999999991,0
18.578651399999995,53.018939400000001,0</coordinates>
    </LineString>
  </Placemark>
  <Placemark>
    <name>1106921939</name>
    <description>0; Footway; Unknown; Intermediate; HasAccess; -1</description>
    <styleUrl>#c391a6c8-edaa-48eb-beec-bb73e626f0d8</styleUrl>
    <LineString>
      <coordinates>18.578652799999997,53.018917600000002,0
18.578653900000003,53.018907200000001,0
18.578657799999998,53.018872399999999,0</coordinates>
    </LineString>
  </Placemark>
  <Placemark>
    <name>1005948817</name>
    <description>0; Footway; Unknown; Intermediate; HasAccess; -1</description>
    <styleUrl>#c391a6c8-edaa-48eb-beec-bb73e626f0d8</styleUrl>
    <LineString>
      <coordinates>18.578384299999996,53.018365799999998,0
18.578356400000001,53.018901399999997,0
18.578347999999998,53.019063100000004,0</coordinates>
    </LineString>
  </Placemark>
  <Placemark>
    <name>1106921941</name>
    <description>0; Footway; Unknown; Intermediate; HasAccess; -1</description>
    <styleUrl>#c391a6c8-edaa-48eb-beec-bb73e626f0d8</styleUrl>
    <LineString>
      <coordinates>18.577984000000001,53.019236900000003,0
18.5779897,53.019213200000003,0
18.578014700000001,53.019108199999998,0
18.578030500000001,53.019042200000001,0
18.578053400000002,53.018946200000002,0
18.5780672,53.018892099999995,0
18.578088100000002,53.018810299999998,0</coordinates>
    </LineString>
  </Placemark>
  <Placemark>
    <name>440498806</name>
    <description>0; Path; SandLike; Intermediate; HasAccess; -1</description>
    <styleUrl>#7fa91d06-67ac-43e4-81d3-b46877068273</styleUrl>
    <LineString>
      <coordinates>18.577927500000001,53.019280799999997,0
18.577865599999999,53.019334299999997,0</coordinates>
    </LineString>
  </Placemark>
  <Placemark>
    <name>121636509</name>
    <description>0; Footway; Unpaved; Intermediate; BikeLine, HasAccess; -1</description>
    <styleUrl>#7421f691-547c-4123-ab8f-303939dbfed3</styleUrl>
    <LineString>
      <coordinates>18.5778167,53.018485099999999,0
18.578016000000002,53.018418799999999,0
18.578118199999999,53.0183848,0
18.578384299999996,53.018365799999998,0
18.5787142,53.018367699999992,0
18.578902100000001,53.0183751,0
18.578957000000003,53.018396299999999,0
18.579047299999999,53.018433600000002,0</coordinates>
    </LineString>
  </Placemark>
  <Placemark>
    <name>121636518</name>
    <description>0; Footway; Unpaved; Intermediate; BikeLine, HasAccess; -1</description>
    <styleUrl>#7421f691-547c-4123-ab8f-303939dbfed3</styleUrl>
    <LineString>
      <coordinates>18.578016000000002,53.018418799999999,0
18.577827299999996,53.01843379999999,0</coordinates>
    </LineString>
  </Placemark>
  <Placemark>
    <name>685725492</name>
    <description>0; Footway; Unknown; Intermediate; HasAccess; -1</description>
    <styleUrl>#c391a6c8-edaa-48eb-beec-bb73e626f0d8</styleUrl>
    <LineString>
      <coordinates>18.578924099999998,53.018353299999994,0
18.578902100000001,53.0183751,0</coordinates>
    </LineString>
  </Placemark>
  <Placemark>
    <name>685723520</name>
    <description>0; Cycleway; Unknown; Intermediate; HasAccess; -1</description>
    <styleUrl>#c391a6c8-edaa-48eb-beec-bb73e626f0d8</styleUrl>
    <LineString>
      <coordinates>18.578998900000002,53.018495199999997,0
18.578936500000001,53.018477500000003,0
18.578920400000001,53.018451900000002,0
18.578957000000003,53.018396299999999,0
18.578977900000002,53.018374600000001,0
18.579007099999998,53.018344200000001,0</coordinates>
    </LineString>
  </Placemark>
  <Placemark>
    <name>240616538</name>
    <description>0; Unclassified; Unknown; Intermediate; HasAccess; -1</description>
    <styleUrl>#c391a6c8-edaa-48eb-beec-bb73e626f0d8</styleUrl>
    <LineString>
      <coordinates>18.579067599999998,53.018410299999999,0
18.579047299999999,53.018433600000002,0
18.578998900000002,53.018495199999997,0
18.5789598,53.018549999999998,0
18.578950299999999,53.0187849,0</coordinates>
    </LineString>
  </Placemark>
  <Placemark>
    <name>685728674</name>
    <description>0; Footway; Unknown; Intermediate; HasAccess; -1</description>
    <styleUrl>#c391a6c8-edaa-48eb-beec-bb73e626f0d8</styleUrl>
    <LineString>
      <coordinates>18.579047299999999,53.018433600000002,0</coordinates>
    </LineString>
  </Placemark>
  <Placemark>
    <name>485298011</name>
    <description>0; Unclassified; Unknown; Intermediate; HasAccess; -1</description>
    <styleUrl>#c391a6c8-edaa-48eb-beec-bb73e626f0d8</styleUrl>
    <LineString>
      <coordinates>18.578950299999999,53.0187849,0
18.578948,53.018836700000001,0</coordinates>
    </LineString>
  </Placemark>
  <Placemark>
    <name>1106921938</name>
    <description>0; Footway; Unknown; Intermediate; HasAccess; -1</description>
    <styleUrl>#c391a6c8-edaa-48eb-beec-bb73e626f0d8</styleUrl>
    <LineString>
      <coordinates>18.578692799999999,53.019297999999999,0
18.578284099999998,53.019523499999991,0</coordinates>
    </LineString>
  </Placemark>
  <Placemark>
    <name>485298010</name>
    <description>0; Unclassified; Unknown; Intermediate; HasAccess; -1</description>
    <styleUrl>#c391a6c8-edaa-48eb-beec-bb73e626f0d8</styleUrl>
    <LineString>
      <coordinates>18.578948,53.018836700000001,0
18.578944199999999,53.018943899999989,0
18.5789969,53.018944700000006,0
18.5789939,53.019084099999993,0
18.578990000000005,53.0192367,0
18.578983000000001,53.019304799999993,0</coordinates>
    </LineString>
  </Placemark>
  <Placemark>
    <name>881066237</name>
    <description>0; Auxiliary; Unknown; Intermediate; HasAccess; -1</description>
    <styleUrl>#c391a6c8-edaa-48eb-beec-bb73e626f0d8</styleUrl>
    <LineString>
      <coordinates>18.578971599999996,53.019506999999997,0
18.578983000000001,53.019304799999993,0</coordinates>
    </LineString>
  </Placemark>
  <Placemark>
    <name>1005948814</name>
    <description>0; Auxiliary; Unknown; Intermediate; HasAccess; -1</description>
    <styleUrl>#c391a6c8-edaa-48eb-beec-bb73e626f0d8</styleUrl>
    <LineString>
      <coordinates>18.578944199999999,53.018943899999989,0
18.578756600000002,53.018940999999991,0</coordinates>
    </LineString>
  </Placemark>
  <Placemark>
    <name>1005948813</name>
    <description>0; Auxiliary; Unknown; Intermediate; HasAccess; -1</description>
    <styleUrl>#c391a6c8-edaa-48eb-beec-bb73e626f0d8</styleUrl>
    <LineString>
      <coordinates>18.5789969,53.018944700000006,0</coordinates>
    </LineString>
  </Placemark>
  <Placemark>
    <name>1005948815</name>
    <description>0; Auxiliary; Unknown; Intermediate; HasAccess; -1</description>
    <styleUrl>#c391a6c8-edaa-48eb-beec-bb73e626f0d8</styleUrl>
    <LineString>
      <coordinates>18.5787096,53.019079599999998,0
18.5789939,53.019084099999993,0</coordinates>
    </LineString>
  </Placemark>
  <Placemark>
    <name>1106921940</name>
    <description>0; Footway; Unknown; Intermediate; HasAccess; -1</description>
    <styleUrl>#c391a6c8-edaa-48eb-beec-bb73e626f0d8</styleUrl>
    <LineString>
      <coordinates>18.578653900000003,53.018907200000001,0
18.578356400000001,53.018901399999997,0
18.5780672,53.018892099999995,0</coordinates>
    </LineString>
  </Placemark>
  <Placemark>
    <name>1106921943</name>
    <description>0; Footway; Unknown; Intermediate; HasAccess; -1</description>
    <styleUrl>#c391a6c8-edaa-48eb-beec-bb73e626f0d8</styleUrl>
    <LineString>
      <coordinates>18.578014700000001,53.019108199999998,0
18.5778727,53.019168499999999,0
18.5779897,53.019213200000003,0</coordinates>
    </LineString>
  </Placemark>
  <Placemark>
    <name>1106921942</name>
    <description>0; Footway; Unknown; Intermediate; HasAccess; -1</description>
    <styleUrl>#c391a6c8-edaa-48eb-beec-bb73e626f0d8</styleUrl>
    <LineString>
      <coordinates>18.578053400000002,53.018946200000002,0
18.577853000000001,53.01894870000001,0
18.578030500000001,53.019042200000001,0</coordinates>
    </LineString>
  </Placemark>
  <Placemark>
    <name>1106921944</name>
    <description>0; Footway; Unknown; Intermediate; HasAccess; -1</description>
    <styleUrl>#c391a6c8-edaa-48eb-beec-bb73e626f0d8</styleUrl>
    <LineString>
      <coordinates>18.5778727,53.019168499999999,0</coordinates>
    </LineString>
  </Placemark>
</Document>