<?xml version="1.0" encoding="utf-8"?>
<Document xmlns="http://www.opengis.net/kml/2.2">
  <name>weird-axe-turn</name>
  <Style id="icon-1739-DB4436-nodesc">
    <IconStyle>
      <color>ff3644db</color>
      <colorMode>normal</colorMode>
      <scale>1</scale>
      <Icon>
        <href>https://www.gstatic.com/mapspro/images/stock/503-wht-blank_maps.png</href>
      </Icon>
    </IconStyle>
  </Style>
  <Style id="5656636d-5b31-43b4-a9a8-8363dc7634d5">
    <LineStyle>
      <color>ffa4aabc</color>
      <colorMode>normal</colorMode>
      <width>7</width>
    </LineStyle>
  </Style>
  <Style id="eff414a9-8a55-4e69-ab87-aed58cf9bc39">
    <LineStyle>
      <color>ff000000</color>
      <colorMode>normal</colorMode>
      <width>1</width>
    </LineStyle>
  </Style>
  <Style id="99a1191c-6e28-4825-8a8d-6bf4a81b8218">
    <LineStyle>
      <color>ff2bb4af</color>
      <colorMode>normal</colorMode>
      <width>4</width>
    </LineStyle>
  </Style>
  <Style id="c8fc4a65-25b5-4877-9038-236b5dae4387">
    <LineStyle>
      <color>ffd18802</color>
      <colorMode>normal</colorMode>
      <width>6</width>
    </LineStyle>
  </Style>
  <Placemark>
    <name>1587884021</name>
    <description />
    <styleUrl>#icon-1739-DB4436-nodesc</styleUrl>
    <Point>
      <coordinates>18.819315500000002,53.014341399999992,78</coordinates>
    </Point>
  </Placemark>
  <Placemark>
    <name>8438987596</name>
    <description>982935166</description>
    <styleUrl>#icon-1739-DB4436-nodesc</styleUrl>
    <Point>
      <coordinates>18.819186200000001,53.014230699999999,77.285714285714278</coordinates>
    </Point>
  </Placemark>
  <Placemark>
    <name>9084833736</name>
    <description />
    <styleUrl>#icon-1739-DB4436-nodesc</styleUrl>
    <Point>
      <coordinates>18.8190147,53.014122800000003,76.857142857142861</coordinates>
    </Point>
  </Placemark>
  <Placemark>
    <name>9084833737</name>
    <description />
    <styleUrl>#icon-1739-DB4436-nodesc</styleUrl>
    <Point>
      <coordinates>18.818886599999999,53.014033300000008,76.571428571428584</coordinates>
    </Point>
  </Placemark>
  <Placemark>
    <name>8438987595</name>
    <description />
    <styleUrl>#icon-1739-DB4436-nodesc</styleUrl>
    <Point>
      <coordinates>18.818712899999998,53.013882200000005,76</coordinates>
    </Point>
  </Placemark>
  <Placemark>
    <name>1587884012</name>
    <description />
    <styleUrl>#icon-1739-DB4436-nodesc</styleUrl>
    <Point>
      <coordinates>18.815626600000002,53.0108964,76.714285714285722</coordinates>
    </Point>
  </Placemark>
  <Placemark>
    <name>3639564354</name>
    <description />
    <styleUrl>#icon-1739-DB4436-nodesc</styleUrl>
    <Point>
      <coordinates>18.818705300000001,53.014580299999999,78</coordinates>
    </Point>
  </Placemark>
  <Placemark>
    <name>9084833731</name>
    <description />
    <styleUrl>#icon-1739-DB4436-nodesc</styleUrl>
    <Point>
      <coordinates>18.819716100000001,53.0141834,77</coordinates>
    </Point>
  </Placemark>
  <Placemark>
    <name>9084769183</name>
    <description />
    <styleUrl>#icon-1739-DB4436-nodesc</styleUrl>
    <Point>
      <coordinates>18.819980399999999,53.014079099999996,76</coordinates>
    </Point>
  </Placemark>
  <Placemark>
    <name>1587887409</name>
    <description>443464282</description>
    <styleUrl>#icon-1739-DB4436-nodesc</styleUrl>
    <Point>
      <coordinates>18.836487300000002,53.007101799999994,91.714285714285722</coordinates>
    </Point>
  </Placemark>
  <Placemark>
    <name>7859371035</name>
    <description>443464282</description>
    <styleUrl>#icon-1739-DB4436-nodesc</styleUrl>
    <Point>
      <coordinates>18.836433599999999,53.007125100000003,91.714285714285722</coordinates>
    </Point>
  </Placemark>
  <Placemark>
    <name>7859371034</name>
    <description>145366198</description>
    <styleUrl>#icon-1739-DB4436-nodesc</styleUrl>
    <Point>
      <coordinates>18.836439299999999,53.007173900000005,91.857142857142861</coordinates>
    </Point>
  </Placemark>
  <Placemark>
    <name>7859371033</name>
    <description>145366198</description>
    <styleUrl>#icon-1739-DB4436-nodesc</styleUrl>
    <Point>
      <coordinates>18.836367899999996,53.007278500000005,92.142857142857139</coordinates>
    </Point>
  </Placemark>
  <Placemark>
    <name>7859371032</name>
    <description>145366198</description>
    <styleUrl>#icon-1739-DB4436-nodesc</styleUrl>
    <Point>
      <coordinates>18.835774799999996,53.007659500000003,90.285714285714278</coordinates>
    </Point>
  </Placemark>
  <Placemark>
    <name>7859371031</name>
    <description>145366198</description>
    <styleUrl>#icon-1739-DB4436-nodesc</styleUrl>
    <Point>
      <coordinates>18.835325300000001,53.007874999999999,87.857142857142861</coordinates>
    </Point>
  </Placemark>
  <Placemark>
    <name>7859371030</name>
    <description>982324760</description>
    <styleUrl>#icon-1739-DB4436-nodesc</styleUrl>
    <Point>
      <coordinates>18.833946600000001,53.008435200000001,88</coordinates>
    </Point>
  </Placemark>
  <Placemark>
    <name>7859371029</name>
    <description>982324759</description>
    <styleUrl>#icon-1739-DB4436-nodesc</styleUrl>
    <Point>
      <coordinates>18.833832000000001,53.008511400000003,88.142857142857139</coordinates>
    </Point>
  </Placemark>
  <Placemark>
    <name>7859371028</name>
    <description>982324759</description>
    <styleUrl>#icon-1739-DB4436-nodesc</styleUrl>
    <Point>
      <coordinates>18.8328664,53.008893799999996,87</coordinates>
    </Point>
  </Placemark>
  <Placemark>
    <name>7859371027</name>
    <description>982324759</description>
    <styleUrl>#icon-1739-DB4436-nodesc</styleUrl>
    <Point>
      <coordinates>18.832615300000001,53.008920400000001,87</coordinates>
    </Point>
  </Placemark>
  <Placemark>
    <name>9753031262</name>
    <description>982324759</description>
    <styleUrl>#icon-1739-DB4436-nodesc</styleUrl>
    <Point>
      <coordinates>18.832468800000001,53.008978399999997,87</coordinates>
    </Point>
  </Placemark>
  <Placemark>
    <name>7859371026</name>
    <description />
    <styleUrl>#icon-1739-DB4436-nodesc</styleUrl>
    <Point>
      <coordinates>18.831487899999999,53.009366900000003,87.142857142857139</coordinates>
    </Point>
  </Placemark>
  <Placemark>
    <name>7859371025</name>
    <description />
    <styleUrl>#icon-1739-DB4436-nodesc</styleUrl>
    <Point>
      <coordinates>18.830985099999999,53.0095776,86.571428571428584</coordinates>
    </Point>
  </Placemark>
  <Placemark>
    <name>7859371024</name>
    <description>982324759</description>
    <styleUrl>#icon-1739-DB4436-nodesc</styleUrl>
    <Point>
      <coordinates>18.830957600000001,53.00964350000001,86.428571428571416</coordinates>
    </Point>
  </Placemark>
  <Placemark>
    <name>7859371023</name>
    <description>982324759</description>
    <styleUrl>#icon-1739-DB4436-nodesc</styleUrl>
    <Point>
      <coordinates>18.830497100000002,53.009834699999999,85.857142857142861</coordinates>
    </Point>
  </Placemark>
  <Placemark>
    <name>7859371022</name>
    <description>982324759</description>
    <styleUrl>#icon-1739-DB4436-nodesc</styleUrl>
    <Point>
      <coordinates>18.8303206,53.009840400000002,85.142857142857139</coordinates>
    </Point>
  </Placemark>
  <Placemark>
    <name>7859371021</name>
    <description />
    <styleUrl>#icon-1739-DB4436-nodesc</styleUrl>
    <Point>
      <coordinates>18.829979699999999,53.009973299999999,84.857142857142861</coordinates>
    </Point>
  </Placemark>
  <Placemark>
    <name>7859371020</name>
    <description />
    <styleUrl>#icon-1739-DB4436-nodesc</styleUrl>
    <Point>
      <coordinates>18.8299421,53.010063199999998,84.857142857142861</coordinates>
    </Point>
  </Placemark>
  <Placemark>
    <name>7859371019</name>
    <description />
    <styleUrl>#icon-1739-DB4436-nodesc</styleUrl>
    <Point>
      <coordinates>18.829563799999995,53.010206500000002,84</coordinates>
    </Point>
  </Placemark>
  <Placemark>
    <name>7859371018</name>
    <description>982325263</description>
    <styleUrl>#icon-1739-DB4436-nodesc</styleUrl>
    <Point>
      <coordinates>18.829394700000002,53.010219800000002,83.857142857142861</coordinates>
    </Point>
  </Placemark>
  <Placemark>
    <name>7859371017</name>
    <description>982325263</description>
    <styleUrl>#icon-1739-DB4436-nodesc</styleUrl>
    <Point>
      <coordinates>18.828760099999997,53.0104617,83</coordinates>
    </Point>
  </Placemark>
  <Placemark>
    <name>7859371016</name>
    <description />
    <styleUrl>#icon-1739-DB4436-nodesc</styleUrl>
    <Point>
      <coordinates>18.828545800000004,53.010615699999995,83</coordinates>
    </Point>
  </Placemark>
  <Placemark>
    <name>7859371015</name>
    <description>982325263</description>
    <styleUrl>#icon-1739-DB4436-nodesc</styleUrl>
    <Point>
      <coordinates>18.827415899999995,53.011045699999997,82.714285714285722</coordinates>
    </Point>
  </Placemark>
  <Placemark>
    <name>7859371014</name>
    <description>982325263</description>
    <styleUrl>#icon-1739-DB4436-nodesc</styleUrl>
    <Point>
      <coordinates>18.826977800000002,53.0112399,83.428571428571416</coordinates>
    </Point>
  </Placemark>
  <Placemark>
    <name>7859371013</name>
    <description>982325263</description>
    <styleUrl>#icon-1739-DB4436-nodesc</styleUrl>
    <Point>
      <coordinates>18.826793800000001,53.011259199999998,83.571428571428584</coordinates>
    </Point>
  </Placemark>
  <Placemark>
    <name>7859371012</name>
    <description />
    <styleUrl>#icon-1739-DB4436-nodesc</styleUrl>
    <Point>
      <coordinates>18.825594199999998,53.011704000000002,84</coordinates>
    </Point>
  </Placemark>
  <Placemark>
    <name>7859371011</name>
    <description />
    <styleUrl>#icon-1739-DB4436-nodesc</styleUrl>
    <Point>
      <coordinates>18.825275699999999,53.011805500000001,83.428571428571416</coordinates>
    </Point>
  </Placemark>
  <Placemark>
    <name>7859371010</name>
    <description>1061535696</description>
    <styleUrl>#icon-1739-DB4436-nodesc</styleUrl>
    <Point>
      <coordinates>18.8233766,53.012549099999994,83</coordinates>
    </Point>
  </Placemark>
  <Placemark>
    <name>7859371009</name>
    <description>1061535696</description>
    <styleUrl>#icon-1739-DB4436-nodesc</styleUrl>
    <Point>
      <coordinates>18.8232122,53.012637299999994,82.714285714285722</coordinates>
    </Point>
  </Placemark>
  <Placemark>
    <name>10280260934</name>
    <description>982327223</description>
    <styleUrl>#icon-1739-DB4436-nodesc</styleUrl>
    <Point>
      <coordinates>18.8227297,53.012830299999997,82</coordinates>
    </Point>
  </Placemark>
  <Placemark>
    <name>7859371008</name>
    <description>982326000</description>
    <styleUrl>#icon-1739-DB4436-nodesc</styleUrl>
    <Point>
      <coordinates>18.820872300000001,53.0135735,76.142857142857139</coordinates>
    </Point>
  </Placemark>
  <Placemark>
    <name>7859371007</name>
    <description>982327222</description>
    <styleUrl>#icon-1739-DB4436-nodesc</styleUrl>
    <Point>
      <coordinates>18.8195929,53.014075200000001,76.714285714285722</coordinates>
    </Point>
  </Placemark>
  <Placemark>
    <name>7859371006</name>
    <description>982935166</description>
    <styleUrl>#icon-1739-DB4436-nodesc</styleUrl>
    <Point>
      <coordinates>18.818554799999998,53.014499200000003,78</coordinates>
    </Point>
  </Placemark>
  <Placemark>
    <name>7859417269</name>
    <description>982327223</description>
    <styleUrl>#icon-1739-DB4436-nodesc</styleUrl>
    <Point>
      <coordinates>18.822123900000001,53.013420799999999,80</coordinates>
    </Point>
  </Placemark>
  <Placemark>
    <name>7859417268</name>
    <description />
    <styleUrl>#icon-1739-DB4436-nodesc</styleUrl>
    <Point>
      <coordinates>18.821556999999999,53.013630499999998,77.571428571428584</coordinates>
    </Point>
  </Placemark>
  <Placemark>
    <name>7859417267</name>
    <description />
    <styleUrl>#icon-1739-DB4436-nodesc</styleUrl>
    <Point>
      <coordinates>18.821394300000001,53.013615199999997,77</coordinates>
    </Point>
  </Placemark>
  <Placemark>
    <name>7859417266</name>
    <description />
    <styleUrl>#icon-1739-DB4436-nodesc</styleUrl>
    <Point>
      <coordinates>18.821127600000001,53.013733700000003,77</coordinates>
    </Point>
  </Placemark>
  <Placemark>
    <name>7859417265</name>
    <description>982326000</description>
    <styleUrl>#icon-1739-DB4436-nodesc</styleUrl>
    <Point>
      <coordinates>18.8209768,53.013863800000003,76.571428571428584</coordinates>
    </Point>
  </Placemark>
  <Placemark>
    <name>9084833734</name>
    <description>982327222</description>
    <styleUrl>#icon-1739-DB4436-nodesc</styleUrl>
    <Point>
      <coordinates>18.8195838,53.014412099999994,78.285714285714278</coordinates>
    </Point>
  </Placemark>
  <Placemark>
    <name>9084833732</name>
    <description>982327222</description>
    <styleUrl>#icon-1739-DB4436-nodesc</styleUrl>
    <Point>
      <coordinates>18.819376300000002,53.01449259999999,78.714285714285722</coordinates>
    </Point>
  </Placemark>
  <Placemark>
    <name>9084833733</name>
    <description>982935166</description>
    <styleUrl>#icon-1739-DB4436-nodesc</styleUrl>
    <Point>
      <coordinates>18.8191153,53.014610699999999,78</coordinates>
    </Point>
  </Placemark>
  <Placemark>
    <name>9084833738</name>
    <description />
    <styleUrl>#icon-1739-DB4436-nodesc</styleUrl>
    <Point>
      <coordinates>18.820522499999999,53.013865500000009,76</coordinates>
    </Point>
  </Placemark>
  <Placemark>
    <name>440819264</name>
    <description />
    <styleUrl>#icon-1739-DB4436-nodesc</styleUrl>
    <Point>
      <coordinates>18.837219300000001,53.007460199999997,91</coordinates>
    </Point>
  </Placemark>
  <Placemark>
    <name>10036730488</name>
    <description />
    <styleUrl>#icon-1739-DB4436-nodesc</styleUrl>
    <Point>
      <coordinates>18.837157300000001,53.007480600000001,91.285714285714278</coordinates>
    </Point>
  </Placemark>
  <Placemark>
    <name>9084799234</name>
    <description />
    <styleUrl>#icon-1739-DB4436-nodesc</styleUrl>
    <Point>
      <coordinates>18.837109000000002,53.007496400000001,91.428571428571416</coordinates>
    </Point>
  </Placemark>
  <Placemark>
    <name>9084799233</name>
    <description />
    <styleUrl>#icon-1739-DB4436-nodesc</styleUrl>
    <Point>
      <coordinates>18.837041299999999,53.007512900000002,91.571428571428584</coordinates>
    </Point>
  </Placemark>
  <Placemark>
    <name>3639391452</name>
    <description />
    <styleUrl>#icon-1739-DB4436-nodesc</styleUrl>
    <Point>
      <coordinates>18.8369815,53.007521300000001,91.857142857142861</coordinates>
    </Point>
  </Placemark>
  <Placemark>
    <name>9084799232</name>
    <description />
    <styleUrl>#icon-1739-DB4436-nodesc</styleUrl>
    <Point>
      <coordinates>18.836908399999999,53.007527600000003,91.857142857142861</coordinates>
    </Point>
  </Placemark>
  <Placemark>
    <name>1587887420</name>
    <description />
    <styleUrl>#icon-1739-DB4436-nodesc</styleUrl>
    <Point>
      <coordinates>18.836829399999999,53.007526499999997,91.857142857142861</coordinates>
    </Point>
  </Placemark>
  <Placemark>
    <name>9084799231</name>
    <description />
    <styleUrl>#icon-1739-DB4436-nodesc</styleUrl>
    <Point>
      <coordinates>18.836754700000004,53.007523499999998,91.857142857142861</coordinates>
    </Point>
  </Placemark>
  <Placemark>
    <name>1587887418</name>
    <description />
    <styleUrl>#icon-1739-DB4436-nodesc</styleUrl>
    <Point>
      <coordinates>18.8366671,53.007516099999997,92</coordinates>
    </Point>
  </Placemark>
  <Placemark>
    <name>9084799230</name>
    <description />
    <styleUrl>#icon-1739-DB4436-nodesc</styleUrl>
    <Point>
      <coordinates>18.836601700000003,53.007508799999997,92.142857142857139</coordinates>
    </Point>
  </Placemark>
  <Placemark>
    <name>9084785878</name>
    <description />
    <styleUrl>#icon-1739-DB4436-nodesc</styleUrl>
    <Point>
      <coordinates>18.836554799999995,53.007502199999998,92.428571428571416</coordinates>
    </Point>
  </Placemark>
  <Placemark>
    <name>3639391451</name>
    <description />
    <styleUrl>#icon-1739-DB4436-nodesc</styleUrl>
    <Point>
      <coordinates>18.836514699999995,53.00749549999999,92.571428571428584</coordinates>
    </Point>
  </Placemark>
  <Placemark>
    <name>440819268</name>
    <description />
    <styleUrl>#icon-1739-DB4436-nodesc</styleUrl>
    <Point>
      <coordinates>18.836454400000001,53.007470699999999,92.714285714285722</coordinates>
    </Point>
  </Placemark>
  <Placemark>
    <name>1587887413</name>
    <description />
    <styleUrl>#icon-1739-DB4436-nodesc</styleUrl>
    <Point>
      <coordinates>18.8366325,53.007344199999999,92</coordinates>
    </Point>
  </Placemark>
  <Placemark>
    <name>9084799235</name>
    <description />
    <styleUrl>#icon-1739-DB4436-nodesc</styleUrl>
    <Point>
      <coordinates>18.836524099999998,53.007421700000002,92.428571428571416</coordinates>
    </Point>
  </Placemark>
  <Placemark>
    <name>9084799227</name>
    <description />
    <styleUrl>#icon-1739-DB4436-nodesc</styleUrl>
    <Point>
      <coordinates>18.836329200000002,53.007551799999995,92.571428571428584</coordinates>
    </Point>
  </Placemark>
  <Placemark>
    <name>9084785877</name>
    <description />
    <styleUrl>#icon-1739-DB4436-nodesc</styleUrl>
    <Point>
      <coordinates>18.836254199999996,53.007598700000003,92.285714285714278</coordinates>
    </Point>
  </Placemark>
  <Placemark>
    <name>1587887426</name>
    <description />
    <styleUrl>#icon-1739-DB4436-nodesc</styleUrl>
    <Point>
      <coordinates>18.836184100000004,53.007641900000003,92</coordinates>
    </Point>
  </Placemark>
  <Placemark>
    <name>9084785876</name>
    <description />
    <styleUrl>#icon-1739-DB4436-nodesc</styleUrl>
    <Point>
      <coordinates>18.836091400000001,53.00769600000001,91.428571428571416</coordinates>
    </Point>
  </Placemark>
  <Placemark>
    <name>9084799225</name>
    <description />
    <styleUrl>#icon-1739-DB4436-nodesc</styleUrl>
    <Point>
      <coordinates>18.8359901,53.007752100000005,90.714285714285722</coordinates>
    </Point>
  </Placemark>
  <Placemark>
    <name>9084799223</name>
    <description />
    <styleUrl>#icon-1739-DB4436-nodesc</styleUrl>
    <Point>
      <coordinates>18.835865799999997,53.007815900000004,90</coordinates>
    </Point>
  </Placemark>
  <Placemark>
    <name>30756312</name>
    <description />
    <styleUrl>#icon-1739-DB4436-nodesc</styleUrl>
    <Point>
      <coordinates>18.8357177,53.007890699999997,89.142857142857139</coordinates>
    </Point>
  </Placemark>
  <Placemark>
    <name>9084785875</name>
    <description />
    <styleUrl>#icon-1739-DB4436-nodesc</styleUrl>
    <Point>
      <coordinates>18.835605399999995,53.007944700000003,88.571428571428584</coordinates>
    </Point>
  </Placemark>
  <Placemark>
    <name>9084799222</name>
    <description />
    <styleUrl>#icon-1739-DB4436-nodesc</styleUrl>
    <Point>
      <coordinates>18.835473100000002,53.00800559999999,87.857142857142861</coordinates>
    </Point>
  </Placemark>
  <Placemark>
    <name>9084799221</name>
    <description />
    <styleUrl>#icon-1739-DB4436-nodesc</styleUrl>
    <Point>
      <coordinates>18.835313299999999,53.0080746,87.142857142857139</coordinates>
    </Point>
  </Placemark>
  <Placemark>
    <name>9084785874</name>
    <description />
    <styleUrl>#icon-1739-DB4436-nodesc</styleUrl>
    <Point>
      <coordinates>18.8351884,53.008127399999992,87</coordinates>
    </Point>
  </Placemark>
  <Placemark>
    <name>3639476776</name>
    <description />
    <styleUrl>#icon-1739-DB4436-nodesc</styleUrl>
    <Point>
      <coordinates>18.835059900000005,53.00817829999999,87</coordinates>
    </Point>
  </Placemark>
  <Placemark>
    <name>9084785872</name>
    <description />
    <styleUrl>#icon-1739-DB4436-nodesc</styleUrl>
    <Point>
      <coordinates>18.834857299999999,53.008254299999997,87.142857142857139</coordinates>
    </Point>
  </Placemark>
  <Placemark>
    <name>9084785873</name>
    <description />
    <styleUrl>#icon-1739-DB4436-nodesc</styleUrl>
    <Point>
      <coordinates>18.834695100000001,53.008312699999998,87.142857142857139</coordinates>
    </Point>
  </Placemark>
  <Placemark>
    <name>1587887435</name>
    <description />
    <styleUrl>#icon-1739-DB4436-nodesc</styleUrl>
    <Point>
      <coordinates>18.834251999999999,53.00846279999999,87.714285714285722</coordinates>
    </Point>
  </Placemark>
  <Placemark>
    <name>1587887414</name>
    <description />
    <styleUrl>#icon-1739-DB4436-nodesc</styleUrl>
    <Point>
      <coordinates>18.836392199999999,53.007410399999998,92.714285714285722</coordinates>
    </Point>
  </Placemark>
  <Placemark>
    <name>10280260611</name>
    <description />
    <styleUrl>#icon-1739-DB4436-nodesc</styleUrl>
    <Point>
      <coordinates>18.836036600000003,53.006294500000003,90.428571428571416</coordinates>
    </Point>
  </Placemark>
  <Placemark>
    <name>3639986580</name>
    <description />
    <styleUrl>#icon-1739-DB4436-nodesc</styleUrl>
    <Point>
      <coordinates>18.836560999999996,53.007225200000001,92</coordinates>
    </Point>
  </Placemark>
  <Placemark>
    <name>9084799240</name>
    <description />
    <styleUrl>#icon-1739-DB4436-nodesc</styleUrl>
    <Point>
      <coordinates>18.836572400000001,53.007243600000002,92</coordinates>
    </Point>
  </Placemark>
  <Placemark>
    <name>1587887412</name>
    <description />
    <styleUrl>#icon-1739-DB4436-nodesc</styleUrl>
    <Point>
      <coordinates>18.836588899999999,53.007266799999996,92</coordinates>
    </Point>
  </Placemark>
  <Placemark>
    <name>9084799229</name>
    <description />
    <styleUrl>#icon-1739-DB4436-nodesc</styleUrl>
    <Point>
      <coordinates>18.836487699999999,53.007342999999999,92.285714285714278</coordinates>
    </Point>
  </Placemark>
  <Placemark>
    <name>9084799239</name>
    <description />
    <styleUrl>#icon-1739-DB4436-nodesc</styleUrl>
    <Point>
      <coordinates>18.836676700000002,53.0071996,92</coordinates>
    </Point>
  </Placemark>
  <Placemark>
    <name>1587887411</name>
    <description />
    <styleUrl>#icon-1739-DB4436-nodesc</styleUrl>
    <Point>
      <coordinates>18.836744299999999,53.0071425,92</coordinates>
    </Point>
  </Placemark>
  <Placemark>
    <name>9084799241</name>
    <description />
    <styleUrl>#icon-1739-DB4436-nodesc</styleUrl>
    <Point>
      <coordinates>18.836813899999999,53.0070847,92</coordinates>
    </Point>
  </Placemark>
  <Placemark>
    <name>3639391445</name>
    <description />
    <styleUrl>#icon-1739-DB4436-nodesc</styleUrl>
    <Point>
      <coordinates>18.836892500000001,53.007021700000003,92</coordinates>
    </Point>
  </Placemark>
  <Placemark>
    <name>1587887407</name>
    <description />
    <styleUrl>#icon-1739-DB4436-nodesc</styleUrl>
    <Point>
      <coordinates>18.837141500000005,53.006826799999992,92.714285714285722</coordinates>
    </Point>
  </Placemark>
  <Placemark>
    <name>1587887415</name>
    <description />
    <styleUrl>#icon-1739-DB4436-nodesc</styleUrl>
    <Point>
      <coordinates>18.836662500000003,53.007383399999995,92</coordinates>
    </Point>
  </Placemark>
  <Placemark>
    <name>9084785881</name>
    <description />
    <styleUrl>#icon-1739-DB4436-nodesc</styleUrl>
    <Point>
      <coordinates>18.836681599999999,53.007400599999997,92</coordinates>
    </Point>
  </Placemark>
  <Placemark>
    <name>9084799236</name>
    <description />
    <styleUrl>#icon-1739-DB4436-nodesc</styleUrl>
    <Point>
      <coordinates>18.836701699999999,53.007420099999997,92</coordinates>
    </Point>
  </Placemark>
  <Placemark>
    <name>3639391448</name>
    <description />
    <styleUrl>#icon-1739-DB4436-nodesc</styleUrl>
    <Point>
      <coordinates>18.836736200000001,53.007453400000003,92</coordinates>
    </Point>
  </Placemark>
  <Placemark>
    <name>9084785880</name>
    <description />
    <styleUrl>#icon-1739-DB4436-nodesc</styleUrl>
    <Point>
      <coordinates>18.836787699999999,53.007461900000003,92</coordinates>
    </Point>
  </Placemark>
  <Placemark>
    <name>3639391449</name>
    <description />
    <styleUrl>#icon-1739-DB4436-nodesc</styleUrl>
    <Point>
      <coordinates>18.836838099999998,53.0074671,92</coordinates>
    </Point>
  </Placemark>
  <Placemark>
    <name>9084799237</name>
    <description />
    <styleUrl>#icon-1739-DB4436-nodesc</styleUrl>
    <Point>
      <coordinates>18.836942499999999,53.007473300000001,92</coordinates>
    </Point>
  </Placemark>
  <Placemark>
    <name>3639391450</name>
    <description />
    <styleUrl>#icon-1739-DB4436-nodesc</styleUrl>
    <Point>
      <coordinates>18.837049000000004,53.0074726,91.571428571428584</coordinates>
    </Point>
  </Placemark>
  <Placemark>
    <name>3639391446</name>
    <description />
    <styleUrl>#icon-1739-DB4436-nodesc</styleUrl>
    <Point>
      <coordinates>18.836971399999999,53.007046900000006,92</coordinates>
    </Point>
  </Placemark>
  <Placemark>
    <name>9084785882</name>
    <description />
    <styleUrl>#icon-1739-DB4436-nodesc</styleUrl>
    <Point>
      <coordinates>18.836942499999999,53.007077000000002,92</coordinates>
    </Point>
  </Placemark>
  <Placemark>
    <name>9084799242</name>
    <description />
    <styleUrl>#icon-1739-DB4436-nodesc</styleUrl>
    <Point>
      <coordinates>18.836905300000002,53.007113000000004,92</coordinates>
    </Point>
  </Placemark>
  <Placemark>
    <name>3639391447</name>
    <description />
    <styleUrl>#icon-1739-DB4436-nodesc</styleUrl>
    <Point>
      <coordinates>18.836849900000001,53.007163900000002,92</coordinates>
    </Point>
  </Placemark>
  <Placemark>
    <name>9084785883</name>
    <description />
    <styleUrl>#icon-1739-DB4436-nodesc</styleUrl>
    <Point>
      <coordinates>18.836810799999999,53.007198500000001,92</coordinates>
    </Point>
  </Placemark>
  <Placemark>
    <name>9084799238</name>
    <description />
    <styleUrl>#icon-1739-DB4436-nodesc</styleUrl>
    <Point>
      <coordinates>18.836759000000001,53.007241,92</coordinates>
    </Point>
  </Placemark>
  <Placemark>
    <name>3639986581</name>
    <description />
    <styleUrl>#icon-1739-DB4436-nodesc</styleUrl>
    <Point>
      <coordinates>18.836714299999997,53.007278500000005,92</coordinates>
    </Point>
  </Placemark>
  <Placemark>
    <name>30756311</name>
    <description />
    <styleUrl>#icon-1739-DB4436-nodesc</styleUrl>
    <Point>
      <coordinates>18.829002399999997,53.010528100000002,83</coordinates>
    </Point>
  </Placemark>
  <Placemark>
    <name>9084769179</name>
    <description />
    <styleUrl>#icon-1739-DB4436-nodesc</styleUrl>
    <Point>
      <coordinates>18.829098999999999,53.010613300000003,83</coordinates>
    </Point>
  </Placemark>
  <Placemark>
    <name>10036730574</name>
    <description>982325263</description>
    <styleUrl>#icon-1739-DB4436-nodesc</styleUrl>
    <Point>
      <coordinates>18.8291109,53.010622699999999,83</coordinates>
    </Point>
  </Placemark>
  <Placemark>
    <name>9084769178</name>
    <description />
    <styleUrl>#icon-1739-DB4436-nodesc</styleUrl>
    <Point>
      <coordinates>18.8304914,53.009942299999999,85.714285714285722</coordinates>
    </Point>
  </Placemark>
  <Placemark>
    <name>9084817444</name>
    <description />
    <styleUrl>#icon-1739-DB4436-nodesc</styleUrl>
    <Point>
      <coordinates>18.8269658,53.011328399999989,83.714285714285722</coordinates>
    </Point>
  </Placemark>
  <Placemark>
    <name>1587887430</name>
    <description />
    <styleUrl>#icon-1739-DB4436-nodesc</styleUrl>
    <Point>
      <coordinates>18.834927199999999,53.008165400000003,87.142857142857139</coordinates>
    </Point>
  </Placemark>
  <Placemark>
    <name>9084799220</name>
    <description />
    <styleUrl>#icon-1739-DB4436-nodesc</styleUrl>
    <Point>
      <coordinates>18.835278599999995,53.008014799999998,87.142857142857139</coordinates>
    </Point>
  </Placemark>
  <Placemark>
    <name>9084799219</name>
    <description />
    <styleUrl>#icon-1739-DB4436-nodesc</styleUrl>
    <Point>
      <coordinates>18.835467000000001,53.007931900000003,88.142857142857139</coordinates>
    </Point>
  </Placemark>
  <Placemark>
    <name>9084799218</name>
    <description />
    <styleUrl>#icon-1739-DB4436-nodesc</styleUrl>
    <Point>
      <coordinates>18.8355511,53.007891899999997,88.571428571428584</coordinates>
    </Point>
  </Placemark>
  <Placemark>
    <name>3639476775</name>
    <description />
    <styleUrl>#icon-1739-DB4436-nodesc</styleUrl>
    <Point>
      <coordinates>18.8356678,53.007836400000002,89.142857142857139</coordinates>
    </Point>
  </Placemark>
  <Placemark>
    <name>9084799224</name>
    <description />
    <styleUrl>#icon-1739-DB4436-nodesc</styleUrl>
    <Point>
      <coordinates>18.835782200000001,53.007778899999998,89.857142857142861</coordinates>
    </Point>
  </Placemark>
  <Placemark>
    <name>9084785871</name>
    <description />
    <styleUrl>#icon-1739-DB4436-nodesc</styleUrl>
    <Point>
      <coordinates>18.8358737,53.007731499999998,90.285714285714278</coordinates>
    </Point>
  </Placemark>
  <Placemark>
    <name>9084799226</name>
    <description />
    <styleUrl>#icon-1739-DB4436-nodesc</styleUrl>
    <Point>
      <coordinates>18.835958399999999,53.007686100000001,91</coordinates>
    </Point>
  </Placemark>
  <Placemark>
    <name>1587887427</name>
    <description />
    <styleUrl>#icon-1739-DB4436-nodesc</styleUrl>
    <Point>
      <coordinates>18.836078700000002,53.007614599999997,92</coordinates>
    </Point>
  </Placemark>
  <Placemark>
    <name>9084799228</name>
    <description />
    <styleUrl>#icon-1739-DB4436-nodesc</styleUrl>
    <Point>
      <coordinates>18.8361895,53.007545899999997,92.714285714285722</coordinates>
    </Point>
  </Placemark>
  <Placemark>
    <name>3639462313</name>
    <description />
    <styleUrl>#icon-1739-DB4436-nodesc</styleUrl>
    <Point>
      <coordinates>18.836247499999999,53.0075091,93</coordinates>
    </Point>
  </Placemark>
  <Placemark>
    <name>9084785879</name>
    <description />
    <styleUrl>#icon-1739-DB4436-nodesc</styleUrl>
    <Point>
      <coordinates>18.836608399999999,53.0074325,92.142857142857139</coordinates>
    </Point>
  </Placemark>
  <Placemark>
    <name>2299493477</name>
    <description />
    <styleUrl>#icon-1739-DB4436-nodesc</styleUrl>
    <Point>
      <coordinates>18.822053700000001,53.013261900000003,80.714285714285722</coordinates>
    </Point>
  </Placemark>
  <Placemark>
    <name>9084794750</name>
    <description />
    <styleUrl>#icon-1739-DB4436-nodesc</styleUrl>
    <Point>
      <coordinates>18.822084700000001,53.013311399999999,80.571428571428584</coordinates>
    </Point>
  </Placemark>
  <Placemark>
    <name>9084794749</name>
    <description />
    <styleUrl>#icon-1739-DB4436-nodesc</styleUrl>
    <Point>
      <coordinates>18.822105999999998,53.013358400000001,80.428571428571416</coordinates>
    </Point>
  </Placemark>
  <Placemark>
    <name>9752967893</name>
    <description />
    <styleUrl>#icon-1739-DB4436-nodesc</styleUrl>
    <Point>
      <coordinates>18.8225716,53.013058100000002,81.714285714285722</coordinates>
    </Point>
  </Placemark>
  <Placemark>
    <name>9084769182</name>
    <description />
    <styleUrl>#icon-1739-DB4436-nodesc</styleUrl>
    <Point>
      <coordinates>18.833651400000001,53.008699,87.714285714285722</coordinates>
    </Point>
  </Placemark>
  <Placemark>
    <name>10036707130</name>
    <description />
    <styleUrl>#icon-1739-DB4436-nodesc</styleUrl>
    <Point>
      <coordinates>18.833843000000002,53.0086236,88</coordinates>
    </Point>
  </Placemark>
  <Placemark>
    <name>9753031267</name>
    <description />
    <styleUrl>#icon-1739-DB4436-nodesc</styleUrl>
    <Point>
      <coordinates>18.830833200000004,53.007516600000002,83</coordinates>
    </Point>
  </Placemark>
  <Placemark>
    <name>9753031265</name>
    <description />
    <styleUrl>#icon-1739-DB4436-nodesc</styleUrl>
    <Point>
      <coordinates>18.832284600000005,53.008949999999999,87</coordinates>
    </Point>
  </Placemark>
  <Placemark>
    <name>9753031261</name>
    <description />
    <styleUrl>#icon-1739-DB4436-nodesc</styleUrl>
    <Point>
      <coordinates>18.832644299999998,53.009095199999997,87</coordinates>
    </Point>
  </Placemark>
  <Placemark>
    <name>10280194793</name>
    <description />
    <styleUrl>#icon-1739-DB4436-nodesc</styleUrl>
    <Point>
      <coordinates>18.822192300000005,53.012303099999997,84.285714285714278</coordinates>
    </Point>
  </Placemark>
  <Placemark>
    <name>10280194794</name>
    <description />
    <styleUrl>#icon-1739-DB4436-nodesc</styleUrl>
    <Point>
      <coordinates>18.822852199999996,53.012948399999999,81.428571428571416</coordinates>
    </Point>
  </Placemark>
  <Placemark>
    <name>9084769181</name>
    <description />
    <styleUrl>#icon-1739-DB4436-nodesc</styleUrl>
    <Point>
      <coordinates>18.8327502,53.0090535,87</coordinates>
    </Point>
  </Placemark>
  <Placemark>
    <name>9084769180</name>
    <description />
    <styleUrl>#icon-1739-DB4436-nodesc</styleUrl>
    <Point>
      <coordinates>18.8327569,53.009050899999998,87</coordinates>
    </Point>
  </Placemark>
  <Placemark>
    <name>10036730575</name>
    <description>982324759</description>
    <styleUrl>#icon-1739-DB4436-nodesc</styleUrl>
    <Point>
      <coordinates>18.833916099999996,53.008690899999998,87.714285714285722</coordinates>
    </Point>
  </Placemark>
  <Placemark>
    <name>9752967892</name>
    <description />
    <styleUrl>#icon-1739-DB4436-nodesc</styleUrl>
    <Point>
      <coordinates>18.823220800000001,53.0128044,82.428571428571416</coordinates>
    </Point>
  </Placemark>
  <Placemark>
    <name>10036707131</name>
    <description>982327223</description>
    <styleUrl>#icon-1739-DB4436-nodesc</styleUrl>
    <Point>
      <coordinates>18.822316399999998,53.013304299999994,81.142857142857139</coordinates>
    </Point>
  </Placemark>
  <Placemark>
    <name>10036707132</name>
    <description>982325500</description>
    <styleUrl>#icon-1739-DB4436-nodesc</styleUrl>
    <Point>
      <coordinates>18.822617000000001,53.013188900000003,81.142857142857139</coordinates>
    </Point>
  </Placemark>
  <Placemark>
    <name>10036707133</name>
    <description>982325500</description>
    <styleUrl>#icon-1739-DB4436-nodesc</styleUrl>
    <Point>
      <coordinates>18.8227349,53.013153699999997,80.857142857142861</coordinates>
    </Point>
  </Placemark>
  <Placemark>
    <name>10036707134</name>
    <description>1061535696</description>
    <styleUrl>#icon-1739-DB4436-nodesc</styleUrl>
    <Point>
      <coordinates>18.823067300000002,53.013019799999995,81.142857142857139</coordinates>
    </Point>
  </Placemark>
  <Placemark>
    <name>10036707135</name>
    <description>982325263</description>
    <styleUrl>#icon-1739-DB4436-nodesc</styleUrl>
    <Point>
      <coordinates>18.823305099999995,53.012893800000001,82.142857142857139</coordinates>
    </Point>
  </Placemark>
  <Placemark>
    <name>10036707136</name>
    <description />
    <styleUrl>#icon-1739-DB4436-nodesc</styleUrl>
    <Point>
      <coordinates>18.8295265,53.010460199999997,84</coordinates>
    </Point>
  </Placemark>
  <Placemark>
    <name>10036707137</name>
    <description>982324759</description>
    <styleUrl>#icon-1739-DB4436-nodesc</styleUrl>
    <Point>
      <coordinates>18.829691200000003,53.010437899999999,84</coordinates>
    </Point>
  </Placemark>
  <Placemark>
    <name>10036707138</name>
    <description />
    <styleUrl>#icon-1739-DB4436-nodesc</styleUrl>
    <Point>
      <coordinates>18.8332883,53.008965699999997,87</coordinates>
    </Point>
  </Placemark>
  <Placemark>
    <name>10036707139</name>
    <description />
    <styleUrl>#icon-1739-DB4436-nodesc</styleUrl>
    <Point>
      <coordinates>18.833376300000001,53.008956099999999,87</coordinates>
    </Point>
  </Placemark>
  <Placemark>
    <name>10036707140</name>
    <description>982324759</description>
    <styleUrl>#icon-1739-DB4436-nodesc</styleUrl>
    <Point>
      <coordinates>18.8335215,53.008901999999999,87</coordinates>
    </Point>
  </Placemark>
  <Placemark>
    <name>10036707141</name>
    <description>982324759</description>
    <styleUrl>#icon-1739-DB4436-nodesc</styleUrl>
    <Point>
      <coordinates>18.833554100000001,53.008850099999997,87.142857142857139</coordinates>
    </Point>
  </Placemark>
  <Placemark>
    <name>10036707142</name>
    <description>982324760</description>
    <styleUrl>#icon-1739-DB4436-nodesc</styleUrl>
    <Point>
      <coordinates>18.8339958,53.008655900000001,87.857142857142861</coordinates>
    </Point>
  </Placemark>
  <Placemark>
    <name>10036707143</name>
    <description>982324760</description>
    <styleUrl>#icon-1739-DB4436-nodesc</styleUrl>
    <Point>
      <coordinates>18.834104799999999,53.008667799999998,87.857142857142861</coordinates>
    </Point>
  </Placemark>
  <Placemark>
    <name>10036707144</name>
    <description>443464283</description>
    <styleUrl>#icon-1739-DB4436-nodesc</styleUrl>
    <Point>
      <coordinates>18.8345597,53.008474999999997,87</coordinates>
    </Point>
  </Placemark>
  <Placemark>
    <name>10036707145</name>
    <description>443464283</description>
    <styleUrl>#icon-1739-DB4436-nodesc</styleUrl>
    <Point>
      <coordinates>18.834688100000001,53.008461300000008,87</coordinates>
    </Point>
  </Placemark>
  <Placemark>
    <name>10036707146</name>
    <description>145366198</description>
    <styleUrl>#icon-1739-DB4436-nodesc</styleUrl>
    <Point>
      <coordinates>18.834707699999999,53.008384499999998,87</coordinates>
    </Point>
  </Placemark>
  <Placemark>
    <name>10036707147</name>
    <description>145366198</description>
    <styleUrl>#icon-1739-DB4436-nodesc</styleUrl>
    <Point>
      <coordinates>18.835046499999997,53.0082466,87</coordinates>
    </Point>
  </Placemark>
  <Placemark>
    <name>10036707148</name>
    <description>145366198</description>
    <styleUrl>#icon-1739-DB4436-nodesc</styleUrl>
    <Point>
      <coordinates>18.835170099999999,53.008171300000001,87</coordinates>
    </Point>
  </Placemark>
  <Placemark>
    <name>10036707149</name>
    <description>145366198</description>
    <styleUrl>#icon-1739-DB4436-nodesc</styleUrl>
    <Point>
      <coordinates>18.835635799999999,53.007975399999992,88.571428571428584</coordinates>
    </Point>
  </Placemark>
  <Placemark>
    <name>10036707150</name>
    <description>145366198</description>
    <styleUrl>#icon-1739-DB4436-nodesc</styleUrl>
    <Point>
      <coordinates>18.8359229,53.007827800000001,90.142857142857139</coordinates>
    </Point>
  </Placemark>
  <Placemark>
    <name>10036707151</name>
    <description>145366198</description>
    <styleUrl>#icon-1739-DB4436-nodesc</styleUrl>
    <Point>
      <coordinates>18.836042499999998,53.007796599999999,90.714285714285722</coordinates>
    </Point>
  </Placemark>
  <Placemark>
    <name>10036707152</name>
    <description>145366198</description>
    <styleUrl>#icon-1739-DB4436-nodesc</styleUrl>
    <Point>
      <coordinates>18.836429000000003,53.007569400000001,92.428571428571416</coordinates>
    </Point>
  </Placemark>
  <Placemark>
    <name>10036707153</name>
    <description>443464281</description>
    <styleUrl>#icon-1739-DB4436-nodesc</styleUrl>
    <Point>
      <coordinates>18.836674299999999,53.007570899999997,91.714285714285722</coordinates>
    </Point>
  </Placemark>
  <Placemark>
    <name>3639391455</name>
    <description />
    <styleUrl>#icon-1739-DB4436-nodesc</styleUrl>
    <Point>
      <coordinates>18.836725500000004,53.0076435,91.428571428571416</coordinates>
    </Point>
  </Placemark>
  <Placemark>
    <name>1587887410</name>
    <description />
    <styleUrl>#icon-1739-DB4436-nodesc</styleUrl>
    <Point>
      <coordinates>18.8366182,53.007127400000002,92</coordinates>
    </Point>
  </Placemark>
  <Placemark>
    <name>9084785884</name>
    <description />
    <styleUrl>#icon-1739-DB4436-nodesc</styleUrl>
    <Point>
      <coordinates>18.836676700000002,53.007134600000001,92</coordinates>
    </Point>
  </Placemark>
  <Placemark>
    <name>10036730487</name>
    <description />
    <styleUrl>#icon-1739-DB4436-nodesc</styleUrl>
    <Point>
      <coordinates>18.837378900000001,53.007765200000001,90.571428571428584</coordinates>
    </Point>
  </Placemark>
  <Placemark>
    <name>10036730489</name>
    <description />
    <styleUrl>#icon-1739-DB4436-nodesc</styleUrl>
    <Point>
      <coordinates>18.837197100000001,53.007531699999994,91</coordinates>
    </Point>
  </Placemark>
  <Placemark>
    <name>1587887421</name>
    <description />
    <styleUrl>#icon-1739-DB4436-nodesc</styleUrl>
    <Point>
      <coordinates>18.836812999999999,53.007611199999999,91.571428571428584</coordinates>
    </Point>
  </Placemark>
  <Placemark>
    <name>3639391456</name>
    <description />
    <styleUrl>#icon-1739-DB4436-nodesc</styleUrl>
    <Point>
      <coordinates>18.836818000000005,53.007648000000003,91.428571428571416</coordinates>
    </Point>
  </Placemark>
  <Placemark>
    <name>1587887429</name>
    <description />
    <styleUrl>#icon-1739-DB4436-nodesc</styleUrl>
    <Point>
      <coordinates>18.836836399999999,53.00768510000001,91.285714285714278</coordinates>
    </Point>
  </Placemark>
  <Placemark>
    <name>10036707158</name>
    <description />
    <styleUrl>#icon-1739-DB4436-nodesc</styleUrl>
    <Point>
      <coordinates>18.8369103,53.007673599999997,91.428571428571416</coordinates>
    </Point>
  </Placemark>
  <Placemark>
    <name>10036707159</name>
    <description />
    <styleUrl>#icon-1739-DB4436-nodesc</styleUrl>
    <Point>
      <coordinates>18.8369024,53.007639699999999,91.428571428571416</coordinates>
    </Point>
  </Placemark>
  <Placemark>
    <name>10036707160</name>
    <description />
    <styleUrl>#icon-1739-DB4436-nodesc</styleUrl>
    <Point>
      <coordinates>18.836904800000003,53.007615700000002,91.571428571428584</coordinates>
    </Point>
  </Placemark>
  <Placemark>
    <name>10036707161</name>
    <description />
    <styleUrl>#icon-1739-DB4436-nodesc</styleUrl>
    <Point>
      <coordinates>18.8369243,53.007595100000003,91.714285714285722</coordinates>
    </Point>
  </Placemark>
  <Placemark>
    <name>10036707162</name>
    <description />
    <styleUrl>#icon-1739-DB4436-nodesc</styleUrl>
    <Point>
      <coordinates>18.836953600000001,53.00757999999999,91.714285714285722</coordinates>
    </Point>
  </Placemark>
  <Placemark>
    <name>10036707163</name>
    <description />
    <styleUrl>#icon-1739-DB4436-nodesc</styleUrl>
    <Point>
      <coordinates>18.836988600000002,53.007568200000001,91.571428571428584</coordinates>
    </Point>
  </Placemark>
  <Placemark>
    <name>10036707164</name>
    <description />
    <styleUrl>#icon-1739-DB4436-nodesc</styleUrl>
    <Point>
      <coordinates>18.837251699999996,53.007522100000003,91</coordinates>
    </Point>
  </Placemark>
  <Placemark>
    <name>10036707165</name>
    <description />
    <styleUrl>#icon-1739-DB4436-nodesc</styleUrl>
    <Point>
      <coordinates>18.837529,53.007444999999997,91</coordinates>
    </Point>
  </Placemark>
  <Placemark>
    <name>10036707166</name>
    <description />
    <styleUrl>#icon-1739-DB4436-nodesc</styleUrl>
    <Point>
      <coordinates>18.837749599999999,53.007414599999997,91</coordinates>
    </Point>
  </Placemark>
  <Placemark>
    <name>10036730439</name>
    <description />
    <styleUrl>#icon-1739-DB4436-nodesc</styleUrl>
    <Point>
      <coordinates>18.839275000000001,53.006911600000002,90.714285714285722</coordinates>
    </Point>
  </Placemark>
  <Placemark>
    <name>10036707167</name>
    <description />
    <styleUrl>#icon-1739-DB4436-nodesc</styleUrl>
    <Point>
      <coordinates>18.839630400000004,53.006794299999996,90.571428571428584</coordinates>
    </Point>
  </Placemark>
  <Placemark>
    <name>10036707168</name>
    <description />
    <styleUrl>#icon-1739-DB4436-nodesc</styleUrl>
    <Point>
      <coordinates>18.839662100000002,53.0067679,90.571428571428584</coordinates>
    </Point>
  </Placemark>
  <Placemark>
    <name>10036730431</name>
    <description />
    <styleUrl>#icon-1739-DB4436-nodesc</styleUrl>
    <Point>
      <coordinates>18.839957099999999,53.006670800000002,91</coordinates>
    </Point>
  </Placemark>
  <Placemark>
    <name>10036707169</name>
    <description />
    <styleUrl>#icon-1739-DB4436-nodesc</styleUrl>
    <Point>
      <coordinates>18.840540000000001,53.006479200000001,91.714285714285722</coordinates>
    </Point>
  </Placemark>
  <Placemark>
    <name>10036730428</name>
    <description />
    <styleUrl>#icon-1739-DB4436-nodesc</styleUrl>
    <Point>
      <coordinates>18.8407427,53.006394899999989,92</coordinates>
    </Point>
  </Placemark>
  <Placemark>
    <name>10036707170</name>
    <description />
    <styleUrl>#icon-1739-DB4436-nodesc</styleUrl>
    <Point>
      <coordinates>18.840769699999999,53.006383700000001,92</coordinates>
    </Point>
  </Placemark>
  <Placemark>
    <name>10036707171</name>
    <description />
    <styleUrl>#icon-1739-DB4436-nodesc</styleUrl>
    <Point>
      <coordinates>18.840997600000001,53.006307199999995,92.428571428571416</coordinates>
    </Point>
  </Placemark>
  <Placemark>
    <name>10036707172</name>
    <description />
    <styleUrl>#icon-1739-DB4436-nodesc</styleUrl>
    <Point>
      <coordinates>18.8412057,53.006263699999998,92.571428571428584</coordinates>
    </Point>
  </Placemark>
  <Placemark>
    <name>10036707199</name>
    <description />
    <styleUrl>#icon-1739-DB4436-nodesc</styleUrl>
    <Point>
      <coordinates>18.842981600000002,53.005675699999998,88.571428571428584</coordinates>
    </Point>
  </Placemark>
  <Placemark>
    <name>10036707200</name>
    <description />
    <styleUrl>#icon-1739-DB4436-nodesc</styleUrl>
    <Point>
      <coordinates>18.843797299999999,53.005405699999997,88.714285714285722</coordinates>
    </Point>
  </Placemark>
  <Placemark>
    <name>440819263</name>
    <description />
    <styleUrl>#icon-1739-DB4436-nodesc</styleUrl>
    <Point>
      <coordinates>18.837602400000002,53.007364899999999,91</coordinates>
    </Point>
  </Placemark>
  <Placemark>
    <name>10036730438</name>
    <description />
    <styleUrl>#icon-1739-DB4436-nodesc</styleUrl>
    <Point>
      <coordinates>18.839204599999999,53.006835099999996,91.285714285714278</coordinates>
    </Point>
  </Placemark>
  <Placemark>
    <name>10036730429</name>
    <description />
    <styleUrl>#icon-1739-DB4436-nodesc</styleUrl>
    <Point>
      <coordinates>18.839895299999998,53.006606599999998,91.142857142857139</coordinates>
    </Point>
  </Placemark>
  <Placemark>
    <name>10036730421</name>
    <description />
    <styleUrl>#icon-1739-DB4436-nodesc</styleUrl>
    <Point>
      <coordinates>18.840688100000001,53.006344499999997,92</coordinates>
    </Point>
  </Placemark>
  <Placemark>
    <name>10036707193</name>
    <description />
    <styleUrl>#icon-1739-DB4436-nodesc</styleUrl>
    <Point>
      <coordinates>18.842929600000005,53.005603200000003,88.857142857142861</coordinates>
    </Point>
  </Placemark>
  <Placemark>
    <name>10036707190</name>
    <description />
    <styleUrl>#icon-1739-DB4436-nodesc</styleUrl>
    <Point>
      <coordinates>18.843774200000002,53.0053239,88.857142857142861</coordinates>
    </Point>
  </Placemark>
  <Placemark>
    <name>10036730436</name>
    <description />
    <styleUrl>#icon-1739-DB4436-nodesc</styleUrl>
    <Point>
      <coordinates>18.8402879,53.007014599999998,90</coordinates>
    </Point>
  </Placemark>
  <Placemark>
    <name>10036730464</name>
    <description />
    <styleUrl>#icon-1739-DB4436-nodesc</styleUrl>
    <Point>
      <coordinates>18.840121100000001,53.007064900000003,90</coordinates>
    </Point>
  </Placemark>
  <Placemark>
    <name>10036730437</name>
    <description />
    <styleUrl>#icon-1739-DB4436-nodesc</styleUrl>
    <Point>
      <coordinates>18.839569099999999,53.007231400000002,90</coordinates>
    </Point>
  </Placemark>
  <Placemark>
    <name>10036730440</name>
    <description />
    <styleUrl>#icon-1739-DB4436-nodesc</styleUrl>
    <Point>
      <coordinates>18.839346200000001,53.006988999999997,90.285714285714278</coordinates>
    </Point>
  </Placemark>
  <Placemark>
    <name>10036730422</name>
    <description />
    <styleUrl>#icon-1739-DB4436-nodesc</styleUrl>
    <Point>
      <coordinates>18.840894200000001,53.006535300000003,91.714285714285722</coordinates>
    </Point>
  </Placemark>
  <Placemark>
    <name>10036707191</name>
    <description />
    <styleUrl>#icon-1739-DB4436-nodesc</styleUrl>
    <Point>
      <coordinates>18.8438014,53.005420400000006,88.714285714285722</coordinates>
    </Point>
  </Placemark>
  <Placemark>
    <name>10036707192</name>
    <description />
    <styleUrl>#icon-1739-DB4436-nodesc</styleUrl>
    <Point>
      <coordinates>18.842989200000002,53.005686300000001,88.571428571428584</coordinates>
    </Point>
  </Placemark>
  <Placemark>
    <name>9084799243</name>
    <description />
    <styleUrl>#icon-1739-DB4436-nodesc</styleUrl>
    <Point>
      <coordinates>18.837188300000001,53.006776499999994,92.857142857142861</coordinates>
    </Point>
  </Placemark>
  <Placemark>
    <name>9084799244</name>
    <description />
    <styleUrl>#icon-1739-DB4436-nodesc</styleUrl>
    <Point>
      <coordinates>18.837240699999999,53.006714500000001,93</coordinates>
    </Point>
  </Placemark>
  <Placemark>
    <name>9084799245</name>
    <description />
    <styleUrl>#icon-1739-DB4436-nodesc</styleUrl>
    <Point>
      <coordinates>18.837284,53.006663500000002,93</coordinates>
    </Point>
  </Placemark>
  <Placemark>
    <name>9084799246</name>
    <description />
    <styleUrl>#icon-1739-DB4436-nodesc</styleUrl>
    <Point>
      <coordinates>18.837334599999998,53.006599000000001,92.714285714285722</coordinates>
    </Point>
  </Placemark>
  <Placemark>
    <name>9084799247</name>
    <description />
    <styleUrl>#icon-1739-DB4436-nodesc</styleUrl>
    <Point>
      <coordinates>18.837380900000003,53.006539199999999,92.571428571428584</coordinates>
    </Point>
  </Placemark>
  <Placemark>
    <name>9084799248</name>
    <description />
    <styleUrl>#icon-1739-DB4436-nodesc</styleUrl>
    <Point>
      <coordinates>18.837437600000001,53.006459900000003,92.285714285714278</coordinates>
    </Point>
  </Placemark>
  <Placemark>
    <name>9084799249</name>
    <description />
    <styleUrl>#icon-1739-DB4436-nodesc</styleUrl>
    <Point>
      <coordinates>18.837479699999999,53.0063976,92</coordinates>
    </Point>
  </Placemark>
  <Placemark>
    <name>145364858</name>
    <description>0; Unclassified; DirtLike; Intermediate; HasAccess; Krucza; Grade3; ?; 1</description>
    <styleUrl>#5656636d-5b31-43b4-a9a8-8363dc7634d5</styleUrl>
    <LineString>
      <coordinates>18.819315500000002,53.014341399999992,0
18.819186200000001,53.014230699999999,0
18.8190147,53.014122800000003,0
18.818886599999999,53.014033300000008,0
18.818712899999998,53.013882200000005,0
18.815626600000002,53.0108964,0</coordinates>
    </LineString>
  </Placemark>
  <Placemark>
    <name>982327222</name>
    <description>0; Primary; AsphaltLike; Excellent; HasAccess, SpeedLimit50; Warszawska; Grade1; 50; 2</description>
    <styleUrl>#eff414a9-8a55-4e69-ab87-aed58cf9bc39</styleUrl>
    <LineString>
      <coordinates>18.818705300000001,53.014580299999999,0
18.819315500000002,53.014341399999992,0
18.819716100000001,53.0141834,0
18.819980399999999,53.014079099999996,0</coordinates>
    </LineString>
  </Placemark>
  <Placemark>
    <name>842470296</name>
    <description>0; Footway; Unknown; Intermediate; BikeLine, UrbanSidewalk, HasAccess; ; Grade3; ?; 1</description>
    <styleUrl>#eff414a9-8a55-4e69-ab87-aed58cf9bc39</styleUrl>
    <LineString>
      <coordinates>18.836487300000002,53.007101799999994,0
18.836433599999999,53.007125100000003,0
18.836439299999999,53.007173900000005,0
18.836367899999996,53.007278500000005,0
18.835774799999996,53.007659500000003,0
18.835325300000001,53.007874999999999,0
18.833946600000001,53.008435200000001,0
18.833832000000001,53.008511400000003,0
18.8328664,53.008893799999996,0
18.832615300000001,53.008920400000001,0
18.832468800000001,53.008978399999997,0
18.831487899999999,53.009366900000003,0
18.830985099999999,53.0095776,0
18.830957600000001,53.00964350000001,0
18.830497100000002,53.009834699999999,0
18.8303206,53.009840400000002,0
18.829979699999999,53.009973299999999,0
18.8299421,53.010063199999998,0
18.829563799999995,53.010206500000002,0
18.829394700000002,53.010219800000002,0
18.828760099999997,53.0104617,0
18.828545800000004,53.010615699999995,0
18.827415899999995,53.011045699999997,0
18.826977800000002,53.0112399,0
18.826793800000001,53.011259199999998,0
18.825594199999998,53.011704000000002,0
18.825275699999999,53.011805500000001,0
18.8233766,53.012549099999994,0
18.8232122,53.012637299999994,0
18.8227297,53.012830299999997,0
18.820872300000001,53.0135735,0
18.8195929,53.014075200000001,0
18.819186200000001,53.014230699999999,0
18.818554799999998,53.014499200000003,0</coordinates>
    </LineString>
  </Placemark>
  <Placemark>
    <name>842472390</name>
    <description>0; Footway; Unknown; Intermediate; BikeLine, UrbanSidewalk, HasAccess; ; Grade3; ?; 1</description>
    <styleUrl>#eff414a9-8a55-4e69-ab87-aed58cf9bc39</styleUrl>
    <LineString>
      <coordinates>18.822123900000001,53.013420799999999,0
18.821556999999999,53.013630499999998,0
18.821394300000001,53.013615199999997,0
18.821127600000001,53.013733700000003,0
18.8209768,53.013863800000003,0
18.8195838,53.014412099999994,0
18.819376300000002,53.01449259999999,0
18.8191153,53.014610699999999,0</coordinates>
    </LineString>
  </Placemark>
  <Placemark>
    <name>982326000</name>
    <description>0; Primary; AsphaltLike; Excellent; HasAccess; Warszawska; Grade1; 70; 3</description>
    <styleUrl>#eff414a9-8a55-4e69-ab87-aed58cf9bc39</styleUrl>
    <LineString>
      <coordinates>18.819980399999999,53.014079099999996,0
18.820522499999999,53.013865500000009,0</coordinates>
    </LineString>
  </Placemark>
  <Placemark>
    <name>76247220</name>
    <description>0; Secondary; AsphaltLike; Excellent; OneWay, HasAccess, SpeedLimit50; ; Grade1; 50; 1</description>
    <styleUrl>#eff414a9-8a55-4e69-ab87-aed58cf9bc39</styleUrl>
    <LineString>
      <coordinates>18.837219300000001,53.007460199999997,0
18.837157300000001,53.007480600000001,0
18.837109000000002,53.007496400000001,0
18.837041299999999,53.007512900000002,0
18.8369815,53.007521300000001,0
18.836908399999999,53.007527600000003,0
18.836829399999999,53.007526499999997,0
18.836754700000004,53.007523499999998,0
18.8366671,53.007516099999997,0
18.836601700000003,53.007508799999997,0
18.836554799999995,53.007502199999998,0
18.836514699999995,53.00749549999999,0
18.836454400000001,53.007470699999999,0</coordinates>
    </LineString>
  </Placemark>
  <Placemark>
    <name>443464281</name>
    <description>0; Primary; AsphaltLike; Excellent; OneWay, HasAccess, SpeedLimit50; ; Grade1; 50; 1</description>
    <styleUrl>#eff414a9-8a55-4e69-ab87-aed58cf9bc39</styleUrl>
    <LineString>
      <coordinates>18.8366325,53.007344199999999,0
18.836524099999998,53.007421700000002,0
18.836454400000001,53.007470699999999,0</coordinates>
    </LineString>
  </Placemark>
  <Placemark>
    <name>443464283</name>
    <description>0; Primary; AsphaltLike; Excellent; OneWay, HasAccess, SpeedLimit50; Warszawska; Grade1; 50; 1</description>
    <styleUrl>#eff414a9-8a55-4e69-ab87-aed58cf9bc39</styleUrl>
    <LineString>
      <coordinates>18.836454400000001,53.007470699999999,0
18.836329200000002,53.007551799999995,0
18.836254199999996,53.007598700000003,0
18.836184100000004,53.007641900000003,0
18.836091400000001,53.00769600000001,0
18.8359901,53.007752100000005,0
18.835865799999997,53.007815900000004,0
18.8357177,53.007890699999997,0
18.835605399999995,53.007944700000003,0
18.835473100000002,53.00800559999999,0
18.835313299999999,53.0080746,0
18.8351884,53.008127399999992,0
18.835059900000005,53.00817829999999,0
18.834857299999999,53.008254299999997,0
18.834695100000001,53.008312699999998,0
18.834251999999999,53.00846279999999,0</coordinates>
    </LineString>
  </Placemark>
  <Placemark>
    <name>522079015</name>
    <description>0; Secondary; AsphaltLike; Excellent; OneWay, HasAccess, SpeedLimit50; ; Grade1; 50; 1</description>
    <styleUrl>#eff414a9-8a55-4e69-ab87-aed58cf9bc39</styleUrl>
    <LineString>
      <coordinates>18.836454400000001,53.007470699999999,0
18.836392199999999,53.007410399999998,0</coordinates>
    </LineString>
  </Placemark>
  <Placemark>
    <name>145366188</name>
    <description>0; Unclassified; AsphaltLike; Intermediate; HasAccess; ; Grade1; ?; 2</description>
    <styleUrl>#eff414a9-8a55-4e69-ab87-aed58cf9bc39</styleUrl>
    <LineString>
      <coordinates>18.836036600000003,53.006294500000003,0
18.836487300000002,53.007101799999994,0
18.836560999999996,53.007225200000001,0
18.836572400000001,53.007243600000002,0
18.836588899999999,53.007266799999996,0</coordinates>
    </LineString>
  </Placemark>
  <Placemark>
    <name>443464282</name>
    <description>0; Primary; AsphaltLike; Excellent; OneWay, HasAccess, SpeedLimit50; ; Grade1; 50; 1</description>
    <styleUrl>#eff414a9-8a55-4e69-ab87-aed58cf9bc39</styleUrl>
    <LineString>
      <coordinates>18.836392199999999,53.007410399999998,0
18.836487699999999,53.007342999999999,0
18.836588899999999,53.007266799999996,0</coordinates>
    </LineString>
  </Placemark>
  <Placemark>
    <name>443464284</name>
    <description>0; Primary; AsphaltLike; Excellent; OneWay, HasAccess, SpeedLimit50; ; Grade1; 50; 1</description>
    <styleUrl>#eff414a9-8a55-4e69-ab87-aed58cf9bc39</styleUrl>
    <LineString>
      <coordinates>18.836588899999999,53.007266799999996,0
18.836676700000002,53.0071996,0
18.836744299999999,53.0071425,0
18.836813899999999,53.0070847,0
18.836892500000001,53.007021700000003,0
18.837141500000005,53.006826799999992,0</coordinates>
    </LineString>
  </Placemark>
  <Placemark>
    <name>443464295</name>
    <description>0; Secondary; AsphaltLike; Excellent; OneWay, HasAccess, SpeedLimit50; ; Grade1; 50; 1</description>
    <styleUrl>#eff414a9-8a55-4e69-ab87-aed58cf9bc39</styleUrl>
    <LineString>
      <coordinates>18.836588899999999,53.007266799999996,0
18.8366325,53.007344199999999,0</coordinates>
    </LineString>
  </Placemark>
  <Placemark>
    <name>145366189</name>
    <description>0; Secondary; AsphaltLike; Excellent; OneWay, HasAccess, SpeedLimit50; ; Grade1; 50; 1</description>
    <styleUrl>#eff414a9-8a55-4e69-ab87-aed58cf9bc39</styleUrl>
    <LineString>
      <coordinates>18.8366325,53.007344199999999,0
18.836662500000003,53.007383399999995,0
18.836681599999999,53.007400599999997,0
18.836701699999999,53.007420099999997,0
18.836736200000001,53.007453400000003,0
18.836787699999999,53.007461900000003,0
18.836838099999998,53.0074671,0
18.836942499999999,53.007473300000001,0
18.837049000000004,53.0074726,0
18.837219300000001,53.007460199999997,0</coordinates>
    </LineString>
  </Placemark>
  <Placemark>
    <name>145366197</name>
    <description>0; Primary; AsphaltLike; Excellent; OneWay, HasAccess, SpeedLimit50; ; Grade1; 50; 1</description>
    <styleUrl>#eff414a9-8a55-4e69-ab87-aed58cf9bc39</styleUrl>
    <LineString>
      <coordinates>18.837141500000005,53.006826799999992,0
18.836971399999999,53.007046900000006,0
18.836942499999999,53.007077000000002,0
18.836905300000002,53.007113000000004,0
18.836849900000001,53.007163900000002,0
18.836810799999999,53.007198500000001,0
18.836759000000001,53.007241,0
18.836714299999997,53.007278500000005,0
18.8366325,53.007344199999999,0</coordinates>
    </LineString>
  </Placemark>
  <Placemark>
    <name>145366193</name>
    <description>0; Unclassified; Unknown; Intermediate; HasAccess; Długa; Grade3; ?; 1</description>
    <styleUrl>#99a1191c-6e28-4825-8a8d-6bf4a81b8218</styleUrl>
    <LineString>
      <coordinates>18.829002399999997,53.010528100000002,0
18.829098999999999,53.010613300000003,0
18.8291109,53.010622699999999,0</coordinates>
    </LineString>
  </Placemark>
  <Placemark>
    <name>982324758</name>
    <description>0; Primary; AsphaltLike; Excellent; HasAccess; Warszawska; Grade1; 70; 2</description>
    <styleUrl>#eff414a9-8a55-4e69-ab87-aed58cf9bc39</styleUrl>
    <LineString>
      <coordinates>18.829002399999997,53.010528100000002,0
18.8304914,53.009942299999999,0</coordinates>
    </LineString>
  </Placemark>
  <Placemark>
    <name>982325263</name>
    <description>0; Primary; AsphaltLike; Excellent; HasAccess; Warszawska; Grade1; 70; 3</description>
    <styleUrl>#eff414a9-8a55-4e69-ab87-aed58cf9bc39</styleUrl>
    <LineString>
      <coordinates>18.8269658,53.011328399999989,0
18.829002399999997,53.010528100000002,0</coordinates>
    </LineString>
  </Placemark>
  <Placemark>
    <name>145366198</name>
    <description>0; Primary; AsphaltLike; Excellent; OneWay, HasAccess, SpeedLimit50; Warszawska; Grade1; 50; 2</description>
    <styleUrl>#eff414a9-8a55-4e69-ab87-aed58cf9bc39</styleUrl>
    <LineString>
      <coordinates>18.834927199999999,53.008165400000003,0
18.835278599999995,53.008014799999998,0
18.835467000000001,53.007931900000003,0
18.8355511,53.007891899999997,0
18.8356678,53.007836400000002,0
18.835782200000001,53.007778899999998,0
18.8358737,53.007731499999998,0
18.835958399999999,53.007686100000001,0
18.836078700000002,53.007614599999997,0
18.8361895,53.007545899999997,0
18.836247499999999,53.0075091,0
18.836392199999999,53.007410399999998,0</coordinates>
    </LineString>
  </Placemark>
  <Placemark>
    <name>522079012</name>
    <description>0; Primary; AsphaltLike; Excellent; OneWay, HasAccess, SpeedLimit50; ; Grade1; 50; 1</description>
    <styleUrl>#eff414a9-8a55-4e69-ab87-aed58cf9bc39</styleUrl>
    <LineString>
      <coordinates>18.834251999999999,53.00846279999999,0
18.834927199999999,53.008165400000003,0</coordinates>
    </LineString>
  </Placemark>
  <Placemark>
    <name>982322728</name>
    <description>0; Secondary; AsphaltLike; Excellent; OneWay, HasAccess, SpeedLimit50; ; Grade1; 50; 1</description>
    <styleUrl>#eff414a9-8a55-4e69-ab87-aed58cf9bc39</styleUrl>
    <LineString>
      <coordinates>18.836392199999999,53.007410399999998,0
18.836524099999998,53.007421700000002,0
18.836608399999999,53.0074325,0
18.836736200000001,53.007453400000003,0</coordinates>
    </LineString>
  </Placemark>
  <Placemark>
    <name>220869300</name>
    <description>0; Unclassified; Unknown; Intermediate; HasAccess; Młodzieżowa; Grade3; ?; 1</description>
    <styleUrl>#99a1191c-6e28-4825-8a8d-6bf4a81b8218</styleUrl>
    <LineString>
      <coordinates>18.822053700000001,53.013261900000003,0
18.822084700000001,53.013311399999999,0
18.822105999999998,53.013358400000001,0
18.822123900000001,53.013420799999999,0</coordinates>
    </LineString>
  </Placemark>
  <Placemark>
    <name>982325500</name>
    <description>0; Primary; AsphaltLike; Excellent; HasAccess; Warszawska; Grade1; 70; 2</description>
    <styleUrl>#eff414a9-8a55-4e69-ab87-aed58cf9bc39</styleUrl>
    <LineString>
      <coordinates>18.822053700000001,53.013261900000003,0
18.8225716,53.013058100000002,0</coordinates>
    </LineString>
  </Placemark>
  <Placemark>
    <name>982327223</name>
    <description>0; Primary; AsphaltLike; Excellent; HasAccess; Warszawska; Grade1; 70; 3</description>
    <styleUrl>#eff414a9-8a55-4e69-ab87-aed58cf9bc39</styleUrl>
    <LineString>
      <coordinates>18.820522499999999,53.013865500000009,0
18.822053700000001,53.013261900000003,0</coordinates>
    </LineString>
  </Placemark>
  <Placemark>
    <name>982324760</name>
    <description>0; Primary; AsphaltLike; Excellent; HasAccess, SpeedLimit50; Warszawska; Grade1; 50; 2</description>
    <styleUrl>#eff414a9-8a55-4e69-ab87-aed58cf9bc39</styleUrl>
    <LineString>
      <coordinates>18.833651400000001,53.008699,0
18.833843000000002,53.0086236,0
18.834251999999999,53.00846279999999,0</coordinates>
    </LineString>
  </Placemark>
  <Placemark>
    <name>1061535844</name>
    <description>0; Auxiliary; Unpaved; Intermediate; HasAccess; ; Grade3; ?; 1</description>
    <styleUrl>#99a1191c-6e28-4825-8a8d-6bf4a81b8218</styleUrl>
    <LineString>
      <coordinates>18.830833200000004,53.007516600000002,0
18.832284600000005,53.008949999999999,0
18.832468800000001,53.008978399999997,0
18.832644299999998,53.009095199999997,0</coordinates>
    </LineString>
  </Placemark>
  <Placemark>
    <name>1124154535</name>
    <description>0; Auxiliary; Unknown; Intermediate; HasAccess; ; Grade3; ?; 1</description>
    <styleUrl>#99a1191c-6e28-4825-8a8d-6bf4a81b8218</styleUrl>
    <LineString>
      <coordinates>18.822192300000005,53.012303099999997,0
18.8227297,53.012830299999997,0
18.822852199999996,53.012948399999999,0</coordinates>
    </LineString>
  </Placemark>
  <Placemark>
    <name>982324759</name>
    <description>0; Primary; AsphaltLike; Excellent; HasAccess; Warszawska; Grade1; 90; 2</description>
    <styleUrl>#eff414a9-8a55-4e69-ab87-aed58cf9bc39</styleUrl>
    <LineString>
      <coordinates>18.8304914,53.009942299999999,0
18.832644299999998,53.009095199999997,0
18.8327502,53.0090535,0
18.8327569,53.009050899999998,0
18.833651400000001,53.008699,0</coordinates>
    </LineString>
  </Placemark>
  <Placemark>
    <name>1095946575</name>
    <description>0; Auxiliary; Unknown; Intermediate; HasAccess; ; Grade3; ?; 1</description>
    <styleUrl>#99a1191c-6e28-4825-8a8d-6bf4a81b8218</styleUrl>
    <LineString>
      <coordinates>18.833916099999996,53.008690899999998,0
18.833843000000002,53.0086236,0</coordinates>
    </LineString>
  </Placemark>
  <Placemark>
    <name>1061535696</name>
    <description>0; Primary; AsphaltLike; Excellent; HasAccess; Warszawska; Grade1; 70; 2</description>
    <styleUrl>#eff414a9-8a55-4e69-ab87-aed58cf9bc39</styleUrl>
    <LineString>
      <coordinates>18.8225716,53.013058100000002,0
18.822852199999996,53.012948399999999,0
18.823220800000001,53.0128044,0
18.8269658,53.011328399999989,0</coordinates>
    </LineString>
  </Placemark>
  <Placemark>
    <name>1095946576</name>
    <description>0; Footway; Unknown; Intermediate; UrbanSidewalk, HasAccess; ; Grade3; ?; 1</description>
    <styleUrl>#c8fc4a65-25b5-4877-9038-236b5dae4387</styleUrl>
    <LineString>
      <coordinates>18.822123900000001,53.013420799999999,0
18.822316399999998,53.013304299999994,0
18.822617000000001,53.013188900000003,0
18.8227349,53.013153699999997,0
18.823067300000002,53.013019799999995,0
18.823305099999995,53.012893800000001,0
18.8291109,53.010622699999999,0
18.8295265,53.010460199999997,0
18.829691200000003,53.010437899999999,0
18.8332883,53.008965699999997,0
18.833376300000001,53.008956099999999,0
18.8335215,53.008901999999999,0
18.833554100000001,53.008850099999997,0
18.833916099999996,53.008690899999998,0
18.8339958,53.008655900000001,0
18.834104799999999,53.008667799999998,0
18.8345597,53.008474999999997,0
18.834688100000001,53.008461300000008,0
18.834707699999999,53.008384499999998,0
18.835046499999997,53.0082466,0
18.835170099999999,53.008171300000001,0
18.835635799999999,53.007975399999992,0
18.8359229,53.007827800000001,0
18.836042499999998,53.007796599999999,0
18.836429000000003,53.007569400000001,0
18.836674299999999,53.007570899999997,0
18.836725500000004,53.0076435,0</coordinates>
    </LineString>
  </Placemark>
  <Placemark>
    <name>145366192</name>
    <description>0; Unclassified; AsphaltLike; Intermediate; OneWay, HasAccess, SpeedLimit50; ; Grade1; 50; 1</description>
    <styleUrl>#eff414a9-8a55-4e69-ab87-aed58cf9bc39</styleUrl>
    <LineString>
      <coordinates>18.836487300000002,53.007101799999994,0
18.8366182,53.007127400000002,0
18.836676700000002,53.007134600000001,0
18.836744299999999,53.0071425,0</coordinates>
    </LineString>
  </Placemark>
  <Placemark>
    <name>1095946596</name>
    <description>0; Auxiliary; Unknown; Intermediate; HasAccess; ; Grade3; ?; 1</description>
    <styleUrl>#99a1191c-6e28-4825-8a8d-6bf4a81b8218</styleUrl>
    <LineString>
      <coordinates>18.837378900000001,53.007765200000001,0
18.837197100000001,53.007531699999994,0
18.837157300000001,53.007480600000001,0</coordinates>
    </LineString>
  </Placemark>
  <Placemark>
    <name>145366185</name>
    <description>0; Unclassified; Unknown; Intermediate; HasAccess; Kościelna; Grade3; ?; 1</description>
    <styleUrl>#99a1191c-6e28-4825-8a8d-6bf4a81b8218</styleUrl>
    <LineString>
      <coordinates>18.836838099999998,53.0074671,0
18.836829399999999,53.007526499999997,0
18.836812999999999,53.007611199999999,0
18.836818000000005,53.007648000000003,0
18.836836399999999,53.00768510000001,0</coordinates>
    </LineString>
  </Placemark>
  <Placemark>
    <name>359182468</name>
    <description>0; Auxiliary; Unknown; Intermediate; HasAccess; ; Grade3; ?; 1</description>
    <styleUrl>#99a1191c-6e28-4825-8a8d-6bf4a81b8218</styleUrl>
    <LineString>
      <coordinates>18.836812999999999,53.007611199999999,0
18.836725500000004,53.0076435,0</coordinates>
    </LineString>
  </Placemark>
  <Placemark>
    <name>1095946578</name>
    <description>0; Footway; Unknown; Intermediate; UrbanSidewalk, HasAccess; ; Grade3; ?; 1</description>
    <styleUrl>#c8fc4a65-25b5-4877-9038-236b5dae4387</styleUrl>
    <LineString>
      <coordinates>18.836836399999999,53.00768510000001,0
18.8369103,53.007673599999997,0
18.8369024,53.007639699999999,0
18.836904800000003,53.007615700000002,0
18.8369243,53.007595100000003,0
18.836953600000001,53.00757999999999,0
18.836988600000002,53.007568200000001,0
18.837197100000001,53.007531699999994,0
18.837251699999996,53.007522100000003,0
18.837529,53.007444999999997,0
18.837749599999999,53.007414599999997,0
18.839275000000001,53.006911600000002,0
18.839630400000004,53.006794299999996,0
18.839662100000002,53.0067679,0
18.839957099999999,53.006670800000002,0
18.840540000000001,53.006479200000001,0
18.8407427,53.006394899999989,0
18.840769699999999,53.006383700000001,0
18.840997600000001,53.006307199999995,0
18.8412057,53.006263699999998,0
18.842981600000002,53.005675699999998,0
18.843797299999999,53.005405699999997,0</coordinates>
    </LineString>
  </Placemark>
  <Placemark>
    <name>522082063</name>
    <description>0; Secondary; AsphaltLike; Excellent; HasAccess, SpeedLimit50; ; Grade1; 50; 2</description>
    <styleUrl>#eff414a9-8a55-4e69-ab87-aed58cf9bc39</styleUrl>
    <LineString>
      <coordinates>18.837219300000001,53.007460199999997,0
18.837602400000002,53.007364899999999,0
18.839204599999999,53.006835099999996,0
18.839895299999998,53.006606599999998,0
18.840688100000001,53.006344499999997,0
18.842929600000005,53.005603200000003,0
18.843774200000002,53.0053239,0</coordinates>
    </LineString>
  </Placemark>
  <Placemark>
    <name>1095946588</name>
    <description>0; Auxiliary; Unknown; Intermediate; HasAccess; ; Grade3; ?; 1</description>
    <styleUrl>#99a1191c-6e28-4825-8a8d-6bf4a81b8218</styleUrl>
    <LineString>
      <coordinates>18.8402879,53.007014599999998,0
18.840121100000001,53.007064900000003,0
18.839569099999999,53.007231400000002,0
18.839346200000001,53.006988999999997,0
18.839275000000001,53.006911600000002,0
18.839204599999999,53.006835099999996,0</coordinates>
    </LineString>
  </Placemark>
  <Placemark>
    <name>1095946586</name>
    <description>0; Auxiliary; Unknown; Intermediate; HasAccess; ; Grade3; ?; 1</description>
    <styleUrl>#99a1191c-6e28-4825-8a8d-6bf4a81b8218</styleUrl>
    <LineString>
      <coordinates>18.839895299999998,53.006606599999998,0
18.839957099999999,53.006670800000002,0
18.8402879,53.007014599999998,0</coordinates>
    </LineString>
  </Placemark>
  <Placemark>
    <name>1095946585</name>
    <description>0; Auxiliary; Unknown; Intermediate; HasAccess; ; Grade3; ?; 1</description>
    <styleUrl>#99a1191c-6e28-4825-8a8d-6bf4a81b8218</styleUrl>
    <LineString>
      <coordinates>18.840688100000001,53.006344499999997,0
18.8407427,53.006394899999989,0
18.840894200000001,53.006535300000003,0</coordinates>
    </LineString>
  </Placemark>
  <Placemark>
    <name>1095946581</name>
    <description>0; Auxiliary; Unknown; Intermediate; HasAccess; ; Grade3; ?; 1</description>
    <styleUrl>#99a1191c-6e28-4825-8a8d-6bf4a81b8218</styleUrl>
    <LineString>
      <coordinates>18.843774200000002,53.0053239,0
18.843797299999999,53.005405699999997,0
18.8438014,53.005420400000006,0
18.842989200000002,53.005686300000001,0
18.842981600000002,53.005675699999998,0
18.842929600000005,53.005603200000003,0</coordinates>
    </LineString>
  </Placemark>
  <Placemark>
    <name>982316345</name>
    <description>0; Primary; AsphaltLike; Excellent; HasAccess, SpeedLimit50; ; Grade1; 50; 2</description>
    <styleUrl>#eff414a9-8a55-4e69-ab87-aed58cf9bc39</styleUrl>
    <LineString>
      <coordinates>18.837141500000005,53.006826799999992,0
18.837188300000001,53.006776499999994,0
18.837240699999999,53.006714500000001,0
18.837284,53.006663500000002,0
18.837334599999998,53.006599000000001,0
18.837380900000003,53.006539199999999,0
18.837437600000001,53.006459900000003,0
18.837479699999999,53.0063976,0</coordinates>
    </LineString>
  </Placemark>
  <Placemark>
    <name>359202893</name>
    <description>0; Unclassified; Unknown; Intermediate; HasAccess; ; Grade3; ?; 1</description>
    <styleUrl>#99a1191c-6e28-4825-8a8d-6bf4a81b8218</styleUrl>
    <LineString>
      <coordinates>18.818705300000001,53.014580299999999,0</coordinates>
    </LineString>
  </Placemark>
  <Placemark>
    <name>982935166</name>
    <description>0; Primary; AsphaltLike; Excellent; HasAccess; Warszawska; Grade1; 70; 3</description>
    <styleUrl>#eff414a9-8a55-4e69-ab87-aed58cf9bc39</styleUrl>
    <LineString>
      <coordinates>18.818705300000001,53.014580299999999,0</coordinates>
    </LineString>
  </Placemark>
  <Placemark>
    <name>1124154544</name>
    <description>0; Auxiliary; Unknown; Intermediate; HasAccess; ; Grade3; ?; 1</description>
    <styleUrl>#99a1191c-6e28-4825-8a8d-6bf4a81b8218</styleUrl>
    <LineString>
      <coordinates>18.836036600000003,53.006294500000003,0</coordinates>
    </LineString>
  </Placemark>
  <Placemark>
    <name>1095946589</name>
    <description>0; Auxiliary; Unknown; Intermediate; HasAccess; ; Grade3; ?; 1</description>
    <styleUrl>#99a1191c-6e28-4825-8a8d-6bf4a81b8218</styleUrl>
    <LineString>
      <coordinates>18.839346200000001,53.006988999999997,0</coordinates>
    </LineString>
  </Placemark>
</Document>