<?xml version="1.0" encoding="UTF-8"?>
<gpx version="1.1" creator="GPSBabel - http://www.gpsbabel.org" xmlns="http://www.topografix.com/GPX/1/1" xmlns:xsi="http://www.w3.org/2001/XMLSchema-instance">
  <metadata>
    <time>2022-10-16T09:42:02.293Z</time>
    <bounds minlat="53.106243696" minlon="18.170971196" maxlat="53.617198851" maxlon="18.518393770"/>
  </metadata>
  <trk>
    <name>Tracked with OSMTracker for Android™</name>
    <trkseg>
      <trkpt lat="53.456948572" lon="18.366155894">
        <ele>123.792883</ele>
        <time>2021-07-04T09:59:30Z</time>
        <extensions>
          <speed>3.992736577987671</speed>
        </extensions>
      </trkpt>
      <trkpt lat="53.456900680" lon="18.366184447">
        <ele>124.320729</ele>
        <time>2021-07-04T09:59:31Z</time>
        <extensions>
          <speed>4.0773539543151855</speed>
        </extensions>
      </trkpt>
      <trkpt lat="53.456856270" lon="18.366206137">
        <ele>124.514723</ele>
        <time>2021-07-04T09:59:32Z</time>
        <extensions>
          <speed>4.102258205413818</speed>
        </extensions>
      </trkpt>
      <trkpt lat="53.456815614" lon="18.366235919">
        <ele>124.893077</ele>
        <time>2021-07-04T09:59:33Z</time>
        <extensions>
          <speed>4.128636837005615</speed>
        </extensions>
      </trkpt>
      <trkpt lat="53.456773275" lon="18.366254251">
        <ele>124.930500</ele>
        <time>2021-07-04T09:59:34Z</time>
        <extensions>
          <speed>4.125417232513428</speed>
        </extensions>
      </trkpt>
      <trkpt lat="53.456726844" lon="18.366283152">
        <ele>125.664087</ele>
        <time>2021-07-04T09:59:35Z</time>
        <extensions>
          <speed>4.141862869262695</speed>
        </extensions>
      </trkpt>
      <trkpt lat="53.456679286" lon="18.366311848">
        <ele>126.265956</ele>
        <time>2021-07-04T09:59:36Z</time>
        <extensions>
          <speed>4.153711795806885</speed>
        </extensions>
      </trkpt>
      <trkpt lat="53.456640471" lon="18.366341751">
        <ele>126.154707</ele>
        <time>2021-07-04T09:59:37Z</time>
        <extensions>
          <speed>4.162502765655518</speed>
        </extensions>
      </trkpt>
      <trkpt lat="53.456605908" lon="18.366371991">
        <ele>126.096415</ele>
        <time>2021-07-04T09:59:38Z</time>
        <extensions>
          <speed>4.157279968261719</speed>
        </extensions>
      </trkpt>
      <trkpt lat="53.456558392" lon="18.366400258">
        <ele>125.702671</ele>
        <time>2021-07-04T09:59:39Z</time>
        <extensions>
          <speed>4.164253234863281</speed>
        </extensions>
      </trkpt>
      <trkpt lat="53.456518070" lon="18.366431844">
        <ele>125.629462</ele>
        <time>2021-07-04T09:59:40Z</time>
        <extensions>
          <speed>4.15144681930542</speed>
        </extensions>
      </trkpt>
      <trkpt lat="53.456473771" lon="18.366460298">
        <ele>124.757494</ele>
        <time>2021-07-04T09:59:41Z</time>
        <extensions>
          <speed>4.165678024291992</speed>
        </extensions>
      </trkpt>
      <trkpt lat="53.456430517" lon="18.366491214">
        <ele>123.888223</ele>
        <time>2021-07-04T09:59:42Z</time>
        <extensions>
          <speed>4.203641414642334</speed>
        </extensions>
      </trkpt>
      <trkpt lat="53.456379107" lon="18.366523960">
        <ele>123.525149</ele>
        <time>2021-07-04T09:59:43Z</time>
        <extensions>
          <speed>4.267603397369385</speed>
        </extensions>
      </trkpt>
      <trkpt lat="53.456326747" lon="18.366556866">
        <ele>123.309233</ele>
        <time>2021-07-04T09:59:44Z</time>
        <extensions>
          <speed>4.339272975921631</speed>
        </extensions>
      </trkpt>
      <trkpt lat="53.456262022" lon="18.366589221">
        <ele>123.233636</ele>
        <time>2021-07-04T09:59:45Z</time>
        <extensions>
          <speed>4.428704261779785</speed>
        </extensions>
      </trkpt>
      <trkpt lat="53.456198951" lon="18.366621999">
        <ele>123.316389</ele>
        <time>2021-07-04T09:59:46Z</time>
        <extensions>
          <speed>4.489859104156494</speed>
        </extensions>
      </trkpt>
      <trkpt lat="53.456136939" lon="18.366656588">
        <ele>123.787173</ele>
        <time>2021-07-04T09:59:47Z</time>
        <extensions>
          <speed>4.583670139312744</speed>
        </extensions>
      </trkpt>
      <trkpt lat="53.456083844" lon="18.366685526">
        <ele>124.430575</ele>
        <time>2021-07-04T09:59:48Z</time>
        <extensions>
          <speed>4.6488823890686035</speed>
        </extensions>
      </trkpt>
      <trkpt lat="53.456032764" lon="18.366710985">
        <ele>124.616912</ele>
        <time>2021-07-04T09:59:49Z</time>
        <extensions>
          <speed>4.714237689971924</speed>
        </extensions>
      </trkpt>
      <trkpt lat="53.455978140" lon="18.366743852">
        <ele>124.704595</ele>
        <time>2021-07-04T09:59:50Z</time>
        <extensions>
          <speed>4.773642539978027</speed>
        </extensions>
      </trkpt>
      <trkpt lat="53.455925499" lon="18.366772202">
        <ele>124.795016</ele>
        <time>2021-07-04T09:59:51Z</time>
        <extensions>
          <speed>4.819087028503418</speed>
        </extensions>
      </trkpt>
      <trkpt lat="53.455874341" lon="18.366806665">
        <ele>124.588338</ele>
        <time>2021-07-04T09:59:52Z</time>
        <extensions>
          <speed>4.842512607574463</speed>
        </extensions>
      </trkpt>
      <trkpt lat="53.455817599" lon="18.366837163">
        <ele>124.307973</ele>
        <time>2021-07-04T09:59:53Z</time>
        <extensions>
          <speed>4.920654296875</speed>
        </extensions>
      </trkpt>
      <trkpt lat="53.455751988" lon="18.366872017">
        <ele>124.173503</ele>
        <time>2021-07-04T09:59:54Z</time>
        <extensions>
          <speed>4.981600284576416</speed>
        </extensions>
      </trkpt>
      <trkpt lat="53.455697508" lon="18.366904217">
        <ele>124.168281</ele>
        <time>2021-07-04T09:59:55Z</time>
        <extensions>
          <speed>5.003878116607666</speed>
        </extensions>
      </trkpt>
      <trkpt lat="53.455643140" lon="18.366933557">
        <ele>124.224791</ele>
        <time>2021-07-04T09:59:56Z</time>
        <extensions>
          <speed>5.020218849182129</speed>
        </extensions>
      </trkpt>
      <trkpt lat="53.455589396" lon="18.366965839">
        <ele>123.918993</ele>
        <time>2021-07-04T09:59:57Z</time>
        <extensions>
          <speed>5.072145938873291</speed>
        </extensions>
      </trkpt>
      <trkpt lat="53.455535222" lon="18.366993073">
        <ele>123.853395</ele>
        <time>2021-07-04T09:59:58Z</time>
        <extensions>
          <speed>5.119102954864502</speed>
        </extensions>
      </trkpt>
      <trkpt lat="53.455479924" lon="18.367026560">
        <ele>123.745300</ele>
        <time>2021-07-04T09:59:59Z</time>
        <extensions>
          <speed>5.173489570617676</speed>
        </extensions>
      </trkpt>
      <trkpt lat="53.455424231" lon="18.367054003">
        <ele>123.356858</ele>
        <time>2021-07-04T10:00:00Z</time>
        <extensions>
          <speed>5.221207141876221</speed>
        </extensions>
      </trkpt>
      <trkpt lat="53.455364474" lon="18.367088414">
        <ele>122.989291</ele>
        <time>2021-07-04T10:00:01Z</time>
        <extensions>
          <speed>5.269826412200928</speed>
        </extensions>
      </trkpt>
      <trkpt lat="53.455319279" lon="18.367114411">
        <ele>122.696091</ele>
        <time>2021-07-04T10:00:02Z</time>
        <extensions>
          <speed>5.261360168457031</speed>
        </extensions>
      </trkpt>
      <trkpt lat="53.455271063" lon="18.367146442">
        <ele>122.604569</ele>
        <time>2021-07-04T10:00:03Z</time>
        <extensions>
          <speed>5.226217746734619</speed>
        </extensions>
      </trkpt>
      <trkpt lat="53.455216304" lon="18.367177675">
        <ele>122.688524</ele>
        <time>2021-07-04T10:00:04Z</time>
        <extensions>
          <speed>5.240771770477295</speed>
        </extensions>
      </trkpt>
      <trkpt lat="53.455154837" lon="18.367217836">
        <ele>122.987058</ele>
        <time>2021-07-04T10:00:05Z</time>
        <extensions>
          <speed>5.271292209625244</speed>
        </extensions>
      </trkpt>
      <trkpt lat="53.455093015" lon="18.367250073">
        <ele>123.311433</ele>
        <time>2021-07-04T10:00:06Z</time>
        <extensions>
          <speed>5.301041126251221</speed>
        </extensions>
      </trkpt>
      <trkpt lat="53.455033306" lon="18.367280877">
        <ele>123.298948</ele>
        <time>2021-07-04T10:00:07Z</time>
        <extensions>
          <speed>5.354578495025635</speed>
        </extensions>
      </trkpt>
      <trkpt lat="53.454976113" lon="18.367308757">
        <ele>123.526575</ele>
        <time>2021-07-04T10:00:08Z</time>
        <extensions>
          <speed>5.400569915771484</speed>
        </extensions>
      </trkpt>
      <trkpt lat="53.454922506" lon="18.367336378">
        <ele>123.699256</ele>
        <time>2021-07-04T10:00:09Z</time>
        <extensions>
          <speed>5.425362586975098</speed>
        </extensions>
      </trkpt>
      <trkpt lat="53.454867576" lon="18.367362014">
        <ele>123.659420</ele>
        <time>2021-07-04T10:00:10Z</time>
        <extensions>
          <speed>5.473855972290039</speed>
        </extensions>
      </trkpt>
      <trkpt lat="53.454807952" lon="18.367391373">
        <ele>123.773227</ele>
        <time>2021-07-04T10:00:11Z</time>
        <extensions>
          <speed>5.562935829162598</speed>
        </extensions>
      </trkpt>
      <trkpt lat="53.454753842" lon="18.367414931">
        <ele>124.207044</ele>
        <time>2021-07-04T10:00:12Z</time>
        <extensions>
          <speed>5.625964164733887</speed>
        </extensions>
      </trkpt>
      <trkpt lat="53.454691107" lon="18.367446508">
        <ele>124.587805</ele>
        <time>2021-07-04T10:00:13Z</time>
        <extensions>
          <speed>5.636361598968506</speed>
        </extensions>
      </trkpt>
      <trkpt lat="53.454634432" lon="18.367467637">
        <ele>124.571859</ele>
        <time>2021-07-04T10:00:14Z</time>
        <extensions>
          <speed>5.649221420288086</speed>
        </extensions>
      </trkpt>
      <trkpt lat="53.454579243" lon="18.367495013">
        <ele>124.195344</ele>
        <time>2021-07-04T10:00:15Z</time>
        <extensions>
          <speed>5.661098957061768</speed>
        </extensions>
      </trkpt>
      <trkpt lat="53.454522252" lon="18.367520521">
        <ele>124.238008</ele>
        <time>2021-07-04T10:00:16Z</time>
        <extensions>
          <speed>5.622618198394775</speed>
        </extensions>
      </trkpt>
      <trkpt lat="53.454460385" lon="18.367547387">
        <ele>124.033602</ele>
        <time>2021-07-04T10:00:17Z</time>
        <extensions>
          <speed>5.618949890136719</speed>
        </extensions>
      </trkpt>
      <trkpt lat="53.454402583" lon="18.367570296">
        <ele>123.725629</ele>
        <time>2021-07-04T10:00:18Z</time>
        <extensions>
          <speed>5.601337432861328</speed>
        </extensions>
      </trkpt>
      <trkpt lat="53.454342921" lon="18.367593108">
        <ele>123.384357</ele>
        <time>2021-07-04T10:00:19Z</time>
        <extensions>
          <speed>5.634993076324463</speed>
        </extensions>
      </trkpt>
      <trkpt lat="53.454289265" lon="18.367617952">
        <ele>122.952618</ele>
        <time>2021-07-04T10:00:20Z</time>
        <extensions>
          <speed>5.62627649307251</speed>
        </extensions>
      </trkpt>
      <trkpt lat="53.454246201" lon="18.367642157">
        <ele>122.481377</ele>
        <time>2021-07-04T10:00:21Z</time>
        <extensions>
          <speed>5.61191987991333</speed>
        </extensions>
      </trkpt>
      <trkpt lat="53.454195135" lon="18.367669406">
        <ele>122.106890</ele>
        <time>2021-07-04T10:00:22Z</time>
        <extensions>
          <speed>5.6252336502075195</speed>
        </extensions>
      </trkpt>
      <trkpt lat="53.454142713" lon="18.367697138">
        <ele>121.481398</ele>
        <time>2021-07-04T10:00:23Z</time>
        <extensions>
          <speed>5.612333297729492</speed>
        </extensions>
      </trkpt>
      <trkpt lat="53.454082254" lon="18.367726591">
        <ele>121.156653</ele>
        <time>2021-07-04T10:00:24Z</time>
        <extensions>
          <speed>5.636765003204346</speed>
        </extensions>
      </trkpt>
      <trkpt lat="53.454027428" lon="18.367758332">
        <ele>121.279233</ele>
        <time>2021-07-04T10:00:25Z</time>
        <extensions>
          <speed>5.663110733032227</speed>
        </extensions>
      </trkpt>
      <trkpt lat="53.453971873" lon="18.367790995">
        <ele>121.376042</ele>
        <time>2021-07-04T10:00:26Z</time>
        <extensions>
          <speed>5.6585612297058105</speed>
        </extensions>
      </trkpt>
      <trkpt lat="53.453906923" lon="18.367827083">
        <ele>121.215221</ele>
        <time>2021-07-04T10:00:27Z</time>
        <extensions>
          <speed>5.694507122039795</speed>
        </extensions>
      </trkpt>
      <trkpt lat="53.453846864" lon="18.367860522">
        <ele>120.817691</ele>
        <time>2021-07-04T10:00:28Z</time>
        <extensions>
          <speed>5.738625526428223</speed>
        </extensions>
      </trkpt>
      <trkpt lat="53.453785919" lon="18.367892331">
        <ele>120.531451</ele>
        <time>2021-07-04T10:00:29Z</time>
        <extensions>
          <speed>5.758556842803955</speed>
        </extensions>
      </trkpt>
      <trkpt lat="53.453728342" lon="18.367921269">
        <ele>120.624159</ele>
        <time>2021-07-04T10:00:30Z</time>
        <extensions>
          <speed>5.799861907958984</speed>
        </extensions>
      </trkpt>
      <trkpt lat="53.453659329" lon="18.367949340">
        <ele>120.572547</ele>
        <time>2021-07-04T10:00:31Z</time>
        <extensions>
          <speed>5.826056957244873</speed>
        </extensions>
      </trkpt>
      <trkpt lat="53.453594868" lon="18.367978108">
        <ele>120.496111</ele>
        <time>2021-07-04T10:00:32Z</time>
        <extensions>
          <speed>5.888528347015381</speed>
        </extensions>
      </trkpt>
      <trkpt lat="53.453525021" lon="18.368008934">
        <ele>120.207155</ele>
        <time>2021-07-04T10:00:33Z</time>
        <extensions>
          <speed>5.939889907836914</speed>
        </extensions>
      </trkpt>
      <trkpt lat="53.453460035" lon="18.368042898">
        <ele>120.158207</ele>
        <time>2021-07-04T10:00:34Z</time>
        <extensions>
          <speed>6.030393600463867</speed>
        </extensions>
      </trkpt>
      <trkpt lat="53.453389108" lon="18.368078590">
        <ele>120.170950</ele>
        <time>2021-07-04T10:00:35Z</time>
        <extensions>
          <speed>6.1279425621032715</speed>
        </extensions>
      </trkpt>
      <trkpt lat="53.453323298" lon="18.368114075">
        <ele>120.051608</ele>
        <time>2021-07-04T10:00:36Z</time>
        <extensions>
          <speed>7.289677143096924</speed>
        </extensions>
      </trkpt>
      <trkpt lat="53.453256862" lon="18.368149310">
        <ele>119.643977</ele>
        <time>2021-07-04T10:00:37Z</time>
        <extensions>
          <speed>7.658073425292969</speed>
        </extensions>
      </trkpt>
      <trkpt lat="53.453181450" lon="18.368185327">
        <ele>119.097188</ele>
        <time>2021-07-04T10:00:38Z</time>
        <extensions>
          <speed>8.07676887512207</speed>
        </extensions>
      </trkpt>
      <trkpt lat="53.453099379" lon="18.368225308">
        <ele>118.652145</ele>
        <time>2021-07-04T10:00:39Z</time>
        <extensions>
          <speed>8.567967414855957</speed>
        </extensions>
      </trkpt>
      <trkpt lat="53.453015656" lon="18.368269007">
        <ele>118.653308</ele>
        <time>2021-07-04T10:00:40Z</time>
        <extensions>
          <speed>8.877245903015137</speed>
        </extensions>
      </trkpt>
      <trkpt lat="53.452930490" lon="18.368314742">
        <ele>118.835031</ele>
        <time>2021-07-04T10:00:41Z</time>
        <extensions>
          <speed>9.355154037475586</speed>
        </extensions>
      </trkpt>
      <trkpt lat="53.452840916" lon="18.368369421">
        <ele>118.742572</ele>
        <time>2021-07-04T10:00:42Z</time>
        <extensions>
          <speed>9.780817985534668</speed>
        </extensions>
      </trkpt>
      <trkpt lat="53.452757826" lon="18.368422493">
        <ele>118.427666</ele>
        <time>2021-07-04T10:00:43Z</time>
        <extensions>
          <speed>8.829773902893066</speed>
        </extensions>
      </trkpt>
      <trkpt lat="53.452673833" lon="18.368478621">
        <ele>118.118023</ele>
        <time>2021-07-04T10:00:44Z</time>
        <extensions>
          <speed>9.54954719543457</speed>
        </extensions>
      </trkpt>
      <trkpt lat="53.452596859" lon="18.368531746">
        <ele>117.842307</ele>
        <time>2021-07-04T10:00:45Z</time>
        <extensions>
          <speed>9.259256362915039</speed>
        </extensions>
      </trkpt>
      <trkpt lat="53.452515507" lon="18.368585607">
        <ele>117.174666</ele>
        <time>2021-07-04T10:00:46Z</time>
        <extensions>
          <speed>9.514092445373535</speed>
        </extensions>
      </trkpt>
      <trkpt lat="53.452425796" lon="18.368645778">
        <ele>116.292125</ele>
        <time>2021-07-04T10:00:47Z</time>
        <extensions>
          <speed>10.191434860229492</speed>
        </extensions>
      </trkpt>
      <trkpt lat="53.452334500" lon="18.368709983">
        <ele>115.862434</ele>
        <time>2021-07-04T10:00:48Z</time>
        <extensions>
          <speed>9.889185905456543</speed>
        </extensions>
      </trkpt>
      <trkpt lat="53.452234461" lon="18.368781928">
        <ele>116.028111</ele>
        <time>2021-07-04T10:00:49Z</time>
        <extensions>
          <speed>10.893277168273926</speed>
        </extensions>
      </trkpt>
      <trkpt lat="53.452134052" lon="18.368857514">
        <ele>115.926232</ele>
        <time>2021-07-04T10:00:50Z</time>
        <extensions>
          <speed>11.062679290771484</speed>
        </extensions>
      </trkpt>
      <trkpt lat="53.452033342" lon="18.368927838">
        <ele>116.038927</ele>
        <time>2021-07-04T10:00:51Z</time>
        <extensions>
          <speed>10.915952682495117</speed>
        </extensions>
      </trkpt>
      <trkpt lat="53.451928902" lon="18.368996979">
        <ele>116.360366</ele>
        <time>2021-07-04T10:00:52Z</time>
        <extensions>
          <speed>11.565055847167969</speed>
        </extensions>
      </trkpt>
      <trkpt lat="53.451825775" lon="18.369063378">
        <ele>116.339041</ele>
        <time>2021-07-04T10:00:53Z</time>
        <extensions>
          <speed>11.750955581665039</speed>
        </extensions>
      </trkpt>
      <trkpt lat="53.451726140" lon="18.369130020">
        <ele>116.101219</ele>
        <time>2021-07-04T10:00:54Z</time>
        <extensions>
          <speed>11.816314697265625</speed>
        </extensions>
      </trkpt>
      <trkpt lat="53.451617672" lon="18.369204955">
        <ele>115.694394</ele>
        <time>2021-07-04T10:00:55Z</time>
        <extensions>
          <speed>12.100135803222656</speed>
        </extensions>
      </trkpt>
      <trkpt lat="53.451517076" lon="18.369273912">
        <ele>115.544203</ele>
        <time>2021-07-04T10:00:56Z</time>
        <extensions>
          <speed>12.053268432617188</speed>
        </extensions>
      </trkpt>
      <trkpt lat="53.451417759" lon="18.369344408">
        <ele>115.419358</ele>
        <time>2021-07-04T10:00:57Z</time>
        <extensions>
          <speed>12.119816780090332</speed>
        </extensions>
      </trkpt>
      <trkpt lat="53.451315856" lon="18.369415662">
        <ele>115.059134</ele>
        <time>2021-07-04T10:00:58Z</time>
        <extensions>
          <speed>12.333599090576172</speed>
        </extensions>
      </trkpt>
      <trkpt lat="53.451219254" lon="18.369483388">
        <ele>114.379203</ele>
        <time>2021-07-04T10:00:59Z</time>
        <extensions>
          <speed>12.18681526184082</speed>
        </extensions>
      </trkpt>
      <trkpt lat="53.451118050" lon="18.369559088">
        <ele>113.589167</ele>
        <time>2021-07-04T10:01:00Z</time>
        <extensions>
          <speed>12.411883354187012</speed>
        </extensions>
      </trkpt>
      <trkpt lat="53.451017371" lon="18.369633050">
        <ele>113.167259</ele>
        <time>2021-07-04T10:01:01Z</time>
        <extensions>
          <speed>12.187625885009766</speed>
        </extensions>
      </trkpt>
      <trkpt lat="53.450910748" lon="18.369707563">
        <ele>112.684366</ele>
        <time>2021-07-04T10:01:02Z</time>
        <extensions>
          <speed>12.476017951965332</speed>
        </extensions>
      </trkpt>
      <trkpt lat="53.450806714" lon="18.369778645">
        <ele>112.532319</ele>
        <time>2021-07-04T10:01:03Z</time>
        <extensions>
          <speed>12.049116134643555</speed>
        </extensions>
      </trkpt>
      <trkpt lat="53.450696724" lon="18.369850788">
        <ele>111.474778</ele>
        <time>2021-07-04T10:01:04Z</time>
        <extensions>
          <speed>12.608444213867188</speed>
        </extensions>
      </trkpt>
      <trkpt lat="53.450591709" lon="18.369916920">
        <ele>110.494004</ele>
        <time>2021-07-04T10:01:05Z</time>
        <extensions>
          <speed>12.756277084350586</speed>
        </extensions>
      </trkpt>
      <trkpt lat="53.450492621" lon="18.369987747">
        <ele>109.366872</ele>
        <time>2021-07-04T10:01:06Z</time>
        <extensions>
          <speed>12.101214408874512</speed>
        </extensions>
      </trkpt>
      <trkpt lat="53.450386594" lon="18.370061493">
        <ele>108.719341</ele>
        <time>2021-07-04T10:01:07Z</time>
        <extensions>
          <speed>12.488965034484863</speed>
        </extensions>
      </trkpt>
      <trkpt lat="53.450274812" lon="18.370140597">
        <ele>107.952156</ele>
        <time>2021-07-04T10:01:08Z</time>
        <extensions>
          <speed>12.886214256286621</speed>
        </extensions>
      </trkpt>
      <trkpt lat="53.450162595" lon="18.370221360">
        <ele>107.556555</ele>
        <time>2021-07-04T10:01:09Z</time>
        <extensions>
          <speed>12.837137222290039</speed>
        </extensions>
      </trkpt>
      <trkpt lat="53.450049842" lon="18.370298726">
        <ele>107.165506</ele>
        <time>2021-07-04T10:01:10Z</time>
        <extensions>
          <speed>12.247709274291992</speed>
        </extensions>
      </trkpt>
      <trkpt lat="53.449953190" lon="18.370365157">
        <ele>106.945214</ele>
        <time>2021-07-04T10:01:11Z</time>
        <extensions>
          <speed>12.023815155029297</speed>
        </extensions>
      </trkpt>
      <trkpt lat="53.449838775" lon="18.370440176">
        <ele>106.726065</ele>
        <time>2021-07-04T10:01:12Z</time>
        <extensions>
          <speed>12.615017890930176</speed>
        </extensions>
      </trkpt>
      <trkpt lat="53.449724520" lon="18.370513912">
        <ele>106.921448</ele>
        <time>2021-07-04T10:01:13Z</time>
        <extensions>
          <speed>12.996308326721191</speed>
        </extensions>
      </trkpt>
      <trkpt lat="53.449614414" lon="18.370583663">
        <ele>107.001859</ele>
        <time>2021-07-04T10:01:14Z</time>
        <extensions>
          <speed>12.477890014648438</speed>
        </extensions>
      </trkpt>
      <trkpt lat="53.449506439" lon="18.370655606">
        <ele>106.565295</ele>
        <time>2021-07-04T10:01:15Z</time>
        <extensions>
          <speed>12.56796932220459</speed>
        </extensions>
      </trkpt>
      <trkpt lat="53.449398877" lon="18.370731104">
        <ele>106.217809</ele>
        <time>2021-07-04T10:01:16Z</time>
        <extensions>
          <speed>12.879551887512207</speed>
        </extensions>
      </trkpt>
      <trkpt lat="53.449284697" lon="18.370811447">
        <ele>105.388641</ele>
        <time>2021-07-04T10:01:17Z</time>
        <extensions>
          <speed>12.941486358642578</speed>
        </extensions>
      </trkpt>
      <trkpt lat="53.449177792" lon="18.370888416">
        <ele>104.680102</ele>
        <time>2021-07-04T10:01:18Z</time>
        <extensions>
          <speed>12.804308891296387</speed>
        </extensions>
      </trkpt>
      <trkpt lat="53.449070309" lon="18.370965602">
        <ele>104.297442</ele>
        <time>2021-07-04T10:01:19Z</time>
        <extensions>
          <speed>13.095147132873535</speed>
        </extensions>
      </trkpt>
      <trkpt lat="53.448969907" lon="18.371044102">
        <ele>103.969924</ele>
        <time>2021-07-04T10:01:20Z</time>
        <extensions>
          <speed>11.855897903442383</speed>
        </extensions>
      </trkpt>
      <trkpt lat="53.448860880" lon="18.371126637">
        <ele>103.686350</ele>
        <time>2021-07-04T10:01:21Z</time>
        <extensions>
          <speed>12.485431671142578</speed>
        </extensions>
      </trkpt>
      <trkpt lat="53.448756632" lon="18.371213952">
        <ele>103.784988</ele>
        <time>2021-07-04T10:01:22Z</time>
        <extensions>
          <speed>12.247774124145508</speed>
        </extensions>
      </trkpt>
      <trkpt lat="53.448656883" lon="18.371296017">
        <ele>103.692853</ele>
        <time>2021-07-04T10:01:23Z</time>
        <extensions>
          <speed>11.809388160705566</speed>
        </extensions>
      </trkpt>
      <trkpt lat="53.448546164" lon="18.371384339">
        <ele>103.766083</ele>
        <time>2021-07-04T10:01:24Z</time>
        <extensions>
          <speed>12.357170104980469</speed>
        </extensions>
      </trkpt>
      <trkpt lat="53.448436728" lon="18.371473552">
        <ele>103.934751</ele>
        <time>2021-07-04T10:01:25Z</time>
        <extensions>
          <speed>12.201115608215332</speed>
        </extensions>
      </trkpt>
      <trkpt lat="53.448332731" lon="18.371560383">
        <ele>104.266052</ele>
        <time>2021-07-04T10:01:26Z</time>
        <extensions>
          <speed>11.936490058898926</speed>
        </extensions>
      </trkpt>
      <trkpt lat="53.448223845" lon="18.371651332">
        <ele>104.617223</ele>
        <time>2021-07-04T10:01:27Z</time>
        <extensions>
          <speed>12.677122116088867</speed>
        </extensions>
      </trkpt>
      <trkpt lat="53.448114739" lon="18.371744729">
        <ele>104.651114</ele>
        <time>2021-07-04T10:01:28Z</time>
        <extensions>
          <speed>12.341673851013184</speed>
        </extensions>
      </trkpt>
      <trkpt lat="53.448002571" lon="18.371838493">
        <ele>104.729726</ele>
        <time>2021-07-04T10:01:29Z</time>
        <extensions>
          <speed>12.131654739379883</speed>
        </extensions>
      </trkpt>
      <trkpt lat="53.447888554" lon="18.371933981">
        <ele>104.707500</ele>
        <time>2021-07-04T10:01:30Z</time>
        <extensions>
          <speed>12.446779251098633</speed>
        </extensions>
      </trkpt>
      <trkpt lat="53.447778937" lon="18.372025745">
        <ele>104.450086</ele>
        <time>2021-07-04T10:01:31Z</time>
        <extensions>
          <speed>12.148619651794434</speed>
        </extensions>
      </trkpt>
      <trkpt lat="53.447672639" lon="18.372114726">
        <ele>103.845648</ele>
        <time>2021-07-04T10:01:32Z</time>
        <extensions>
          <speed>11.935982704162598</speed>
        </extensions>
      </trkpt>
      <trkpt lat="53.447564060" lon="18.372204338">
        <ele>103.099788</ele>
        <time>2021-07-04T10:01:33Z</time>
        <extensions>
          <speed>11.702754020690918</speed>
        </extensions>
      </trkpt>
      <trkpt lat="53.447451976" lon="18.372291133">
        <ele>101.941651</ele>
        <time>2021-07-04T10:01:34Z</time>
        <extensions>
          <speed>12.360682487487793</speed>
        </extensions>
      </trkpt>
      <trkpt lat="53.447340517" lon="18.372377993">
        <ele>100.454617</ele>
        <time>2021-07-04T10:01:35Z</time>
        <extensions>
          <speed>12.462157249450684</speed>
        </extensions>
      </trkpt>
      <trkpt lat="53.447243171" lon="18.372455003">
        <ele>98.732267</ele>
        <time>2021-07-04T10:01:36Z</time>
        <extensions>
          <speed>12.31628131866455</speed>
        </extensions>
      </trkpt>
      <trkpt lat="53.447150800" lon="18.372527880">
        <ele>96.976516</ele>
        <time>2021-07-04T10:01:37Z</time>
        <extensions>
          <speed>12.17775821685791</speed>
        </extensions>
      </trkpt>
      <trkpt lat="53.447058040" lon="18.372599560">
        <ele>95.260763</ele>
        <time>2021-07-04T10:01:38Z</time>
        <extensions>
          <speed>12.003728866577148</speed>
        </extensions>
      </trkpt>
      <trkpt lat="53.446964785" lon="18.372670591">
        <ele>93.661568</ele>
        <time>2021-07-04T10:01:39Z</time>
        <extensions>
          <speed>11.748400688171387</speed>
        </extensions>
      </trkpt>
      <trkpt lat="53.446871289" lon="18.372736459">
        <ele>92.373777</ele>
        <time>2021-07-04T10:01:40Z</time>
        <extensions>
          <speed>11.513252258300781</speed>
        </extensions>
      </trkpt>
      <trkpt lat="53.446777110" lon="18.372796078">
        <ele>91.420774</ele>
        <time>2021-07-04T10:01:41Z</time>
        <extensions>
          <speed>11.232946395874023</speed>
        </extensions>
      </trkpt>
      <trkpt lat="53.446685473" lon="18.372846184">
        <ele>90.709858</ele>
        <time>2021-07-04T10:01:42Z</time>
        <extensions>
          <speed>10.93643569946289</speed>
        </extensions>
      </trkpt>
      <trkpt lat="53.446594791" lon="18.372887606">
        <ele>90.172763</ele>
        <time>2021-07-04T10:01:43Z</time>
        <extensions>
          <speed>10.540069580078125</speed>
        </extensions>
      </trkpt>
      <trkpt lat="53.446504086" lon="18.372916648">
        <ele>89.794300</ele>
        <time>2021-07-04T10:01:44Z</time>
        <extensions>
          <speed>10.15619945526123</speed>
        </extensions>
      </trkpt>
      <trkpt lat="53.446416548" lon="18.372936614">
        <ele>89.406966</ele>
        <time>2021-07-04T10:01:45Z</time>
        <extensions>
          <speed>9.82442855834961</speed>
        </extensions>
      </trkpt>
      <trkpt lat="53.446328684" lon="18.372943053">
        <ele>89.168472</ele>
        <time>2021-07-04T10:01:46Z</time>
        <extensions>
          <speed>9.627646446228027</speed>
        </extensions>
      </trkpt>
      <trkpt lat="53.446244869" lon="18.372945057">
        <ele>88.893249</ele>
        <time>2021-07-04T10:01:47Z</time>
        <extensions>
          <speed>9.469941139221191</speed>
        </extensions>
      </trkpt>
      <trkpt lat="53.446161826" lon="18.372942579">
        <ele>88.658728</ele>
        <time>2021-07-04T10:01:48Z</time>
        <extensions>
          <speed>9.026830673217773</speed>
        </extensions>
      </trkpt>
      <trkpt lat="53.446081516" lon="18.372934339">
        <ele>88.670032</ele>
        <time>2021-07-04T10:01:49Z</time>
        <extensions>
          <speed>8.259237289428711</speed>
        </extensions>
      </trkpt>
      <trkpt lat="53.446002084" lon="18.372929679">
        <ele>88.744787</ele>
        <time>2021-07-04T10:01:50Z</time>
        <extensions>
          <speed>7.841073036193848</speed>
        </extensions>
      </trkpt>
      <trkpt lat="53.445926132" lon="18.372922488">
        <ele>88.910159</ele>
        <time>2021-07-04T10:01:51Z</time>
        <extensions>
          <speed>7.5030670166015625</speed>
        </extensions>
      </trkpt>
      <trkpt lat="53.445849230" lon="18.372915298">
        <ele>89.306122</ele>
        <time>2021-07-04T10:01:52Z</time>
        <extensions>
          <speed>7.477398872375488</speed>
        </extensions>
      </trkpt>
      <trkpt lat="53.445778960" lon="18.372906213">
        <ele>89.615606</ele>
        <time>2021-07-04T10:01:53Z</time>
        <extensions>
          <speed>7.005999565124512</speed>
        </extensions>
      </trkpt>
      <trkpt lat="53.445705686" lon="18.372896036">
        <ele>90.256645</ele>
        <time>2021-07-04T10:01:54Z</time>
        <extensions>
          <speed>6.912088871002197</speed>
        </extensions>
      </trkpt>
      <trkpt lat="53.445635914" lon="18.372879732">
        <ele>90.819078</ele>
        <time>2021-07-04T10:01:55Z</time>
        <extensions>
          <speed>6.730233669281006</speed>
        </extensions>
      </trkpt>
      <trkpt lat="53.445573868" lon="18.372864922">
        <ele>91.200482</ele>
        <time>2021-07-04T10:01:56Z</time>
        <extensions>
          <speed>6.406301498413086</speed>
        </extensions>
      </trkpt>
      <trkpt lat="53.445522446" lon="18.372852304">
        <ele>91.488107</ele>
        <time>2021-07-04T10:01:57Z</time>
        <extensions>
          <speed>6.354716777801514</speed>
        </extensions>
      </trkpt>
      <trkpt lat="53.445464289" lon="18.372840912">
        <ele>92.153673</ele>
        <time>2021-07-04T10:01:58Z</time>
        <extensions>
          <speed>6.168516635894775</speed>
        </extensions>
      </trkpt>
      <trkpt lat="53.445406270" lon="18.372831606">
        <ele>92.079653</ele>
        <time>2021-07-04T10:01:59Z</time>
        <extensions>
          <speed>5.987265110015869</speed>
        </extensions>
      </trkpt>
      <trkpt lat="53.445349268" lon="18.372825346">
        <ele>91.544893</ele>
        <time>2021-07-04T10:02:00Z</time>
        <extensions>
          <speed>6.010693550109863</speed>
        </extensions>
      </trkpt>
      <trkpt lat="53.445295841" lon="18.372819309">
        <ele>91.455994</ele>
        <time>2021-07-04T10:02:01Z</time>
        <extensions>
          <speed>5.419081687927246</speed>
        </extensions>
      </trkpt>
      <trkpt lat="53.445246257" lon="18.372811936">
        <ele>91.393033</ele>
        <time>2021-07-04T10:02:02Z</time>
        <extensions>
          <speed>5.387508869171143</speed>
        </extensions>
      </trkpt>
      <trkpt lat="53.445193758" lon="18.372806229">
        <ele>91.388694</ele>
        <time>2021-07-04T10:02:03Z</time>
        <extensions>
          <speed>5.427534580230713</speed>
        </extensions>
      </trkpt>
      <trkpt lat="53.445141756" lon="18.372798078">
        <ele>91.257260</ele>
        <time>2021-07-04T10:02:04Z</time>
        <extensions>
          <speed>5.431081771850586</speed>
        </extensions>
      </trkpt>
      <trkpt lat="53.445093457" lon="18.372787770">
        <ele>90.982970</ele>
        <time>2021-07-04T10:02:05Z</time>
        <extensions>
          <speed>5.329928398132324</speed>
        </extensions>
      </trkpt>
      <trkpt lat="53.445045905" lon="18.372777790">
        <ele>90.362907</ele>
        <time>2021-07-04T10:02:06Z</time>
        <extensions>
          <speed>5.1148152351379395</speed>
        </extensions>
      </trkpt>
      <trkpt lat="53.445000711" lon="18.372765455">
        <ele>89.659777</ele>
        <time>2021-07-04T10:02:07Z</time>
        <extensions>
          <speed>5.3545660972595215</speed>
        </extensions>
      </trkpt>
      <trkpt lat="53.444949008" lon="18.372755079">
        <ele>89.335693</ele>
        <time>2021-07-04T10:02:08Z</time>
        <extensions>
          <speed>5.293506145477295</speed>
        </extensions>
      </trkpt>
      <trkpt lat="53.444900030" lon="18.372744977">
        <ele>89.063500</ele>
        <time>2021-07-04T10:02:09Z</time>
        <extensions>
          <speed>5.127805709838867</speed>
        </extensions>
      </trkpt>
      <trkpt lat="53.444848282" lon="18.372735490">
        <ele>88.831850</ele>
        <time>2021-07-04T10:02:10Z</time>
        <extensions>
          <speed>5.487521171569824</speed>
        </extensions>
      </trkpt>
      <trkpt lat="53.444802603" lon="18.372722841">
        <ele>88.859117</ele>
        <time>2021-07-04T10:02:11Z</time>
        <extensions>
          <speed>5.113387584686279</speed>
        </extensions>
      </trkpt>
      <trkpt lat="53.444752401" lon="18.372709376">
        <ele>88.960319</ele>
        <time>2021-07-04T10:02:12Z</time>
        <extensions>
          <speed>5.358570575714111</speed>
        </extensions>
      </trkpt>
      <trkpt lat="53.444699030" lon="18.372699490">
        <ele>88.734828</ele>
        <time>2021-07-04T10:02:13Z</time>
        <extensions>
          <speed>5.71461296081543</speed>
        </extensions>
      </trkpt>
      <trkpt lat="53.444650750" lon="18.372689254">
        <ele>88.495215</ele>
        <time>2021-07-04T10:02:14Z</time>
        <extensions>
          <speed>5.709593296051025</speed>
        </extensions>
      </trkpt>
      <trkpt lat="53.444599179" lon="18.372680895">
        <ele>88.221546</ele>
        <time>2021-07-04T10:02:15Z</time>
        <extensions>
          <speed>5.813565731048584</speed>
        </extensions>
      </trkpt>
      <trkpt lat="53.444543066" lon="18.372673424">
        <ele>87.922307</ele>
        <time>2021-07-04T10:02:16Z</time>
        <extensions>
          <speed>5.929004192352295</speed>
        </extensions>
      </trkpt>
      <trkpt lat="53.444480549" lon="18.372661882">
        <ele>87.879223</ele>
        <time>2021-07-04T10:02:17Z</time>
        <extensions>
          <speed>6.116392612457275</speed>
        </extensions>
      </trkpt>
      <trkpt lat="53.444414728" lon="18.372653501">
        <ele>87.987592</ele>
        <time>2021-07-04T10:02:18Z</time>
        <extensions>
          <speed>5.954889297485352</speed>
        </extensions>
      </trkpt>
      <trkpt lat="53.444355963" lon="18.372644575">
        <ele>87.960878</ele>
        <time>2021-07-04T10:02:19Z</time>
        <extensions>
          <speed>5.885845184326172</speed>
        </extensions>
      </trkpt>
      <trkpt lat="53.444294776" lon="18.372636371">
        <ele>88.038182</ele>
        <time>2021-07-04T10:02:20Z</time>
        <extensions>
          <speed>6.114652633666992</speed>
        </extensions>
      </trkpt>
      <trkpt lat="53.444238214" lon="18.372629053">
        <ele>88.010438</ele>
        <time>2021-07-04T10:02:21Z</time>
        <extensions>
          <speed>5.977737903594971</speed>
        </extensions>
      </trkpt>
      <trkpt lat="53.444186769" lon="18.372619492">
        <ele>87.440293</ele>
        <time>2021-07-04T10:02:22Z</time>
        <extensions>
          <speed>6.078006744384766</speed>
        </extensions>
      </trkpt>
      <trkpt lat="53.444131327" lon="18.372610669">
        <ele>86.752843</ele>
        <time>2021-07-04T10:02:23Z</time>
        <extensions>
          <speed>6.372226238250732</speed>
        </extensions>
      </trkpt>
      <trkpt lat="53.444074137" lon="18.372599129">
        <ele>86.374781</ele>
        <time>2021-07-04T10:02:24Z</time>
        <extensions>
          <speed>6.544590473175049</speed>
        </extensions>
      </trkpt>
      <trkpt lat="53.444016035" lon="18.372586936">
        <ele>86.051751</ele>
        <time>2021-07-04T10:02:25Z</time>
        <extensions>
          <speed>6.459949493408203</speed>
        </extensions>
      </trkpt>
      <trkpt lat="53.443957433" lon="18.372577504">
        <ele>85.636277</ele>
        <time>2021-07-04T10:02:26Z</time>
        <extensions>
          <speed>6.606067657470703</speed>
        </extensions>
      </trkpt>
      <trkpt lat="53.443899640" lon="18.372569121">
        <ele>85.173321</ele>
        <time>2021-07-04T10:02:27Z</time>
        <extensions>
          <speed>6.49650239944458</speed>
        </extensions>
      </trkpt>
      <trkpt lat="53.443837963" lon="18.372558676">
        <ele>84.934442</ele>
        <time>2021-07-04T10:02:28Z</time>
        <extensions>
          <speed>6.8585944175720215</speed>
        </extensions>
      </trkpt>
      <trkpt lat="53.443775168" lon="18.372545832">
        <ele>84.916577</ele>
        <time>2021-07-04T10:02:29Z</time>
        <extensions>
          <speed>6.752181529998779</speed>
        </extensions>
      </trkpt>
      <trkpt lat="53.443709438" lon="18.372533617">
        <ele>85.009817</ele>
        <time>2021-07-04T10:02:30Z</time>
        <extensions>
          <speed>6.908397197723389</speed>
        </extensions>
      </trkpt>
      <trkpt lat="53.443642764" lon="18.372520937">
        <ele>85.016130</ele>
        <time>2021-07-04T10:02:31Z</time>
        <extensions>
          <speed>6.951615810394287</speed>
        </extensions>
      </trkpt>
      <trkpt lat="53.443582230" lon="18.372507950">
        <ele>84.741334</ele>
        <time>2021-07-04T10:02:32Z</time>
        <extensions>
          <speed>7.147156715393066</speed>
        </extensions>
      </trkpt>
      <trkpt lat="53.443518347" lon="18.372499254">
        <ele>84.849361</ele>
        <time>2021-07-04T10:02:33Z</time>
        <extensions>
          <speed>7.089808464050293</speed>
        </extensions>
      </trkpt>
      <trkpt lat="53.443461058" lon="18.372487004">
        <ele>85.178543</ele>
        <time>2021-07-04T10:02:34Z</time>
        <extensions>
          <speed>7.091202259063721</speed>
        </extensions>
      </trkpt>
      <trkpt lat="53.443400522" lon="18.372473813">
        <ele>85.876230</ele>
        <time>2021-07-04T10:02:35Z</time>
        <extensions>
          <speed>7.064012050628662</speed>
        </extensions>
      </trkpt>
      <trkpt lat="53.443336833" lon="18.372461748">
        <ele>86.256399</ele>
        <time>2021-07-04T10:02:36Z</time>
        <extensions>
          <speed>6.598581314086914</speed>
        </extensions>
      </trkpt>
      <trkpt lat="53.443274054" lon="18.372450435">
        <ele>86.484598</ele>
        <time>2021-07-04T10:02:37Z</time>
        <extensions>
          <speed>6.540976047515869</speed>
        </extensions>
      </trkpt>
      <trkpt lat="53.443206920" lon="18.372432849">
        <ele>86.949916</ele>
        <time>2021-07-04T10:02:38Z</time>
        <extensions>
          <speed>6.754651069641113</speed>
        </extensions>
      </trkpt>
      <trkpt lat="53.443144910" lon="18.372417535">
        <ele>87.197118</ele>
        <time>2021-07-04T10:02:39Z</time>
        <extensions>
          <speed>6.45484733581543</speed>
        </extensions>
      </trkpt>
      <trkpt lat="53.443073094" lon="18.372403715">
        <ele>87.706277</ele>
        <time>2021-07-04T10:02:40Z</time>
        <extensions>
          <speed>6.822722911834717</speed>
        </extensions>
      </trkpt>
      <trkpt lat="53.443000181" lon="18.372390312">
        <ele>87.890041</ele>
        <time>2021-07-04T10:02:41Z</time>
        <extensions>
          <speed>7.102301120758057</speed>
        </extensions>
      </trkpt>
      <trkpt lat="53.442921008" lon="18.372379893">
        <ele>87.649931</ele>
        <time>2021-07-04T10:02:42Z</time>
        <extensions>
          <speed>7.083512306213379</speed>
        </extensions>
      </trkpt>
      <trkpt lat="53.442845721" lon="18.372368292">
        <ele>87.511529</ele>
        <time>2021-07-04T10:02:43Z</time>
        <extensions>
          <speed>7.507524490356445</speed>
        </extensions>
      </trkpt>
      <trkpt lat="53.442773661" lon="18.372358262">
        <ele>87.689362</ele>
        <time>2021-07-04T10:02:44Z</time>
        <extensions>
          <speed>7.888888359069824</speed>
        </extensions>
      </trkpt>
      <trkpt lat="53.442701743" lon="18.372347942">
        <ele>88.296439</ele>
        <time>2021-07-04T10:02:45Z</time>
        <extensions>
          <speed>7.1124701499938965</speed>
        </extensions>
      </trkpt>
      <trkpt lat="53.442636594" lon="18.372336470">
        <ele>89.101868</ele>
        <time>2021-07-04T10:02:46Z</time>
        <extensions>
          <speed>6.7637715339660645</speed>
        </extensions>
      </trkpt>
      <trkpt lat="53.442560828" lon="18.372325203">
        <ele>89.308640</ele>
        <time>2021-07-04T10:02:47Z</time>
        <extensions>
          <speed>7.497400760650635</speed>
        </extensions>
      </trkpt>
      <trkpt lat="53.442489418" lon="18.372314823">
        <ele>89.248402</ele>
        <time>2021-07-04T10:02:48Z</time>
        <extensions>
          <speed>7.277714729309082</speed>
        </extensions>
      </trkpt>
      <trkpt lat="53.442417907" lon="18.372305120">
        <ele>89.188866</ele>
        <time>2021-07-04T10:02:49Z</time>
        <extensions>
          <speed>7.480802059173584</speed>
        </extensions>
      </trkpt>
      <trkpt lat="53.442353085" lon="18.372293405">
        <ele>89.003351</ele>
        <time>2021-07-04T10:02:50Z</time>
        <extensions>
          <speed>7.333402156829834</speed>
        </extensions>
      </trkpt>
      <trkpt lat="53.442286758" lon="18.372280050">
        <ele>88.996635</ele>
        <time>2021-07-04T10:02:51Z</time>
        <extensions>
          <speed>7.567502021789551</speed>
        </extensions>
      </trkpt>
      <trkpt lat="53.442228998" lon="18.372265870">
        <ele>89.285827</ele>
        <time>2021-07-04T10:02:52Z</time>
        <extensions>
          <speed>6.862851619720459</speed>
        </extensions>
      </trkpt>
      <trkpt lat="53.442167131" lon="18.372252385">
        <ele>89.458944</ele>
        <time>2021-07-04T10:02:53Z</time>
        <extensions>
          <speed>6.949747562408447</speed>
        </extensions>
      </trkpt>
      <trkpt lat="53.442096894" lon="18.372237928">
        <ele>89.226415</ele>
        <time>2021-07-04T10:02:54Z</time>
        <extensions>
          <speed>7.508837699890137</speed>
        </extensions>
      </trkpt>
      <trkpt lat="53.442026243" lon="18.372225045">
        <ele>88.625196</ele>
        <time>2021-07-04T10:02:55Z</time>
        <extensions>
          <speed>7.267065525054932</speed>
        </extensions>
      </trkpt>
      <trkpt lat="53.441960720" lon="18.372217537">
        <ele>87.341943</ele>
        <time>2021-07-04T10:02:56Z</time>
        <extensions>
          <speed>7.4768524169921875</speed>
        </extensions>
      </trkpt>
      <trkpt lat="53.441890048" lon="18.372207468">
        <ele>86.745461</ele>
        <time>2021-07-04T10:02:57Z</time>
        <extensions>
          <speed>6.933682441711426</speed>
        </extensions>
      </trkpt>
      <trkpt lat="53.441822442" lon="18.372195521">
        <ele>86.406663</ele>
        <time>2021-07-04T10:02:58Z</time>
        <extensions>
          <speed>6.987990856170654</speed>
        </extensions>
      </trkpt>
      <trkpt lat="53.441752921" lon="18.372184394">
        <ele>85.960440</ele>
        <time>2021-07-04T10:02:59Z</time>
        <extensions>
          <speed>7.053315162658691</speed>
        </extensions>
      </trkpt>
      <trkpt lat="53.441679654" lon="18.372174808">
        <ele>85.819197</ele>
        <time>2021-07-04T10:03:00Z</time>
        <extensions>
          <speed>7.042917728424072</speed>
        </extensions>
      </trkpt>
      <trkpt lat="53.441606539" lon="18.372162547">
        <ele>85.899668</ele>
        <time>2021-07-04T10:03:01Z</time>
        <extensions>
          <speed>7.265993595123291</speed>
        </extensions>
      </trkpt>
      <trkpt lat="53.441536488" lon="18.372147087">
        <ele>85.838252</ele>
        <time>2021-07-04T10:03:02Z</time>
        <extensions>
          <speed>7.078734397888184</speed>
        </extensions>
      </trkpt>
      <trkpt lat="53.441457634" lon="18.372134341">
        <ele>86.187297</ele>
        <time>2021-07-04T10:03:03Z</time>
        <extensions>
          <speed>7.191987037658691</speed>
        </extensions>
      </trkpt>
      <trkpt lat="53.441376361" lon="18.372122929">
        <ele>86.216892</ele>
        <time>2021-07-04T10:03:04Z</time>
        <extensions>
          <speed>7.242220878601074</speed>
        </extensions>
      </trkpt>
      <trkpt lat="53.441308455" lon="18.372110808">
        <ele>86.291831</ele>
        <time>2021-07-04T10:03:05Z</time>
        <extensions>
          <speed>6.98785924911499</speed>
        </extensions>
      </trkpt>
      <trkpt lat="53.441234953" lon="18.372096290">
        <ele>86.252008</ele>
        <time>2021-07-04T10:03:06Z</time>
        <extensions>
          <speed>7.22929573059082</speed>
        </extensions>
      </trkpt>
      <trkpt lat="53.441157154" lon="18.372079705">
        <ele>85.912935</ele>
        <time>2021-07-04T10:03:07Z</time>
        <extensions>
          <speed>7.364817142486572</speed>
        </extensions>
      </trkpt>
      <trkpt lat="53.441086463" lon="18.372066165">
        <ele>85.525010</ele>
        <time>2021-07-04T10:03:08Z</time>
        <extensions>
          <speed>7.102851390838623</speed>
        </extensions>
      </trkpt>
      <trkpt lat="53.441016835" lon="18.372054931">
        <ele>84.857945</ele>
        <time>2021-07-04T10:03:09Z</time>
        <extensions>
          <speed>7.058218479156494</speed>
        </extensions>
      </trkpt>
      <trkpt lat="53.440935416" lon="18.372048239">
        <ele>84.282042</ele>
        <time>2021-07-04T10:03:10Z</time>
        <extensions>
          <speed>7.638915538787842</speed>
        </extensions>
      </trkpt>
      <trkpt lat="53.440868184" lon="18.372044528">
        <ele>83.887940</ele>
        <time>2021-07-04T10:03:11Z</time>
        <extensions>
          <speed>6.573890209197998</speed>
        </extensions>
      </trkpt>
      <trkpt lat="53.440796992" lon="18.372034992">
        <ele>83.028516</ele>
        <time>2021-07-04T10:03:12Z</time>
        <extensions>
          <speed>7.319988250732422</speed>
        </extensions>
      </trkpt>
      <trkpt lat="53.440722493" lon="18.372021118">
        <ele>82.525379</ele>
        <time>2021-07-04T10:03:13Z</time>
        <extensions>
          <speed>7.6788763999938965</speed>
        </extensions>
      </trkpt>
      <trkpt lat="53.440644812" lon="18.372010595">
        <ele>81.903762</ele>
        <time>2021-07-04T10:03:14Z</time>
        <extensions>
          <speed>7.409990310668945</speed>
        </extensions>
      </trkpt>
      <trkpt lat="53.440566195" lon="18.371997602">
        <ele>81.586214</ele>
        <time>2021-07-04T10:03:15Z</time>
        <extensions>
          <speed>7.540108680725098</speed>
        </extensions>
      </trkpt>
      <trkpt lat="53.440489471" lon="18.371982713">
        <ele>81.949886</ele>
        <time>2021-07-04T10:03:16Z</time>
        <extensions>
          <speed>7.342652797698975</speed>
        </extensions>
      </trkpt>
      <trkpt lat="53.440416166" lon="18.371966209">
        <ele>82.896637</ele>
        <time>2021-07-04T10:03:17Z</time>
        <extensions>
          <speed>7.051032066345215</speed>
        </extensions>
      </trkpt>
      <trkpt lat="53.440338644" lon="18.371948159">
        <ele>84.184229</ele>
        <time>2021-07-04T10:03:18Z</time>
        <extensions>
          <speed>7.065431594848633</speed>
        </extensions>
      </trkpt>
      <trkpt lat="53.440253356" lon="18.371932393">
        <ele>85.192904</ele>
        <time>2021-07-04T10:03:19Z</time>
        <extensions>
          <speed>7.1916937828063965</speed>
        </extensions>
      </trkpt>
      <trkpt lat="53.440185635" lon="18.371918674">
        <ele>85.765202</ele>
        <time>2021-07-04T10:03:20Z</time>
        <extensions>
          <speed>6.447995185852051</speed>
        </extensions>
      </trkpt>
      <trkpt lat="53.440133304" lon="18.371903330">
        <ele>85.991839</ele>
        <time>2021-07-04T10:03:21Z</time>
        <extensions>
          <speed>5.926922798156738</speed>
        </extensions>
      </trkpt>
      <trkpt lat="53.440062377" lon="18.371884995">
        <ele>86.125155</ele>
        <time>2021-07-04T10:03:22Z</time>
        <extensions>
          <speed>6.782733917236328</speed>
        </extensions>
      </trkpt>
      <trkpt lat="53.439986060" lon="18.371873552">
        <ele>85.071106</ele>
        <time>2021-07-04T10:03:23Z</time>
        <extensions>
          <speed>7.089428901672363</speed>
        </extensions>
      </trkpt>
      <trkpt lat="53.439912140" lon="18.371862448">
        <ele>83.835573</ele>
        <time>2021-07-04T10:03:24Z</time>
        <extensions>
          <speed>6.908977031707764</speed>
        </extensions>
      </trkpt>
      <trkpt lat="53.439837562" lon="18.371853052">
        <ele>82.466843</ele>
        <time>2021-07-04T10:03:25Z</time>
        <extensions>
          <speed>6.8470001220703125</speed>
        </extensions>
      </trkpt>
      <trkpt lat="53.439767538" lon="18.371846638">
        <ele>80.992864</ele>
        <time>2021-07-04T10:03:26Z</time>
        <extensions>
          <speed>6.502571105957031</speed>
        </extensions>
      </trkpt>
      <trkpt lat="53.439702949" lon="18.371838972">
        <ele>79.627305</ele>
        <time>2021-07-04T10:03:27Z</time>
        <extensions>
          <speed>6.299567222595215</speed>
        </extensions>
      </trkpt>
      <trkpt lat="53.439640141" lon="18.371831217">
        <ele>79.340938</ele>
        <time>2021-07-04T10:03:28Z</time>
        <extensions>
          <speed>6.046206951141357</speed>
        </extensions>
      </trkpt>
      <trkpt lat="53.439579009" lon="18.371824479">
        <ele>79.167994</ele>
        <time>2021-07-04T10:03:29Z</time>
        <extensions>
          <speed>6.039306640625</speed>
        </extensions>
      </trkpt>
      <trkpt lat="53.439513093" lon="18.371820916">
        <ele>79.123178</ele>
        <time>2021-07-04T10:03:30Z</time>
        <extensions>
          <speed>6.183024883270264</speed>
        </extensions>
      </trkpt>
      <trkpt lat="53.439447311" lon="18.371815566">
        <ele>78.883928</ele>
        <time>2021-07-04T10:03:31Z</time>
        <extensions>
          <speed>6.417693138122559</speed>
        </extensions>
      </trkpt>
      <trkpt lat="53.439384943" lon="18.371805656">
        <ele>78.554891</ele>
        <time>2021-07-04T10:03:32Z</time>
        <extensions>
          <speed>6.343047618865967</speed>
        </extensions>
      </trkpt>
      <trkpt lat="53.439322788" lon="18.371798827">
        <ele>78.585239</ele>
        <time>2021-07-04T10:03:33Z</time>
        <extensions>
          <speed>6.259007453918457</speed>
        </extensions>
      </trkpt>
      <trkpt lat="53.439259413" lon="18.371791564">
        <ele>78.978163</ele>
        <time>2021-07-04T10:03:34Z</time>
        <extensions>
          <speed>6.395364284515381</speed>
        </extensions>
      </trkpt>
      <trkpt lat="53.439192734" lon="18.371784805">
        <ele>79.605057</ele>
        <time>2021-07-04T10:03:35Z</time>
        <extensions>
          <speed>6.468566417694092</speed>
        </extensions>
      </trkpt>
      <trkpt lat="53.439132337" lon="18.371778227">
        <ele>79.785501</ele>
        <time>2021-07-04T10:03:36Z</time>
        <extensions>
          <speed>6.274353504180908</speed>
        </extensions>
      </trkpt>
      <trkpt lat="53.439064239" lon="18.371770511">
        <ele>80.033766</ele>
        <time>2021-07-04T10:03:37Z</time>
        <extensions>
          <speed>6.317465305328369</speed>
        </extensions>
      </trkpt>
      <trkpt lat="53.439000778" lon="18.371763391">
        <ele>80.987051</ele>
        <time>2021-07-04T10:03:38Z</time>
        <extensions>
          <speed>6.568260192871094</speed>
        </extensions>
      </trkpt>
      <trkpt lat="53.438935123" lon="18.371756469">
        <ele>82.063599</ele>
        <time>2021-07-04T10:03:39Z</time>
        <extensions>
          <speed>6.765405654907227</speed>
        </extensions>
      </trkpt>
      <trkpt lat="53.438872779" lon="18.371746683">
        <ele>82.566604</ele>
        <time>2021-07-04T10:03:40Z</time>
        <extensions>
          <speed>6.629654407501221</speed>
        </extensions>
      </trkpt>
      <trkpt lat="53.438807908" lon="18.371731389">
        <ele>83.067818</ele>
        <time>2021-07-04T10:03:41Z</time>
        <extensions>
          <speed>6.589042663574219</speed>
        </extensions>
      </trkpt>
      <trkpt lat="53.438735858" lon="18.371713023">
        <ele>83.526978</ele>
        <time>2021-07-04T10:03:42Z</time>
        <extensions>
          <speed>7.048219203948975</speed>
        </extensions>
      </trkpt>
      <trkpt lat="53.438661920" lon="18.371696982">
        <ele>83.942989</ele>
        <time>2021-07-04T10:03:43Z</time>
        <extensions>
          <speed>7.267937183380127</speed>
        </extensions>
      </trkpt>
      <trkpt lat="53.438589275" lon="18.371683326">
        <ele>84.330146</ele>
        <time>2021-07-04T10:03:44Z</time>
        <extensions>
          <speed>7.215451240539551</speed>
        </extensions>
      </trkpt>
      <trkpt lat="53.438516299" lon="18.371669860">
        <ele>84.549148</ele>
        <time>2021-07-04T10:03:45Z</time>
        <extensions>
          <speed>7.400285243988037</speed>
        </extensions>
      </trkpt>
      <trkpt lat="53.438443466" lon="18.371660044">
        <ele>84.184181</ele>
        <time>2021-07-04T10:03:46Z</time>
        <extensions>
          <speed>7.721907615661621</speed>
        </extensions>
      </trkpt>
      <trkpt lat="53.438368228" lon="18.371647886">
        <ele>83.912536</ele>
        <time>2021-07-04T10:03:47Z</time>
        <extensions>
          <speed>8.075211524963379</speed>
        </extensions>
      </trkpt>
      <trkpt lat="53.438295186" lon="18.371636514">
        <ele>83.405148</ele>
        <time>2021-07-04T10:03:48Z</time>
        <extensions>
          <speed>8.093695640563965</speed>
        </extensions>
      </trkpt>
      <trkpt lat="53.438223136" lon="18.371629451">
        <ele>82.298493</ele>
        <time>2021-07-04T10:03:49Z</time>
        <extensions>
          <speed>7.769501686096191</speed>
        </extensions>
      </trkpt>
      <trkpt lat="53.438145406" lon="18.371625252">
        <ele>81.435214</ele>
        <time>2021-07-04T10:03:50Z</time>
        <extensions>
          <speed>8.470812797546387</speed>
        </extensions>
      </trkpt>
      <trkpt lat="53.438058643" lon="18.371623638">
        <ele>80.700468</ele>
        <time>2021-07-04T10:03:51Z</time>
        <extensions>
          <speed>9.410184860229492</speed>
        </extensions>
      </trkpt>
      <trkpt lat="53.437967094" lon="18.371619383">
        <ele>79.913435</ele>
        <time>2021-07-04T10:03:52Z</time>
        <extensions>
          <speed>9.79404354095459</speed>
        </extensions>
      </trkpt>
      <trkpt lat="53.437873357" lon="18.371615994">
        <ele>79.074019</ele>
        <time>2021-07-04T10:03:53Z</time>
        <extensions>
          <speed>10.236197471618652</speed>
        </extensions>
      </trkpt>
      <trkpt lat="53.437773636" lon="18.371617002">
        <ele>78.757195</ele>
        <time>2021-07-04T10:03:54Z</time>
        <extensions>
          <speed>10.26285171508789</speed>
        </extensions>
      </trkpt>
      <trkpt lat="53.437676128" lon="18.371622955">
        <ele>78.214855</ele>
        <time>2021-07-04T10:03:55Z</time>
        <extensions>
          <speed>10.884782791137695</speed>
        </extensions>
      </trkpt>
      <trkpt lat="53.437575806" lon="18.371629149">
        <ele>77.829067</ele>
        <time>2021-07-04T10:03:56Z</time>
        <extensions>
          <speed>11.247262954711914</speed>
        </extensions>
      </trkpt>
      <trkpt lat="53.437471492" lon="18.371644397">
        <ele>77.601572</ele>
        <time>2021-07-04T10:03:57Z</time>
        <extensions>
          <speed>11.528536796569824</speed>
        </extensions>
      </trkpt>
      <trkpt lat="53.437369034" lon="18.371659141">
        <ele>77.101605</ele>
        <time>2021-07-04T10:03:58Z</time>
        <extensions>
          <speed>11.540430068969727</speed>
        </extensions>
      </trkpt>
      <trkpt lat="53.437265126" lon="18.371676727">
        <ele>76.510751</ele>
        <time>2021-07-04T10:03:59Z</time>
        <extensions>
          <speed>11.750724792480469</speed>
        </extensions>
      </trkpt>
      <trkpt lat="53.437159768" lon="18.371692689">
        <ele>75.758398</ele>
        <time>2021-07-04T10:04:00Z</time>
        <extensions>
          <speed>12.033846855163574</speed>
        </extensions>
      </trkpt>
      <trkpt lat="53.437053244" lon="18.371710719">
        <ele>74.879496</ele>
        <time>2021-07-04T10:04:01Z</time>
        <extensions>
          <speed>12.225400924682617</speed>
        </extensions>
      </trkpt>
      <trkpt lat="53.436939695" lon="18.371730964">
        <ele>74.103278</ele>
        <time>2021-07-04T10:04:02Z</time>
        <extensions>
          <speed>12.522263526916504</speed>
        </extensions>
      </trkpt>
      <trkpt lat="53.436823552" lon="18.371761847">
        <ele>73.334349</ele>
        <time>2021-07-04T10:04:03Z</time>
        <extensions>
          <speed>12.699520111083984</speed>
        </extensions>
      </trkpt>
      <trkpt lat="53.436706722" lon="18.371798967">
        <ele>72.610071</ele>
        <time>2021-07-04T10:04:04Z</time>
        <extensions>
          <speed>13.05422306060791</speed>
        </extensions>
      </trkpt>
      <trkpt lat="53.436590374" lon="18.371842694">
        <ele>71.921077</ele>
        <time>2021-07-04T10:04:05Z</time>
        <extensions>
          <speed>13.1897554397583</speed>
        </extensions>
      </trkpt>
      <trkpt lat="53.436474152" lon="18.371887039">
        <ele>71.164098</ele>
        <time>2021-07-04T10:04:06Z</time>
        <extensions>
          <speed>13.234609603881836</speed>
        </extensions>
      </trkpt>
      <trkpt lat="53.436363995" lon="18.371935086">
        <ele>70.291890</ele>
        <time>2021-07-04T10:04:07Z</time>
        <extensions>
          <speed>13.223906517028809</speed>
        </extensions>
      </trkpt>
      <trkpt lat="53.436245877" lon="18.371984935">
        <ele>69.684762</ele>
        <time>2021-07-04T10:04:08Z</time>
        <extensions>
          <speed>13.12662124633789</speed>
        </extensions>
      </trkpt>
      <trkpt lat="53.436129247" lon="18.372045360">
        <ele>69.414936</ele>
        <time>2021-07-04T10:04:09Z</time>
        <extensions>
          <speed>13.141491889953613</speed>
        </extensions>
      </trkpt>
      <trkpt lat="53.436032363" lon="18.372109674">
        <ele>69.128803</ele>
        <time>2021-07-04T10:04:10Z</time>
        <extensions>
          <speed>12.09300422668457</speed>
        </extensions>
      </trkpt>
    </trkseg>
  </trk>
</gpx>
