<?xml version="1.0" encoding="UTF-8"?>
<gpx version="1.1" creator="GPSBabel - http://www.gpsbabel.org" xmlns="http://www.topografix.com/GPX/1/1" xmlns:xsi="http://www.w3.org/2001/XMLSchema-instance">
  <metadata>
    <name>2022-08-23_08-12-30</name>
    <time>2022-10-11T20:50:55.486Z</time>
    <bounds minlat="53.626693500" minlon="18.849241050" maxlat="53.915264180" maxlon="19.038712580"/>
  </metadata>
  <trk>
    <name>Tracked with OSMTracker for Android™</name>
    <trkseg>
      <trkpt lat="53.838437250" lon="18.958877620">
        <ele>50.615173</ele>
        <time>2022-08-23T10:46:35Z</time>
        <extensions>
          <speed>3.0899999141693115</speed>
        </extensions>
      </trkpt>
      <trkpt lat="53.838422950" lon="18.958924690">
        <ele>51.207886</ele>
        <time>2022-08-23T10:46:36Z</time>
        <extensions>
          <speed>3.2200000286102295</speed>
        </extensions>
      </trkpt>
      <trkpt lat="53.838415420" lon="18.958969080">
        <ele>51.488342</ele>
        <time>2022-08-23T10:46:37Z</time>
        <extensions>
          <speed>2.5199999809265137</speed>
        </extensions>
      </trkpt>
      <trkpt lat="53.838409650" lon="18.959006730">
        <ele>51.522888</ele>
        <time>2022-08-23T10:46:38Z</time>
        <extensions>
          <speed>2.2899999618530273</speed>
        </extensions>
      </trkpt>
      <trkpt lat="53.838402600" lon="18.959041900">
        <ele>51.890198</ele>
        <time>2022-08-23T10:46:39Z</time>
        <extensions>
          <speed>2.049999952316284</speed>
        </extensions>
      </trkpt>
      <trkpt lat="53.838397490" lon="18.959075590">
        <ele>52.213379</ele>
        <time>2022-08-23T10:46:40Z</time>
        <extensions>
          <speed>2.130000114440918</speed>
        </extensions>
      </trkpt>
      <trkpt lat="53.838391150" lon="18.959108180">
        <ele>52.674072</ele>
        <time>2022-08-23T10:46:41Z</time>
        <extensions>
          <speed>2.190000057220459</speed>
        </extensions>
      </trkpt>
      <trkpt lat="53.838383680" lon="18.959140390">
        <ele>52.868103</ele>
        <time>2022-08-23T10:46:42Z</time>
        <extensions>
          <speed>2.3499999046325684</speed>
        </extensions>
      </trkpt>
      <trkpt lat="53.838375120" lon="18.959173110">
        <ele>53.152466</ele>
        <time>2022-08-23T10:46:43Z</time>
        <extensions>
          <speed>2.309999942779541</speed>
        </extensions>
      </trkpt>
      <trkpt lat="53.838366190" lon="18.959204130">
        <ele>53.425049</ele>
        <time>2022-08-23T10:46:44Z</time>
        <extensions>
          <speed>2.3399999141693115</speed>
        </extensions>
      </trkpt>
      <trkpt lat="53.838358850" lon="18.959231410">
        <ele>53.669800</ele>
        <time>2022-08-23T10:46:45Z</time>
        <extensions>
          <speed>2.0899999141693115</speed>
        </extensions>
      </trkpt>
      <trkpt lat="53.838352130" lon="18.959260170">
        <ele>53.443726</ele>
        <time>2022-08-23T10:46:46Z</time>
        <extensions>
          <speed>2.0799999237060547</speed>
        </extensions>
      </trkpt>
      <trkpt lat="53.838343990" lon="18.959291900">
        <ele>54.052307</ele>
        <time>2022-08-23T10:46:47Z</time>
        <extensions>
          <speed>2.4000000953674316</speed>
        </extensions>
      </trkpt>
      <trkpt lat="53.838333780" lon="18.959325000">
        <ele>54.391968</ele>
        <time>2022-08-23T10:46:48Z</time>
        <extensions>
          <speed>2.4200000762939453</speed>
        </extensions>
      </trkpt>
      <trkpt lat="53.838320260" lon="18.959359740">
        <ele>54.710449</ele>
        <time>2022-08-23T10:46:49Z</time>
        <extensions>
          <speed>2.619999885559082</speed>
        </extensions>
      </trkpt>
      <trkpt lat="53.838307080" lon="18.959394950">
        <ele>55.283997</ele>
        <time>2022-08-23T10:46:50Z</time>
        <extensions>
          <speed>2.549999952316284</speed>
        </extensions>
      </trkpt>
      <trkpt lat="53.838295610" lon="18.959431150">
        <ele>55.520874</ele>
        <time>2022-08-23T10:46:51Z</time>
        <extensions>
          <speed>2.569999933242798</speed>
        </extensions>
      </trkpt>
      <trkpt lat="53.838282390" lon="18.959467130">
        <ele>55.877686</ele>
        <time>2022-08-23T10:46:52Z</time>
        <extensions>
          <speed>2.5999999046325684</speed>
        </extensions>
      </trkpt>
      <trkpt lat="53.838268340" lon="18.959500580">
        <ele>56.183044</ele>
        <time>2022-08-23T10:46:53Z</time>
        <extensions>
          <speed>2.5</speed>
        </extensions>
      </trkpt>
      <trkpt lat="53.838257590" lon="18.959534000">
        <ele>56.469238</ele>
        <time>2022-08-23T10:46:54Z</time>
        <extensions>
          <speed>2.3499999046325684</speed>
        </extensions>
      </trkpt>
      <trkpt lat="53.838246350" lon="18.959567230">
        <ele>56.579468</ele>
        <time>2022-08-23T10:46:55Z</time>
        <extensions>
          <speed>2.4800000190734863</speed>
        </extensions>
      </trkpt>
      <trkpt lat="53.838230480" lon="18.959596830">
        <ele>56.875122</ele>
        <time>2022-08-23T10:46:56Z</time>
        <extensions>
          <speed>2.6500000953674316</speed>
        </extensions>
      </trkpt>
      <trkpt lat="53.838213680" lon="18.959625320">
        <ele>57.293274</ele>
        <time>2022-08-23T10:46:57Z</time>
        <extensions>
          <speed>2.559999942779541</speed>
        </extensions>
      </trkpt>
      <trkpt lat="53.838198780" lon="18.959655230">
        <ele>57.385986</ele>
        <time>2022-08-23T10:46:58Z</time>
        <extensions>
          <speed>2.609999895095825</speed>
        </extensions>
      </trkpt>
      <trkpt lat="53.838183850" lon="18.959683510">
        <ele>57.744995</ele>
        <time>2022-08-23T10:46:59Z</time>
        <extensions>
          <speed>2.4800000190734863</speed>
        </extensions>
      </trkpt>
      <trkpt lat="53.838169330" lon="18.959713500">
        <ele>57.881958</ele>
        <time>2022-08-23T10:47:00Z</time>
        <extensions>
          <speed>2.4600000381469727</speed>
        </extensions>
      </trkpt>
      <trkpt lat="53.838155690" lon="18.959743440">
        <ele>58.068604</ele>
        <time>2022-08-23T10:47:01Z</time>
        <extensions>
          <speed>2.450000047683716</speed>
        </extensions>
      </trkpt>
      <trkpt lat="53.838142120" lon="18.959773120">
        <ele>57.712219</ele>
        <time>2022-08-23T10:47:02Z</time>
        <extensions>
          <speed>2.5299999713897705</speed>
        </extensions>
      </trkpt>
      <trkpt lat="53.838127920" lon="18.959803340">
        <ele>58.088806</ele>
        <time>2022-08-23T10:47:03Z</time>
        <extensions>
          <speed>2.4700000286102295</speed>
        </extensions>
      </trkpt>
      <trkpt lat="53.838115180" lon="18.959834060">
        <ele>58.582520</ele>
        <time>2022-08-23T10:47:04Z</time>
        <extensions>
          <speed>2.2200000286102295</speed>
        </extensions>
      </trkpt>
      <trkpt lat="53.838107500" lon="18.959864870">
        <ele>58.947449</ele>
        <time>2022-08-23T10:47:05Z</time>
        <extensions>
          <speed>2.0799999237060547</speed>
        </extensions>
      </trkpt>
      <trkpt lat="53.838098470" lon="18.959898930">
        <ele>58.931763</ele>
        <time>2022-08-23T10:47:06Z</time>
        <extensions>
          <speed>2.5</speed>
        </extensions>
      </trkpt>
      <trkpt lat="53.838085960" lon="18.959930440">
        <ele>59.514343</ele>
        <time>2022-08-23T10:47:07Z</time>
        <extensions>
          <speed>2.3299999237060547</speed>
        </extensions>
      </trkpt>
      <trkpt lat="53.838074080" lon="18.959959820">
        <ele>59.580750</ele>
        <time>2022-08-23T10:47:08Z</time>
        <extensions>
          <speed>2.299999952316284</speed>
        </extensions>
      </trkpt>
      <trkpt lat="53.838062540" lon="18.959989620">
        <ele>59.910400</ele>
        <time>2022-08-23T10:47:09Z</time>
        <extensions>
          <speed>2.309999942779541</speed>
        </extensions>
      </trkpt>
      <trkpt lat="53.838053060" lon="18.960020140">
        <ele>60.133240</ele>
        <time>2022-08-23T10:47:10Z</time>
        <extensions>
          <speed>2.2699999809265137</speed>
        </extensions>
      </trkpt>
      <trkpt lat="53.838042790" lon="18.960053190">
        <ele>60.329102</ele>
        <time>2022-08-23T10:47:11Z</time>
        <extensions>
          <speed>2.5899999141693115</speed>
        </extensions>
      </trkpt>
      <trkpt lat="53.838033910" lon="18.960088790">
        <ele>60.446472</ele>
        <time>2022-08-23T10:47:12Z</time>
        <extensions>
          <speed>2.5999999046325684</speed>
        </extensions>
      </trkpt>
      <trkpt lat="53.838028490" lon="18.960126390">
        <ele>60.543640</ele>
        <time>2022-08-23T10:47:13Z</time>
        <extensions>
          <speed>2.5399999618530273</speed>
        </extensions>
      </trkpt>
      <trkpt lat="53.838025160" lon="18.960165480">
        <ele>61.113403</ele>
        <time>2022-08-23T10:47:14Z</time>
        <extensions>
          <speed>2.559999942779541</speed>
        </extensions>
      </trkpt>
      <trkpt lat="53.838023480" lon="18.960204370">
        <ele>61.081726</ele>
        <time>2022-08-23T10:47:15Z</time>
        <extensions>
          <speed>2.4700000286102295</speed>
        </extensions>
      </trkpt>
      <trkpt lat="53.838024470" lon="18.960245020">
        <ele>61.407349</ele>
        <time>2022-08-23T10:47:16Z</time>
        <extensions>
          <speed>2.640000104904175</speed>
        </extensions>
      </trkpt>
      <trkpt lat="53.838026820" lon="18.960285690">
        <ele>61.761292</ele>
        <time>2022-08-23T10:47:17Z</time>
        <extensions>
          <speed>2.640000104904175</speed>
        </extensions>
      </trkpt>
      <trkpt lat="53.838030420" lon="18.960326980">
        <ele>62.195313</ele>
        <time>2022-08-23T10:47:18Z</time>
        <extensions>
          <speed>2.799999952316284</speed>
        </extensions>
      </trkpt>
      <trkpt lat="53.838036300" lon="18.960365950">
        <ele>62.311279</ele>
        <time>2022-08-23T10:47:19Z</time>
        <extensions>
          <speed>2.5399999618530273</speed>
        </extensions>
      </trkpt>
      <trkpt lat="53.838042680" lon="18.960402930">
        <ele>62.640625</ele>
        <time>2022-08-23T10:47:20Z</time>
        <extensions>
          <speed>2.4600000381469727</speed>
        </extensions>
      </trkpt>
      <trkpt lat="53.838048900" lon="18.960438820">
        <ele>62.794067</ele>
        <time>2022-08-23T10:47:21Z</time>
        <extensions>
          <speed>2.4100000858306885</speed>
        </extensions>
      </trkpt>
      <trkpt lat="53.838054210" lon="18.960474160">
        <ele>63.068848</ele>
        <time>2022-08-23T10:47:22Z</time>
        <extensions>
          <speed>2.319999933242798</speed>
        </extensions>
      </trkpt>
      <trkpt lat="53.838061450" lon="18.960506210">
        <ele>63.056335</ele>
        <time>2022-08-23T10:47:23Z</time>
        <extensions>
          <speed>2.200000047683716</speed>
        </extensions>
      </trkpt>
      <trkpt lat="53.838068580" lon="18.960534990">
        <ele>63.268066</ele>
        <time>2022-08-23T10:47:24Z</time>
        <extensions>
          <speed>2.130000114440918</speed>
        </extensions>
      </trkpt>
      <trkpt lat="53.838072930" lon="18.960567690">
        <ele>63.592529</ele>
        <time>2022-08-23T10:47:25Z</time>
        <extensions>
          <speed>2.2899999618530273</speed>
        </extensions>
      </trkpt>
      <trkpt lat="53.838078380" lon="18.960603010">
        <ele>64.035278</ele>
        <time>2022-08-23T10:47:26Z</time>
        <extensions>
          <speed>2.4100000858306885</speed>
        </extensions>
      </trkpt>
      <trkpt lat="53.838088010" lon="18.960634860">
        <ele>64.467896</ele>
        <time>2022-08-23T10:47:27Z</time>
        <extensions>
          <speed>2.299999952316284</speed>
        </extensions>
      </trkpt>
      <trkpt lat="53.838100340" lon="18.960665120">
        <ele>64.535156</ele>
        <time>2022-08-23T10:47:28Z</time>
        <extensions>
          <speed>2.490000009536743</speed>
        </extensions>
      </trkpt>
      <trkpt lat="53.838112090" lon="18.960697470">
        <ele>64.714966</ele>
        <time>2022-08-23T10:47:29Z</time>
        <extensions>
          <speed>2.5399999618530273</speed>
        </extensions>
      </trkpt>
      <trkpt lat="53.838121350" lon="18.960732920">
        <ele>64.982910</ele>
        <time>2022-08-23T10:47:30Z</time>
        <extensions>
          <speed>2.5899999141693115</speed>
        </extensions>
      </trkpt>
      <trkpt lat="53.838128000" lon="18.960770490">
        <ele>65.225464</ele>
        <time>2022-08-23T10:47:31Z</time>
        <extensions>
          <speed>2.549999952316284</speed>
        </extensions>
      </trkpt>
      <trkpt lat="53.838130560" lon="18.960810100">
        <ele>65.515381</ele>
        <time>2022-08-23T10:47:32Z</time>
        <extensions>
          <speed>2.640000104904175</speed>
        </extensions>
      </trkpt>
    </trkseg>
  </trk>
</gpx>
